\relax 
\providecommand\hyper@newdestlabel[2]{}
\citation{nixon2012feature}
\FN@pp@footnotehinttrue 
\@writefile{toc}{\contentsline {chapter}{Ap\IeC {\'e}ndice A}{43}{appendix*.25}}
\@writefile{lof}{\addvspace {10\p@ }}
\@writefile{lot}{\addvspace {10\p@ }}
\@writefile{brf}{\backcite{nixon2012feature}{{43}{6.2}{appendix*.25}}}
\@writefile{toc}{\contentsline {section}{\numberline {A.1}K-Nearest Neighbour}{43}{section.Alph0.1}}
\@writefile{lof}{\contentsline {figure}{\numberline {1}{\ignorespaces Diagrama de la asignaci\IeC {\'o}n de clase para la muestra ``+'', seg\IeC {\'u}n su vecino m\IeC {\'a}s cercano \relax }}{44}{figure.caption.26}}
\newlabel{fig:knn1}{{1}{44}{Diagrama de la asignación de clase para la muestra ``+'', según su vecino más cercano \relax }{figure.caption.26}{}}
\FN@pp@footnotehinttrue 
\@setckpt{Appendix1/appendix1}{
\setcounter{page}{46}
\setcounter{equation}{3}
\setcounter{enumi}{2}
\setcounter{enumii}{0}
\setcounter{enumiii}{0}
\setcounter{enumiv}{0}
\setcounter{footnote}{0}
\setcounter{mpfootnote}{0}
\setcounter{part}{0}
\setcounter{chapter}{0}
\setcounter{section}{1}
\setcounter{subsection}{0}
\setcounter{subsubsection}{0}
\setcounter{paragraph}{0}
\setcounter{subparagraph}{0}
\setcounter{figure}{1}
\setcounter{table}{0}
\setcounter{pp@next@reset}{1}
\setcounter{@fnserial}{0}
\setcounter{NAT@ctr}{0}
\setcounter{FancyVerbLine}{0}
\setcounter{Item}{2}
\setcounter{Hfootnote}{0}
\setcounter{bookmark@seq@number}{37}
\setcounter{ContinuedFloat}{0}
\setcounter{subfigure}{0}
\setcounter{subtable}{0}
\setcounter{dblbotnumber}{2}
\setcounter{float@type}{8}
\setcounter{parentequation}{0}
\setcounter{su@anzahl}{0}
\setcounter{LT@tables}{0}
\setcounter{LT@chunks}{0}
\setcounter{algorithm}{2}
\setcounter{ALG@line}{11}
\setcounter{ALG@rem}{0}
\setcounter{ALG@nested}{0}
\setcounter{ALG@Lnr}{2}
\setcounter{ALG@blocknr}{10}
\setcounter{ALG@storecount}{0}
\setcounter{ALG@tmpcounter}{0}
\setcounter{section@level}{1}
}
