\relax 
\providecommand\hyper@newdestlabel[2]{}
\citation{pitas2000digital}
\citation{gonzalez1992digital}
\FN@pp@footnotehinttrue 
\@writefile{toc}{\contentsline {chapter}{\numberline {2}Mejora de la Imagen}{3}{chapter.2}}
\@writefile{lof}{\addvspace {10\p@ }}
\@writefile{lot}{\addvspace {10\p@ }}
\newlabel{chap2}{{2}{3}{Mejora de la Imagen}{chapter.2}{}}
\@writefile{toc}{\contentsline {section}{\numberline {2.1}Imagen Digital}{3}{section.2.1}}
\citation{solomon2011fundamentals}
\citation{burger2008digital}
\providecommand*\caption@xref[2]{\@setref\relax\@undefined{#1}}
\newlabel{fig:pixeles}{{2.1a}{4}{Imagen de $8 \times 8$ p\'ixeles.\relax }{figure.caption.4}{}}
\newlabel{sub@fig:pixeles}{{a}{4}{Imagen de $8 \times 8$ p\'ixeles.\relax }{figure.caption.4}{}}
\newlabel{fig:matriz}{{2.1b}{4}{Matriz con la intensidad de cada pixel.\relax }{figure.caption.4}{}}
\newlabel{sub@fig:matriz}{{b}{4}{Matriz con la intensidad de cada pixel.\relax }{figure.caption.4}{}}
\@writefile{lof}{\contentsline {figure}{\numberline {2.1}{\ignorespaces Muestra la representaci\'on de una imagen.\relax }}{4}{figure.caption.4}}
\newlabel{fig:2.1}{{2.1}{4}{Muestra la representaci\'on de una imagen.\relax }{figure.caption.4}{}}
\@writefile{toc}{\contentsline {section}{\numberline {2.2}Defectos en la Imagen}{4}{section.2.2}}
\@writefile{toc}{\contentsline {subsection}{\numberline {2.2.1}Histograma}{4}{subsection.2.2.1}}
\citation{burger2008digital}
\citation{burger2008digital}
\@writefile{lof}{\contentsline {figure}{\numberline {2.2}{\ignorespaces Muestra la representaci\'on de un histograma.\relax }}{5}{figure.caption.5}}
\newlabel{fig:2.2}{{2.2}{5}{Muestra la representaci\'on de un histograma.\relax }{figure.caption.5}{}}
\@writefile{toc}{\contentsline {subsection}{\numberline {2.2.2}Saturaci\'on}{5}{subsection.2.2.2}}
\citation{burger2008digital}
\@writefile{lof}{\contentsline {figure}{\numberline {2.3}{\ignorespaces Saturaci\'on en intensidades bajas.\relax }}{6}{figure.caption.6}}
\newlabel{fig:2.3}{{2.3}{6}{Saturaci\'on en intensidades bajas.\relax }{figure.caption.6}{}}
\@writefile{toc}{\contentsline {subsection}{\numberline {2.2.3}Picos y lagunas}{6}{subsection.2.2.3}}
\@writefile{lof}{\contentsline {figure}{\numberline {2.4}{\ignorespaces Lagunas en el histograma causado por un aumento en el contraste.\relax }}{6}{figure.caption.7}}
\newlabel{fig:2.4}{{2.4}{6}{Lagunas en el histograma causado por un aumento en el contraste.\relax }{figure.caption.7}{}}
\@writefile{lof}{\contentsline {figure}{\numberline {2.5}{\ignorespaces Picos en el histograma como resultado a una reduci\'on de contraste.\relax }}{7}{figure.caption.8}}
\newlabel{fig:2.5}{{2.5}{7}{Picos en el histograma como resultado a una reduci\'on de contraste.\relax }{figure.caption.8}{}}
\@writefile{toc}{\contentsline {section}{\numberline {2.3}Brillo Medio de la Imagen}{7}{section.2.3}}
\@writefile{toc}{\contentsline {subsection}{\numberline {2.3.1}Funci\'on de Densidad de Probabilidades}{7}{subsection.2.3.1}}
\@writefile{toc}{\contentsline {subsection}{\numberline {2.3.2}Funci\'on de Densidad Acumulada}{7}{subsection.2.3.2}}
\newlabel{ecua:2.3}{{2.3}{7}{Funci\'on de Densidad Acumulada}{equation.2.3.3}{}}
\citation{raman2010acomprehensive}
\@writefile{toc}{\contentsline {subsection}{\numberline {2.3.3}Brillo Medio}{8}{subsection.2.3.3}}
\@writefile{toc}{\contentsline {section}{\numberline {2.4}T\'ecnicas de Mejoramiento de la Imagen}{8}{section.2.4}}
\newlabel{sec:2.4}{{2.4}{8}{T\'ecnicas de Mejoramiento de la Imagen}{section.2.4}{}}
\@writefile{toc}{\contentsline {subsection}{\numberline {2.4.1}T\'ecnicas de Dominio Espacial}{8}{subsection.2.4.1}}
\@writefile{lof}{\contentsline {figure}{\numberline {2.6}{\ignorespaces P\'ixel considerado como entrada de la operaci\'on de punto.\relax }}{8}{figure.caption.9}}
\newlabel{fig:2.6}{{2.6}{8}{P\'ixel considerado como entrada de la operaci\'on de punto.\relax }{figure.caption.9}{}}
\citation{raman2010acomprehensive}
\@writefile{lof}{\contentsline {figure}{\numberline {2.7}{\ignorespaces P\'ixeles considerado como entrada de la operaci\'on de vecindad.\relax }}{9}{figure.caption.10}}
\newlabel{fig:2.7}{{2.7}{9}{P\'ixeles considerado como entrada de la operaci\'on de vecindad.\relax }{figure.caption.10}{}}
\@writefile{toc}{\contentsline {subsection}{\numberline {2.4.2}T\'ecnicas de Dominio de Frecuencia}{9}{subsection.2.4.2}}
\@writefile{toc}{\contentsline {section}{\numberline {2.5}Estiramiento de Contraste}{9}{section.2.5}}
\@writefile{lof}{\contentsline {figure}{\numberline {2.8}{\ignorespaces Imagen mal contrastada con su respectivo histograma.\relax }}{10}{figure.caption.11}}
\newlabel{fig:2.8}{{2.8}{10}{Imagen mal contrastada con su respectivo histograma.\relax }{figure.caption.11}{}}
\@writefile{lof}{\contentsline {figure}{\numberline {2.9}{\ignorespaces Imagen resultante luego de un estiramiento de contraste con su respectivo histograma.\relax }}{10}{figure.caption.12}}
\newlabel{fig:2.9}{{2.9}{10}{Imagen resultante luego de un estiramiento de contraste con su respectivo histograma.\relax }{figure.caption.12}{}}
\@writefile{toc}{\contentsline {section}{\numberline {2.6}Resumen}{10}{section.2.6}}
\FN@pp@footnotehinttrue 
\@setckpt{Chapter2/chapter2}{
\setcounter{page}{11}
\setcounter{equation}{4}
\setcounter{enumi}{0}
\setcounter{enumii}{0}
\setcounter{enumiii}{0}
\setcounter{enumiv}{0}
\setcounter{footnote}{0}
\setcounter{mpfootnote}{0}
\setcounter{part}{0}
\setcounter{chapter}{2}
\setcounter{section}{6}
\setcounter{subsection}{0}
\setcounter{subsubsection}{0}
\setcounter{paragraph}{0}
\setcounter{subparagraph}{0}
\setcounter{figure}{9}
\setcounter{table}{0}
\setcounter{pp@next@reset}{1}
\setcounter{@fnserial}{0}
\setcounter{NAT@ctr}{0}
\setcounter{Item}{0}
\setcounter{Hfootnote}{0}
\setcounter{bookmark@seq@number}{24}
\setcounter{ContinuedFloat}{0}
\setcounter{subfigure}{0}
\setcounter{subtable}{0}
\setcounter{dblbotnumber}{2}
\setcounter{float@type}{8}
\setcounter{parentequation}{0}
\setcounter{su@anzahl}{0}
\setcounter{LT@tables}{0}
\setcounter{LT@chunks}{0}
\setcounter{algorithm}{0}
\setcounter{ALC@unique}{0}
\setcounter{ALC@line}{0}
\setcounter{ALC@rem}{0}
\setcounter{ALC@depth}{0}
\setcounter{section@level}{1}
}
