\relax 
\bibstyle{acm}
\citation{elunai2011particulate}
\citation{markr1994}
\citation{materka1998}
\citation{aptulefe2011}
\citation{palm2004color}
\citation{aptoula2007comparative}
\@writefile{toc}{\contentsline {chapter}{\numberline {1}Introducci\IeC {\'o}n}{6}}
\@writefile{lof}{\addvspace {10\p@ }}
\@writefile{lot}{\addvspace {10\p@ }}
\newlabel{chap:introduccion}{{1}{6}}
\@writefile{toc}{\contentsline {section}{\numberline {1.1}Objetivos}{7}}
\@writefile{toc}{\contentsline {subsection}{\numberline {1.1.1}Objetivo General y propuesta }{7}}
\@writefile{toc}{\contentsline {subsection}{\numberline {1.1.2}Objetivos Espec\IeC {\'\i }ficos}{7}}
\@writefile{toc}{\contentsline {section}{\numberline {1.2}Organizaci\IeC {\'o}n del trabajo}{7}}
\citation{aptulefe2011}
\citation{materka1998}
\citation{ivanovicicolor}
\citation{markr1994}
\citation{tamura1978textural}
\@writefile{toc}{\contentsline {chapter}{\numberline {2}Marco Te\IeC {\'o}rico}{9}}
\@writefile{lof}{\addvspace {10\p@ }}
\@writefile{lot}{\addvspace {10\p@ }}
\newlabel{chap:marcoteorico}{{2}{9}}
\@writefile{toc}{\contentsline {section}{\numberline {2.1}Textura}{9}}
\citation{rao2012taxonomy}
\citation{rao2012taxonomy}
\citation{ivanovicicolor}
\citation{ivanovicicolor}
\providecommand*\caption@xref[2]{\@setref\relax\@undefined{#1}}
\newlabel{fig:gull}{{2.1a}{10}}
\newlabel{sub@fig:gull}{{a}{10}}
\newlabel{fig:tiger}{{2.1b}{10}}
\newlabel{sub@fig:tiger}{{b}{10}}
\newlabel{fig:mouse}{{2.1c}{10}}
\newlabel{sub@fig:mouse}{{c}{10}}
\newlabel{fig:mouse}{{2.1d}{10}}
\newlabel{sub@fig:mouse}{{d}{10}}
\@writefile{lof}{\contentsline {figure}{\numberline {2.1}{\ignorespaces Tipos de textura seg\IeC {\'u}n Rao\relax }}{10}}
\newlabel{fig:textureclasif1}{{2.1}{10}}
\citation{ivanovicicolor}
\citation{ivanovicicolor}
\citation{hanbury2005illumination}
\citation{hanbury2005illumination}
\citation{materka1998}
\citation{aptulefe2011}
\citation{ivanovicicolor}
\newlabel{fig:gull}{{2.2a}{11}}
\newlabel{sub@fig:gull}{{a}{11}}
\newlabel{fig:tiger}{{2.2b}{11}}
\newlabel{sub@fig:tiger}{{b}{11}}
\newlabel{fig:mouse}{{2.2c}{11}}
\newlabel{sub@fig:mouse}{{c}{11}}
\@writefile{lof}{\contentsline {figure}{\numberline {2.2}{\ignorespaces Tipos de textura seg\IeC {\'u}n \cite  {ivanovicicolor} \relax }}{11}}
\newlabel{fig:textureclasif2}{{2.2}{11}}
\@writefile{toc}{\contentsline {section}{\numberline {2.2}An\IeC {\'a}lisis de textura}{11}}
\citation{aptulefe2011}
\citation{zhang2002brief}
\citation{materka1998}
\citation{ivanovicicolor}
\@writefile{toc}{\contentsline {subsection}{\numberline {2.2.1}Enfoques para el An\IeC {\'a}lisis de Textura}{12}}
\citation{ivanovicicolor}
\citation{zhang2002brief}
\citation{aptulefe2011}
\citation{zhang2002brief}
\citation{angulo2002morphological}
\citation{matheron1975random}
\citation{matheron2002birth}
\citation{soille2013morphological}
\@writefile{toc}{\contentsline {section}{\numberline {2.3}Clasificaci\IeC {\'o}n y caracterizaci\IeC {\'o}n de textura}{13}}
\@writefile{lof}{\contentsline {figure}{\numberline {2.3}{\ignorespaces Diagrama del problema de extracci\IeC {\'o}n de caracter\IeC {\'\i }sticas y clasificaci\IeC {\'o}n \relax }}{14}}
\newlabel{fig:extraccionyclasif}{{2.3}{14}}
\@writefile{toc}{\contentsline {section}{\numberline {2.4}Matem\IeC {\'a}tica Morfol\IeC {\'o}gica}{14}}
\@writefile{toc}{\contentsline {subsection}{\numberline {2.4.1}Nociones B\IeC {\'a}sicas}{15}}
\@writefile{toc}{\contentsline {subsection}{\numberline {2.4.2}Ret\IeC {\'\i }culo Completo, Ordenamiento e Inclusi\IeC {\'o}n}{15}}
\@writefile{toc}{\contentsline {subsection}{\numberline {2.4.3}Operadores morfol\IeC {\'o}gicos}{16}}
\citation{aptulefe2011}
\citation{tang1998automatic}
\@writefile{toc}{\contentsline {section}{\numberline {2.5}Enfoque morfol\IeC {\'o}gico en la caracterizaci\IeC {\'o}n de textura}{17}}
\newlabel{fig:morf_erosion_dilatacion}{{\caption@xref {fig:morf_erosion_dilatacion}{ on input line 127}}{18}}
\@writefile{lof}{\contentsline {figure}{\numberline {2.4}{\ignorespaces Erosi\IeC {\'o}n y dilataci\IeC {\'o}n de la muestra 000734 de OutexTC13 \relax }}{18}}
\newlabel{fig:morf_apertura_cierre}{{\caption@xref {fig:morf_apertura_cierre}{ on input line 168}}{18}}
\@writefile{lof}{\contentsline {figure}{\numberline {2.5}{\ignorespaces Apertura y Cierre de la muestra de textura 000734 de la base de datos OutexTC13 \relax }}{18}}
\citation{ivanovicicolor}
\@writefile{toc}{\contentsline {subsection}{\numberline {2.5.1}Series morfol\IeC {\'o}gicas}{19}}
\@writefile{lot}{\contentsline {table}{\numberline {2.1}{\ignorespaces Principales herramientas morfol\IeC {\'o}gicas\relax }}{19}}
\citation{matheron1975random}
\citation{vincent2000granulometries}
\citation{soille2013morphological}
\citation{serra1992overview}
\@writefile{toc}{\contentsline {subsection}{\numberline {2.5.2}Distribuciones de tama\IeC {\~n}o Granulometr\IeC {\'\i }a y Patr\IeC {\'o}n espectro }{20}}
\citation{maragos1989pattern}
\newlabel{fig:granul_granulmoneda}{{2.6a}{22}}
\newlabel{sub@fig:granul_granulmoneda}{{a}{22}}
\newlabel{fig:granul_patronmoneda}{{2.6b}{22}}
\newlabel{sub@fig:granul_patronmoneda}{{b}{22}}
\newlabel{fig:granul_patronmoneda}{{2.6c}{22}}
\newlabel{sub@fig:granul_patronmoneda}{{c}{22}}
\@writefile{lof}{\contentsline {figure}{\numberline {2.6}{\ignorespaces  \relax }}{22}}
\citation{serra1992overview}
\citation{maragos1989pattern}
\citation{soille2013morphological}
\newlabel{fig:seriegranulapertura}{{\caption@xref {fig:seriegranulapertura}{ on input line 154}}{23}}
\@writefile{lof}{\contentsline {figure}{\numberline {2.7}{\ignorespaces Diagrama de serie morfol\IeC {\'o}gica basada en apertura morfol\IeC {\'o}gica con elemento estructurante creciente\relax }}{23}}
\@writefile{toc}{\contentsline {subsection}{\numberline {2.5.3}Distribuciones de orientaci\IeC {\'o}n- Covarianza morfol\IeC {\'o}gica}{23}}
\citation{ronse2006mathematical}
\newlabel{fig:cov_se_no_convex}{{\caption@xref {fig:cov_se_no_convex}{ on input line 169}}{24}}
\@writefile{lof}{\contentsline {figure}{\numberline {2.8}{\ignorespaces SE no convexos que inducen distribuciones \relax }}{24}}
\newlabel{fig:granul_000458}{{2.9a}{25}}
\newlabel{sub@fig:granul_000458}{{a}{25}}
\newlabel{fig:granul_000488}{{2.9b}{25}}
\newlabel{sub@fig:granul_000488}{{b}{25}}
\newlabel{fig:cov_granconfusion}{{2.9c}{25}}
\newlabel{sub@fig:cov_granconfusion}{{c}{25}}
\newlabel{fig:cov_mejorquegranul}{{2.9d}{25}}
\newlabel{sub@fig:cov_mejorquegranul}{{d}{25}}
\@writefile{lof}{\contentsline {figure}{\numberline {2.9}{\ignorespaces  Dos muestras de textura diferentes con distribuci\IeC {\'o}n de tama\IeC {\~n}o muy similares.\relax }}{25}}
\citation{hanbury2005illumination}
\@writefile{toc}{\contentsline {subsection}{\numberline {2.5.4}Variograma}{26}}
\@writefile{toc}{\contentsline {subsection}{\numberline {2.5.5}Distribuciones extendidas }{26}}
\@writefile{toc}{\contentsline {subsection}{\numberline {2.5.6}Distribuciones invariantes de rotaci\IeC {\'o}n}{26}}
\@writefile{toc}{\contentsline {subsection}{\numberline {2.5.7}Invarianza a la iluminaci\IeC {\'o}n}{26}}
\newlabel{fig:invariantrot_original}{{2.10a}{27}}
\newlabel{sub@fig:invariantrot_original}{{a}{27}}
\newlabel{fig:invariantrot_rotado90}{{2.10b}{27}}
\newlabel{sub@fig:invariantrot_rotado90}{{b}{27}}
\newlabel{fig:invariantrot_covarianza}{{\caption@xref {fig:invariantrot_covarianza}{ on input line 283}}{27}}
\newlabel{sub@fig:invariantrot_covarianza}{{b}{27}}
\newlabel{fig:invariantrot_granulometria}{{\caption@xref {fig:invariantrot_granulometria}{ on input line 288}}{27}}
\newlabel{sub@fig:invariantrot_granulometria}{{b}{27}}
\@writefile{lof}{\contentsline {figure}{\numberline {2.10}{\ignorespaces  Distribuci\IeC {\'o}n Invariante de rotaci\IeC {\'o}n \relax }}{27}}
\newlabel{fig:invariantrot}{{2.10}{27}}
\citation{maenpaa2004classification}
\citation{hanbury2005illumination}
\@writefile{lof}{\contentsline {figure}{\numberline {2.11}{\ignorespaces Una muestra de textura de Outex TC000014 bajo diferentes condiciones de iluminaci\IeC {\'o}n \relax }}{28}}
\newlabel{fig:invariantilum1}{{2.11}{28}}
\@writefile{lof}{\contentsline {figure}{\numberline {2.12}{\ignorespaces Ventanas de 3x3 pixeles de una muestra de textura con diferentes fuentes de iluminaci\IeC {\'o}n, donde los valores m\IeC {\'\i }nimo y m\IeC {\'a}ximo de intensidad seleccionan los mismos pixeles \relax }}{28}}
\newlabel{fig:invariantminmax}{{2.12}{28}}
\citation{aptulefe2011}
\citation{lefevre2009beyond}
\citation{lefevre2009beyond}
\@writefile{lof}{\contentsline {figure}{\numberline {2.13}{\ignorespaces Muestra de la Fig. 2.10{Una muestra de textura de Outex TC000014 bajo diferentes condiciones de iluminaci\IeC {\'o}n \relax }{figure.2.10}{}\hbox {} luego de aplicar ecualizaci\IeC {\'o}n de histograma en cada canal \relax }}{30}}
\newlabel{fig:invarianequal}{{2.13}{30}}
\@writefile{toc}{\contentsline {subsection}{\numberline {2.5.8}Distribuciones de tama\IeC {\~n}o y forma}{30}}
\newlabel{fig:distriforma1}{{\caption@xref {fig:distriforma1}{ on input line 390}}{30}}
\@writefile{toc}{\contentsline {subsection}{\numberline {2.5.9}M\IeC {\'e}todo de evaluaci\IeC {\'o}n }{31}}
\newlabel{fig:granul_vol_original}{{2.15a}{31}}
\newlabel{sub@fig:granul_vol_original}{{a}{31}}
\newlabel{fig:granul_vol_superficie}{{2.15b}{31}}
\newlabel{sub@fig:granul_vol_superficie}{{b}{31}}
\citation{astoladougherty1999nonlinear}
\citation{lefevre2009beyond}
\citation{wood1996invariant}
\citation{hu1962visual}
\@writefile{toc}{\contentsline {subsubsection}{Momentos invariantes}{32}}
\citation{hu1962visual}
\citation{ayaladomingode2006selecting}
\citation{burger2009digital}
\newlabel{eq:momentinvarfinal}{{2.33}{33}}
\@writefile{toc}{\contentsline {subsection}{\numberline {2.5.10}Elecci\IeC {\'o}n el elemento estructurante }{33}}
\@writefile{toc}{\contentsline {section}{\numberline {2.6}Im\IeC {\'a}genes a Color}{33}}
\citation{palm2004color}
\citation{van2005parallel}
\@writefile{toc}{\contentsline {subsection}{\numberline {2.6.1}Espacios de Color}{34}}
\newlabel{fig:espacolor_original}{{2.16a}{35}}
\newlabel{sub@fig:espacolor_original}{{a}{35}}
\newlabel{fig:espacolor_HSB}{{2.16b}{35}}
\newlabel{sub@fig:espacolor_HSB}{{b}{35}}
\newlabel{fig:espacolor_RGB}{{2.16c}{35}}
\newlabel{sub@fig:espacolor_RGB}{{c}{35}}
\newlabel{fig:tipostecnicascolortextura }{{\caption@xref {fig:tipostecnicascolortextura }{ on input line 60}}{35}}
\@writefile{lof}{\contentsline {figure}{\numberline {2.17}{\ignorespaces Enfoque paralelo, enfoque secuencial , enfoque integrativo \relax }}{35}}
\citation{barnett1976ordering}
\@writefile{toc}{\contentsline {section}{\numberline {2.7}Morfolog\IeC {\'\i }a matem\IeC {\'a}tica en color o multivalorada}{36}}
\newlabel{sec:morfologia_color}{{2.7}{36}}
\@writefile{lof}{\contentsline {figure}{\numberline {2.18}{\ignorespaces Importancia del orden en la morfolog\IeC {\'\i }a de la imagen multivariada\relax }}{36}}
\newlabel{fig:diag_gral_morfmulti}{{2.18}{36}}
\@writefile{toc}{\contentsline {subsection}{\numberline {2.7.1}Ordenamiento de vectores}{36}}
\@writefile{toc}{\contentsline {subsubsection}{\textbf  {Ordenamiento Marginal}}{36}}
\@writefile{toc}{\contentsline {subsubsection}{\textbf  {Ordenamiento por Reducci\IeC {\'o}n}}{37}}
\@writefile{toc}{\contentsline {subsubsection}{\textbf  {Ordenamiento Condicional o Lexicogr\IeC {\'a}fico}}{37}}
\citation{chanussot1998approches}
\citation{goutsias1995morphological}
\citation{aptoula2007comparative}
\citation{zhang1999road}
\@writefile{toc}{\contentsline {subsection}{\numberline {2.7.2}Estrategias de procesamiento }{38}}
\citation{aptoula2007comparative}
\citation{aptoula2007comparative}
\citation{aptulefe2011}
\citation{angulo2002morphological}
\@writefile{lof}{\contentsline {figure}{\numberline {2.19}{\ignorespaces Procesamiento Marginal\relax }}{39}}
\@writefile{lof}{\contentsline {figure}{\numberline {2.20}{\ignorespaces Procesamiento Vectorial: Norma-Euc\IeC {\'l}\IeC {\'\i }dea\relax }}{39}}
\newlabel{fig:marginalvsvectorialdist}{{2.20}{39}}
\@writefile{toc}{\contentsline {subsection}{\numberline {2.7.3}Impacto del m\IeC {\'e}todo de ordenamiento y el espacio}{39}}
\citation{angulo2002morphological}
\citation{ledda2005majority}
\citation{aptoula2007comparative}
\citation{angulo2002morphological}
\newlabel{fig:metodosordcolor}{{\caption@xref {fig:metodosordcolor}{ on input line 192}}{40}}
\@writefile{lof}{\contentsline {figure}{\numberline {2.21}{\ignorespaces Comparativa m\IeC {\'e}todos de ordenaci\IeC {\'o}n\relax }}{40}}
\@writefile{toc}{\contentsline {subsection}{\numberline {2.7.4} Granulometr\IeC {\'\i }a en im\IeC {\'a}genes multiespectrales }{40}}
\citation{lefevre2009beyond}
\citation{hanbury2005illumination}
\citation{angulo2002morphological}
\citation{lefevre2009beyond}
\newlabel{fig:im_000082}{{2.22a}{42}}
\newlabel{sub@fig:im_000082}{{a}{42}}
\newlabel{fig:im_000234}{{2.22b}{42}}
\newlabel{sub@fig:im_000234}{{b}{42}}
\newlabel{fig:im_001233}{{2.22c}{42}}
\newlabel{sub@fig:im_001233}{{c}{42}}
\newlabel{fig:curvargb_ima}{{2.22d}{42}}
\newlabel{sub@fig:curvargb_ima}{{d}{42}}
\newlabel{fig:curvargb_imb}{{2.22e}{42}}
\newlabel{sub@fig:curvargb_imb}{{e}{42}}
\newlabel{fig:curvargb_imc}{{2.22f}{42}}
\newlabel{sub@fig:curvargb_imc}{{f}{42}}
\@writefile{lof}{\contentsline {figure}{\numberline {2.22}{\ignorespaces  Granulommetr\IeC {\'\i }as RGB, m\IeC {\'e}todo de ordenaci\IeC {\'o}n $\parallel v \parallel $ para las texturas de la fila superior \relax }}{42}}
\newlabel{fig:curvargb_NORM}{{2.22}{42}}
\citation{akhloufi2007frameworkfeaturesdist}
\newlabel{fig:curvargb_imaNN}{{2.23a}{44}}
\newlabel{sub@fig:curvargb_imaNN}{{a}{44}}
\newlabel{fig:curvargb_imbNN}{{2.23b}{44}}
\newlabel{sub@fig:curvargb_imbNN}{{b}{44}}
\newlabel{fig:curvargb_imcNN}{{2.23c}{44}}
\newlabel{sub@fig:curvargb_imcNN}{{c}{44}}
\@writefile{lof}{\contentsline {figure}{\numberline {2.23}{\ignorespaces  Vol\IeC {\'u}menes sin normalizar para la serie granulom\IeC {\'e}trica de las texturas en Fig.2.20{Granulommetr\IeC {\'\i }as RGB, m\IeC {\'e}todo de ordenaci\IeC {\'o}n $\parallel v \parallel $ para las texturas de la fila superior \relax }{figure.2.20}{}\hbox {} \relax }}{44}}
\newlabel{fig:curvargb_NN}{{2.23}{44}}
\citation{najman2003using}
\citation{chowdhury2003automated}
\citation{di2000segmentation}
\citation{theera2007morphological}
\@writefile{toc}{\contentsline {section}{\numberline {2.8}Aplicaciones}{45}}
\@writefile{toc}{\contentsline {subsection}{\numberline {2.8.1}An\IeC {\'a}lisis de documentos }{45}}
\@writefile{toc}{\contentsline {subsection}{\numberline {2.8.2}Im\IeC {\'a}genes Biom\IeC {\'e}dicas }{45}}
\citation{chen1993classification}
\citation{miller1992classification}
\citation{ayala2001granulometric}
\citation{zhang1999road}
\newlabel{fig:aplic_procdoc1}{{\caption@xref {fig:aplic_procdoc1}{ on input line 22}}{46}}
\@writefile{lof}{\contentsline {figure}{\numberline {2.24}{\ignorespaces Imagen de entrada e imagen de salida \relax }}{46}}
\citation{lefevre2007automatic}
\citation{sobus1992evaluating}
\citation{horgan1998mathematical}
\@writefile{toc}{\contentsline {subsection}{\numberline {2.8.3}Im\IeC {\'a}genes Remotas }{47}}
\@writefile{lof}{\contentsline {figure}{\numberline {2.25}{\ignorespaces nput image (top left), filtered image (top right), detected objects (bottom left), and final result (bottom right) on one of the test images \relax }}{47}}
\@writefile{toc}{\contentsline {subsection}{\numberline {2.8.4}Inspecci\IeC {\'o}n industrial}{47}}
\citation{mauricio2000texture}
\citation{capowiez2003characterisation}
\citation{ozden2005image}
\citation{ozden2005image}
\citation{ozden2005image}
\citation{vincent2000granulometries}
\@writefile{toc}{\contentsline {subsection}{\numberline {2.8.5}Geolog\IeC {\'\i }a}{48}}
\@writefile{toc}{\contentsline {subsection}{\numberline {2.8.6}Segmentaci\IeC {\'o}n de textura}{48}}
\@writefile{toc}{\contentsline {subsection}{\numberline {2.8.7}Recuperaci\IeC {\'o}n de im\IeC {\'a}genes basada en el contenido }{48}}
\newlabel{apli_segment1}{{\caption@xref {apli_segment1}{ on input line 88}}{49}}
\@writefile{lof}{\contentsline {figure}{\numberline {2.26}{\ignorespaces Segmentaci\IeC {\'o}n utilizando texturas en \cite  {ozden2005image} \relax }}{49}}
\newlabel{apli_cibr1}{{\caption@xref {apli_cibr1}{ on input line 106}}{49}}
\@writefile{lof}{\contentsline {figure}{\numberline {2.27}{\ignorespaces Demo Online CIBR, Universidad Estatal de Washington\relax }}{49}}
\citation{van1992methods}
\citation{vincent1994fast}
\@writefile{toc}{\contentsline {section}{\numberline {2.9}Implementacion }{50}}
\@writefile{toc}{\contentsline {section}{\numberline {2.10}Diagramas pendientes}{50}}
\@writefile{toc}{\contentsline {section}{\numberline {2.11} Clasificadores }{50}}
\citation{ojala2002outex}
\citation{ayaladomingode2006selecting}
\@writefile{toc}{\contentsline {chapter}{\numberline {3}Experimentos y resultados }{51}}
\@writefile{lof}{\addvspace {10\p@ }}
\@writefile{lot}{\addvspace {10\p@ }}
\newlabel{chap:experimentos_resultados}{{3}{51}}
\@writefile{toc}{\contentsline {section}{\numberline {3.1}Outex}{51}}
\citation{jvazquez2014}
\newlabel{expres_outexgallery}{{\caption@xref {expres_outexgallery}{ on input line 25}}{52}}
\@writefile{lof}{\contentsline {figure}{\numberline {3.1}{\ignorespaces  \relax }}{52}}
\@writefile{toc}{\contentsline {section}{\numberline {3.2}Descripci\IeC {\'o}n de pruebas}{52}}
\citation{aptoula2007comparative}
\citation{aptulefe2011}
\citation{aptulefe2011}
\citation{ayaladomingode2006selecting}
\newlabel{exper_ordenaciones}{{\caption@xref {exper_ordenaciones}{ on input line 97}}{53}}
\citation{aptulefe2011}
\@writefile{toc}{\contentsline {subsection}{\numberline {3.2.1}Experimento 2}{54}}
\@writefile{lot}{\contentsline {table}{\numberline {3.1}{\ignorespaces Prueba de medidas de evaluaci\IeC {\'o}n \relax }}{54}}
\newlabel{}{{3.1}{54}}
\@writefile{lot}{\contentsline {table}{\numberline {3.2}{\ignorespaces Clasificaci\IeC {\'o}n con Norma Eucl\IeC {\'\i }dea $\left \delimiter "026B30D v \right \delimiter "026B30D $ \relax }}{55}}
\newlabel{}{{3.2}{55}}
\@writefile{lot}{\contentsline {table}{\numberline {3.3}{\ignorespaces Clasificaci\IeC {\'o}n con Ordenamiento $\mathrm  {HST_{2}} $\relax }}{55}}
\newlabel{}{{3.3}{55}}
\@writefile{lot}{\contentsline {table}{\numberline {3.4}{\ignorespaces Concatenaci\IeC {\'o}n de medidas, Ordenamiento $\mathrm  {HST_{2}} $ \relax }}{55}}
\newlabel{}{{3.4}{55}}
\citation{finlayson2005illuminant}
\bibdata{../referencias/primary,../referencias/second,../referencias/colorord}
\@writefile{lot}{\contentsline {table}{\numberline {3.5}{\ignorespaces Clasificaci\IeC {\'o}n con Procesamiento Marginal\relax }}{56}}
\newlabel{}{{3.5}{56}}
\@writefile{lot}{\contentsline {table}{\numberline {3.6}{\ignorespaces Concatenaci\IeC {\'o}n de medidas, Procesamiento Marginal\relax }}{56}}
\newlabel{}{{3.6}{56}}
\@writefile{toc}{\contentsline {subsection}{\numberline {3.2.2}Experimento 3}{56}}
\bibcite{materka1998}{1}
\bibcite{akhloufi2007frameworkfeaturesdist}{2}
\bibcite{angulo2002morphological}{3}
\bibcite{aptoula2007comparative}{4}
\bibcite{ayala2001granulometric}{5}
\bibcite{barnett1976ordering}{6}
\bibcite{burger2009digital}{7}
\bibcite{capowiez2003characterisation}{8}
\bibcite{chanussot1998approches}{9}
\bibcite{chen1993classification}{10}
\bibcite{chowdhury2003automated}{11}
\bibcite{ayaladomingode2006selecting}{12}
\bibcite{di2000segmentation}{13}
\bibcite{astoladougherty1999nonlinear}{14}
\bibcite{elunai2011particulate}{15}
\bibcite{aptulefe2011}{16}
\bibcite{finlayson2005illuminant}{17}
\bibcite{goutsias1995morphological}{18}
\bibcite{hanbury2005illumination}{19}
\bibcite{horgan1998mathematical}{20}
\bibcite{hu1962visual}{21}
\bibcite{ivanovicicolor}{22}
\bibcite{ledda2005majority}{23}
\bibcite{lefevre2009beyond}{24}
\bibcite{lefevre2007automatic}{25}
\bibcite{maenpaa2004classification}{26}
\bibcite{maragos1989pattern}{27}
\bibcite{matheron1975random}{28}
\bibcite{matheron2002birth}{29}
\bibcite{mauricio2000texture}{30}
\bibcite{miller1992classification}{31}
\bibcite{najman2003using}{32}
\bibcite{ojala2002outex}{33}
\bibcite{ozden2005image}{34}
\bibcite{palm2004color}{35}
\bibcite{ronse2006mathematical}{36}
\bibcite{markr1994}{37}
\bibcite{serra1992overview}{38}
\bibcite{sobus1992evaluating}{39}
\bibcite{soille2013morphological}{40}
\bibcite{tamura1978textural}{41}
\bibcite{tang1998automatic}{42}
\bibcite{theera2007morphological}{43}
\bibcite{van1992methods}{44}
\bibcite{van2005parallel}{45}
\bibcite{jvazquez2014}{46}
\bibcite{vincent1994fast}{47}
\bibcite{vincent2000granulometries}{48}
\bibcite{wood1996invariant}{49}
\bibcite{zhang1999road}{50}
\bibcite{zhang2002brief}{51}
