\relax 
\catcode `"\active 
\catcode `<\active 
\catcode `>\active 
\@nameuse{es@quoting}
\citation{ortiz2002procesamiento}
\citation{ortiz2002procesamiento}
\citation{ortiz2002procesamiento}
\select@language{spanish}
\@writefile{toc}{\select@language{spanish}}
\@writefile{lof}{\select@language{spanish}}
\@writefile{lot}{\select@language{spanish}}
\@writefile{toc}{\contentsline {section}{\numberline {1}Introducci\'on}{1}}
\newlabel{intro}{{1}{1}}
\citation{joblove1978color,meyer1980perceptual}
\citation{busin2008color}
\citation{tkalcic2003colour}
\citation{rolleston1996color}
\citation{tkalcic2003colour}
\citation{rolleston1996color}
\citation{ortiz2002procesamiento}
\citation{leon2006color}
\citation{mahy1994evaluation}
\citation{munson1995color}
\citation{zamora2001comparative}
\citation{pitas1992order}
\citation{ortiz2002procesamiento}
\citation{hanbury2001mathematical}
\citation{hanbury2001mathematical2}
\citation{hanbury2002mathematical3}
\citation{tobar2007mathematical}
\citation{lei2013vector}
\citation{zaharescu2003color,gao2013adaptive,wang2012edge}
\citation{heijmans1990algebraic}
\citation{aptoula2007comparative}
\citation{ledoux2012limits,van2013group,velasco2012random,lezoray2009learning,velasco2010morphological,burgeth2013morphology,velasco2011supervised,hanbury2001morphological,angulo2010pseudo,aptoula2008alpha,kleefeld2015processing,vazquez2014color}
\citation{chanussot1997bit}
\citation{aptoula2007comparative,aptoula2008lexicographical}
\@writefile{toc}{\contentsline {section}{\numberline {2}Trabajos Relacionados}{2}}
\newlabel{Relacionados}{{2}{2}}
\citation{louverdis2002new}
\citation{louverdis2002morphological}
\citation{vardavoulia2002vector}
\citation{ortiz2002colour}
\citation{ortiz2004gaussian}
\citation{hanbury2002mathematical3}
\citation{hanbury2001mathematical2}
\citation{angulo2003mathematical}
\citation{hanbury2002mathematical3}
\citation{angulo2005morphological}
\citation{sartor2001morphological}
\citation{angulo2003morphological}
\citation{angulo2003morphologie,angulo2005unified}
\citation{gao2013adaptive}
\citation{bouchet2016fuzzy}
\citation{benavent2012mathematical}
\citation{gonzales2004digital}
\citation{gonzales2004digital}
\@writefile{toc}{\contentsline {section}{\numberline {3}Fundamentos de filtrado de imagen a color}{3}}
\newlabel{Teo}{{3}{3}}
\@writefile{toc}{\contentsline {subsection}{\numberline {3.1}Im\'agenes RGB}{3}}
\@writefile{lof}{\contentsline {figure}{\numberline {1}{\ignorespaces RGB Image\relax }}{4}}
\providecommand*\caption@xref[2]{\@setref\relax\@undefined{#1}}
\newlabel{fig:ImagenRGB}{{1}{4}}
\@writefile{toc}{\contentsline {subsection}{\numberline {3.2}Histogramas}{4}}
\@writefile{toc}{\contentsline {subsubsection}{\numberline {3.2.1}Histograma de un componente}{4}}
\newlabel{histograma}{{1}{4}}
\newlabel{probabilidad}{{2}{4}}
\@writefile{toc}{\contentsline {subsubsection}{\numberline {3.2.2}Histograma de color}{4}}
\newlabel{eq:histograma_color}{{3}{4}}
\@writefile{lot}{\contentsline {table}{\numberline {1}{\ignorespaces Orden natural de colores\relax }}{4}}
\newlabel{table:orden_color}{{1}{4}}
\@writefile{toc}{\contentsline {subsection}{\numberline {3.3}Filtrado de im\'agenes}{4}}
\newlabel{Filtrado}{{5}{4}}
\citation{aptoula2007pseudo}
\citation{serra1986introduction}
\citation{serra1993anamorphoses}
\citation{barnett1976ordering}
\@writefile{lof}{\contentsline {figure}{\numberline {2}{\ignorespaces Filtrado de la imagen digital.\relax }}{5}}
\newlabel{fig:Filt}{{2}{5}}
\@writefile{toc}{\contentsline {subsection}{\numberline {3.4}Matem\'atica morfol\'ogica}{5}}
\@writefile{toc}{\contentsline {subsection}{\numberline {3.5}Ordenamiento}{5}}
\citation{aptoula2007comparative}
\citation{astola1990vector}
\citation{aptoula2007comparative}
\citation{aptoula2007comparative}
\@writefile{toc}{\contentsline {subsubsection}{\numberline {3.5.1}Procesamiento marginal}{6}}
\@writefile{toc}{\contentsline {subsubsection}{\numberline {3.5.2}Procesamiento vectorial}{6}}
\@writefile{toc}{\contentsline {section}{\numberline {4}Ordenamiento propuesto}{6}}
\newlabel{Transformacion}{{12}{6}}
\newlabel{Mio}{{13}{6}}
\citation{zamora2001comparative}
\citation{angulo2003morphological}
\citation{ortiz2002procesamiento}
\citation{chanussot1997bit}
\@writefile{toc}{\contentsline {section}{\numberline {5}Resultados experimentales}{7}}
\@writefile{toc}{\contentsline {subsection}{\numberline {5.1}Funci\'on aplicada sobre cada componente de la imagen RGB}{7}}
\newlabel{promedio}{{14}{7}}
\newlabel{minimo}{{15}{7}}
\newlabel{maximo}{{16}{7}}
\newlabel{ModaMinimo}{{17}{7}}
\newlabel{ModaMinimo}{{18}{7}}
\newlabel{varianza}{{19}{7}}
\newlabel{Suavidad}{{20}{7}}
\@writefile{toc}{\contentsline {subsection}{\numberline {5.2}Dominio}{7}}
\@writefile{toc}{\contentsline {subsubsection}{\numberline {5.2.1}Vecindario como Dominio}{7}}
\@writefile{toc}{\contentsline {subsubsection}{\numberline {5.2.2}Divisi\'on de la imagen en sub-regiones}{7}}
\citation{tuzlukov2002signal}
\@writefile{lof}{\contentsline {figure}{\numberline {3}{\ignorespaces Vecindario $B$ de tama\~no 3 $\times $ 3 centrado en el pixel $(u,v)$ \relax }}{8}}
\newlabel{fig:Ventana B}{{3}{8}}
\@writefile{lof}{\contentsline {figure}{\numberline {4}{\ignorespaces Imagen divida en 4 sub-regiones\relax }}{8}}
\newlabel{fig:ventanas}{{4}{8}}
\@writefile{lof}{\contentsline {figure}{\numberline {5}{\ignorespaces ominio cuando la ventana toca una sub-regi\'on\relax }}{8}}
\newlabel{fig:Sub-region}{{5}{8}}
\@writefile{lof}{\contentsline {figure}{\numberline {6}{\ignorespaces Dominio cuando la ventana toca m\'as de una sub-regi\'on.\relax }}{8}}
\newlabel{fig:Sub-regiones}{{6}{8}}
\@writefile{toc}{\contentsline {subsection}{\numberline {5.3}Aplicaci\'on 1: Eliminaci\'on de ruido}{8}}
\citation{davenport1958random}
\citation{arbelaez2007berkeley}
\@writefile{toc}{\contentsline {subsubsection}{\numberline {5.3.1}Ruidos Utilizados}{9}}
\@writefile{lof}{\contentsline {figure}{\numberline {7}{\ignorespaces Imagen con diferentes tipos de ruidos.\relax }}{9}}
\newlabel{fig:ruido}{{7}{9}}
\@writefile{lof}{\contentsline {subfigure}{\numberline{(a)}{\ignorespaces {Imagen original}}}{9}}
\@writefile{lof}{\contentsline {subfigure}{\numberline{(b)}{\ignorespaces {Imagen con ruido gaussiano ($\sigma ^2 = 0.05, \mu =0$)}}}{9}}
\@writefile{lof}{\contentsline {subfigure}{\numberline{(c)}{\ignorespaces {Imagen con ruido speckle ($\sigma ^2 = 0.05, \mu =0$)}}}{9}}
\@writefile{lof}{\contentsline {subfigure}{\numberline{(d)}{\ignorespaces {Imagen con ruido sal y pimienta ($p = 0.05$)}}}{9}}
\citation{ortiz2002procesamiento}
\citation{chanussot1997bit}
\citation{zamora2001comparative}
\citation{angulo2003morphological}
\citation{ortiz2002procesamiento}
\citation{willmott2005advantages}
\citation{stricker1995similarity}
\@writefile{toc}{\contentsline {subsubsection}{\numberline {5.3.2}M\'etodos de ordenamiento empleados}{10}}
\@writefile{toc}{\contentsline {subsubsection}{\numberline {5.3.3}M\'etricas Utilizadas}{10}}
\@input{anexos/graficos.aux}
\citation{soille2013morphological,mukhopadhyay2000multiscale ,soille1997note,bai2010analysis,bai2010infrared,bai2010analysis1}
\citation{soille2013morphological}
\citation{lefevre2009beyond}
\citation{palm2004color,van2005parallel}
\citation{matheron1975random}
\citation{vincent2000granulometries,soille2013morphological}
\bibstyle{spbasic}
\bibdata{sample}
\@writefile{toc}{\contentsline {subsection}{\numberline {5.4}Aplicaci\IeC {\'o}n 2: Mejoramiento de contraste}{18}}
\newlabel{contraste}{{24}{18}}
\@writefile{toc}{\contentsline {subsection}{\numberline {5.5}Aplicaci\IeC {\'o}n 3: Clasificaci\IeC {\'o}n de texturas}{18}}
