\relax 
\bibstyle{acm}
\citation{elunai2011particulate}
\citation{markr1994}
\citation{materka1998}
\citation{aptulefe2011}
\citation{palm2004color}
\citation{aptoula2007comparative}
\@writefile{toc}{\contentsline {chapter}{\numberline {1}Introducci\IeC {\'o}n}{1}}
\@writefile{lof}{\addvspace {10\p@ }}
\@writefile{lot}{\addvspace {10\p@ }}
\newlabel{chap:introduccion}{{1}{1}}
\@writefile{toc}{\contentsline {section}{\numberline {1.1}Objetivos}{2}}
\@writefile{toc}{\contentsline {subsection}{\numberline {1.1.1}Objetivo General y propuesta }{2}}
\@writefile{toc}{\contentsline {subsection}{\numberline {1.1.2}Objetivos Espec\IeC {\'\i }ficos}{2}}
\@writefile{toc}{\contentsline {section}{\numberline {1.2}Organizaci\IeC {\'o}n del trabajo}{2}}
\bibdata{../references/primary.bib}
