\relax 
\providecommand\hyper@newdestlabel[2]{}
\citation{markr1994}
\citation{elunai2011particulate}
\citation{materka1998}
\citation{aptulefe2011}
\citation{aptoula2007morphological,lefevre2009beyond}
\citation{aptoula2007comparative}
\FN@pp@footnotehinttrue 
\@writefile{toc}{\contentsline {chapter}{\numberline {1}Introducci\IeC {\'o}n}{1}{chapter.1}}
\@writefile{lof}{\addvspace {10\p@ }}
\@writefile{lot}{\addvspace {10\p@ }}
\newlabel{chap:introduccion}{{1}{1}{Introducción}{chapter.1}{}}
\@writefile{toc}{\contentsline {section}{\numberline {1.1}Antecedentes y Relevancia}{1}{section.1.1}}
\@writefile{brf}{\backcite{markr1994}{{1}{1.1}{section.1.1}}}
\@writefile{brf}{\backcite{elunai2011particulate}{{1}{1.1}{section.1.1}}}
\@writefile{brf}{\backcite{materka1998}{{1}{1.1}{section.1.1}}}
\@writefile{brf}{\backcite{aptulefe2011}{{1}{1.1}{section.1.1}}}
\@writefile{brf}{\backcite{aptoula2007morphological}{{1}{1.1}{section.1.1}}}
\@writefile{brf}{\backcite{lefevre2009beyond}{{1}{1.1}{section.1.1}}}
\@writefile{toc}{\contentsline {section}{\numberline {1.2}Objetivos generales y espec\IeC {\'\i }ficos}{1}{section.1.2}}
\@writefile{brf}{\backcite{aptoula2007comparative}{{1}{1.2}{section.1.2}}}
\@writefile{toc}{\contentsline {section}{\numberline {1.3}Organizaci\IeC {\'o}n del trabajo}{2}{section.1.3}}
\FN@pp@footnotehinttrue 
\@setckpt{Introduction/introduction}{
\setcounter{page}{3}
\setcounter{equation}{0}
\setcounter{enumi}{0}
\setcounter{enumii}{0}
\setcounter{enumiii}{0}
\setcounter{enumiv}{0}
\setcounter{footnote}{0}
\setcounter{mpfootnote}{0}
\setcounter{part}{0}
\setcounter{chapter}{1}
\setcounter{section}{3}
\setcounter{subsection}{0}
\setcounter{subsubsection}{0}
\setcounter{paragraph}{0}
\setcounter{subparagraph}{0}
\setcounter{figure}{0}
\setcounter{table}{0}
\setcounter{pp@next@reset}{1}
\setcounter{@fnserial}{0}
\setcounter{NAT@ctr}{0}
\setcounter{FancyVerbLine}{0}
\setcounter{Item}{0}
\setcounter{Hfootnote}{0}
\setcounter{bookmark@seq@number}{8}
\setcounter{ContinuedFloat}{0}
\setcounter{subfigure}{0}
\setcounter{subtable}{0}
\setcounter{dblbotnumber}{2}
\setcounter{float@type}{8}
\setcounter{parentequation}{0}
\setcounter{su@anzahl}{0}
\setcounter{LT@tables}{0}
\setcounter{LT@chunks}{0}
\setcounter{algorithm}{0}
\setcounter{ALG@line}{0}
\setcounter{ALG@rem}{0}
\setcounter{ALG@nested}{0}
\setcounter{ALG@Lnr}{2}
\setcounter{ALG@blocknr}{10}
\setcounter{ALG@storecount}{0}
\setcounter{ALG@tmpcounter}{0}
\setcounter{section@level}{1}
}
