\relax 
\@writefile{toc}{\contentsline {section}{\numberline {6}Curvas de tendencia}{11}}
\@writefile{lof}{\contentsline {figure}{\numberline {8}{\ignorespaces Ruido gaussiano. MAE por $\sigma ^2$\relax }}{12}}
\newlabel{fig:gaussian_mae}{{8}{12}}
\@writefile{lof}{\contentsline {figure}{\numberline {9}{\ignorespaces Zoom. Ruido gaussiano. MAE por $\sigma ^2$\relax }}{12}}
\newlabel{fig:gaussian_mae_zoom}{{9}{12}}
\gdef \LT@i {\LT@entry 
    {1}{45.35486pt}\LT@entry 
    {1}{34.70868pt}\LT@entry 
    {1}{34.70868pt}\LT@entry 
    {1}{34.70868pt}\LT@entry 
    {1}{34.70868pt}\LT@entry 
    {1}{34.70868pt}\LT@entry 
    {1}{34.70868pt}\LT@entry 
    {1}{34.70868pt}\LT@entry 
    {1}{34.70868pt}\LT@entry 
    {1}{34.70868pt}\LT@entry 
    {1}{34.70868pt}\LT@entry 
    {1}{34.70868pt}\LT@entry 
    {1}{34.70868pt}\LT@entry 
    {1}{34.70868pt}\LT@entry 
    {1}{34.70868pt}\LT@entry 
    {1}{34.70868pt}\LT@entry 
    {1}{34.70868pt}\LT@entry 
    {1}{35.10867pt}}
\@writefile{lot}{\contentsline {table}{\numberline {2}{\ignorespaces Ruido gaussiano. MAE por $\sigma ^2$\relax }}{13}}
\newlabel{tabla:gaussian_mae}{{2}{13}}
\@writefile{lof}{\contentsline {figure}{\numberline {10}{\ignorespaces Ruido sal y pimienta. MAE por $p$\relax }}{14}}
\newlabel{fig:salt_and_pepper_mae}{{10}{14}}
\@writefile{lof}{\contentsline {figure}{\numberline {11}{\ignorespaces Zoom. Ruido sal y pimienta. MAE por $p$\relax }}{14}}
\newlabel{fig:salt_and_pepper_mae_zoom}{{11}{14}}
\gdef \LT@ii {\LT@entry 
    {1}{45.35486pt}\LT@entry 
    {1}{31.30585pt}\LT@entry 
    {1}{31.30585pt}\LT@entry 
    {1}{31.30585pt}\LT@entry 
    {1}{31.30585pt}\LT@entry 
    {1}{31.30585pt}\LT@entry 
    {1}{31.30585pt}\LT@entry 
    {1}{31.30585pt}\LT@entry 
    {1}{31.30585pt}\LT@entry 
    {1}{31.30585pt}\LT@entry 
    {1}{31.30585pt}\LT@entry 
    {1}{31.30585pt}\LT@entry 
    {1}{31.30585pt}\LT@entry 
    {1}{31.30585pt}\LT@entry 
    {1}{31.30585pt}\LT@entry 
    {1}{31.30585pt}\LT@entry 
    {1}{31.30585pt}\LT@entry 
    {1}{31.70584pt}}
\@writefile{lot}{\contentsline {table}{\numberline {3}{\ignorespaces Ruido sal y pimienta. MAE por $p$\relax }}{15}}
\newlabel{tabla:salt_and_pepper_mae}{{3}{15}}
\@writefile{lof}{\contentsline {figure}{\numberline {12}{\ignorespaces Ruido speckle. MAE por $\sigma ^2$\relax }}{16}}
\newlabel{fig:speckle_mae}{{12}{16}}
\@writefile{lof}{\contentsline {figure}{\numberline {13}{\ignorespaces Zoom. Ruido speckle. MAE por $\sigma ^2$\relax }}{16}}
\newlabel{fig:speckle_mae_zoom}{{13}{16}}
\gdef \LT@iii {\LT@entry 
    {1}{45.35486pt}\LT@entry 
    {1}{34.70868pt}\LT@entry 
    {1}{34.70868pt}\LT@entry 
    {1}{34.70868pt}\LT@entry 
    {1}{34.70868pt}\LT@entry 
    {1}{34.70868pt}\LT@entry 
    {1}{34.70868pt}\LT@entry 
    {1}{34.70868pt}\LT@entry 
    {1}{34.70868pt}\LT@entry 
    {1}{34.70868pt}\LT@entry 
    {1}{34.70868pt}\LT@entry 
    {1}{34.70868pt}\LT@entry 
    {1}{34.70868pt}\LT@entry 
    {1}{34.70868pt}\LT@entry 
    {1}{34.70868pt}\LT@entry 
    {1}{34.70868pt}\LT@entry 
    {1}{34.70868pt}\LT@entry 
    {1}{35.10867pt}}
\@writefile{lot}{\contentsline {table}{\numberline {4}{\ignorespaces Ruido speckle. MAE por $\sigma ^2$\relax }}{17}}
\newlabel{tabla:speckle_mae}{{4}{17}}
\@writefile{lof}{\contentsline {figure}{\numberline {14}{\ignorespaces Ruido gaussiano. CDS por $\sigma ^2$\relax }}{18}}
\@writefile{lof}{\contentsline {figure}{\numberline {15}{\ignorespaces Zoom. Ruido gaussiano. CDS por $\sigma ^2$\relax }}{18}}
\gdef \LT@iv {\LT@entry 
    {1}{45.35486pt}\LT@entry 
    {1}{31.30585pt}\LT@entry 
    {1}{31.30585pt}\LT@entry 
    {1}{31.30585pt}\LT@entry 
    {1}{31.30585pt}\LT@entry 
    {1}{31.30585pt}\LT@entry 
    {1}{31.30585pt}\LT@entry 
    {1}{31.30585pt}\LT@entry 
    {1}{31.30585pt}\LT@entry 
    {1}{31.30585pt}\LT@entry 
    {1}{31.30585pt}\LT@entry 
    {1}{31.30585pt}\LT@entry 
    {1}{31.30585pt}\LT@entry 
    {1}{31.30585pt}\LT@entry 
    {1}{31.30585pt}\LT@entry 
    {1}{31.30585pt}\LT@entry 
    {1}{31.30585pt}\LT@entry 
    {1}{31.70584pt}}
\@writefile{lot}{\contentsline {table}{\numberline {5}{\ignorespaces Ruido gaussiano. $CDS \times 10^7$ por $\sigma ^2$\relax }}{19}}
\@writefile{lof}{\contentsline {figure}{\numberline {16}{\ignorespaces Ruido sal y pimienta. CDS por $p$\relax }}{20}}
\@writefile{lof}{\contentsline {figure}{\numberline {17}{\ignorespaces Zoom. Ruido sal y pimienta. CDS por $p$\relax }}{20}}
\gdef \LT@v {\LT@entry 
    {1}{45.35486pt}\LT@entry 
    {1}{31.30585pt}\LT@entry 
    {1}{31.30585pt}\LT@entry 
    {1}{31.30585pt}\LT@entry 
    {1}{31.30585pt}\LT@entry 
    {1}{31.30585pt}\LT@entry 
    {1}{31.30585pt}\LT@entry 
    {1}{31.30585pt}\LT@entry 
    {1}{31.30585pt}\LT@entry 
    {1}{31.30585pt}\LT@entry 
    {1}{31.30585pt}\LT@entry 
    {1}{31.30585pt}\LT@entry 
    {1}{31.30585pt}\LT@entry 
    {1}{31.30585pt}\LT@entry 
    {1}{31.30585pt}\LT@entry 
    {1}{31.30585pt}\LT@entry 
    {1}{31.30585pt}\LT@entry 
    {1}{31.70584pt}}
\@writefile{lot}{\contentsline {table}{\numberline {6}{\ignorespaces Ruido sal y pimienta. $CDS \times 10^7$ por $p$\relax }}{21}}
\@writefile{lof}{\contentsline {figure}{\numberline {18}{\ignorespaces Ruido speckle. CDS por $\sigma ^2$\relax }}{22}}
\@writefile{lof}{\contentsline {figure}{\numberline {19}{\ignorespaces Zoom. Ruido speckle. CDS por $\sigma ^2$\relax }}{22}}
\gdef \LT@vi {\LT@entry 
    {1}{45.35486pt}\LT@entry 
    {1}{31.30585pt}\LT@entry 
    {1}{31.30585pt}\LT@entry 
    {1}{31.30585pt}\LT@entry 
    {1}{31.30585pt}\LT@entry 
    {1}{31.30585pt}\LT@entry 
    {1}{31.30585pt}\LT@entry 
    {1}{31.30585pt}\LT@entry 
    {1}{31.30585pt}\LT@entry 
    {1}{31.30585pt}\LT@entry 
    {1}{31.30585pt}\LT@entry 
    {1}{31.30585pt}\LT@entry 
    {1}{31.30585pt}\LT@entry 
    {1}{31.30585pt}\LT@entry 
    {1}{31.30585pt}\LT@entry 
    {1}{31.30585pt}\LT@entry 
    {1}{31.30585pt}\LT@entry 
    {1}{31.70584pt}}
\@writefile{lot}{\contentsline {table}{\numberline {7}{\ignorespaces Ruido speckle. $CDS \times 10^7$ por $\sigma ^2$\relax }}{23}}
\@setckpt{anexos/graficos}{
\setcounter{page}{24}
\setcounter{equation}{24}
\setcounter{enumi}{0}
\setcounter{enumii}{0}
\setcounter{enumiii}{0}
\setcounter{enumiv}{0}
\setcounter{footnote}{0}
\setcounter{mpfootnote}{0}
\setcounter{inst}{4}
\setcounter{auth}{1}
\setcounter{lastpage}{0}
\setcounter{section}{6}
\setcounter{subsection}{0}
\setcounter{subsubsection}{0}
\setcounter{paragraph}{0}
\setcounter{subparagraph}{0}
\setcounter{theorem}{0}
\setcounter{case}{0}
\setcounter{conjecture}{0}
\setcounter{corollary}{0}
\setcounter{definition}{0}
\setcounter{example}{0}
\setcounter{exercise}{0}
\setcounter{lemma}{0}
\setcounter{note}{0}
\setcounter{problem}{0}
\setcounter{property}{0}
\setcounter{proposition}{0}
\setcounter{question}{0}
\setcounter{solution}{0}
\setcounter{remark}{0}
\setcounter{figure}{19}
\setcounter{table}{7}
\setcounter{NAT@ctr}{0}
\setcounter{parentequation}{0}
\setcounter{ContinuedFloat}{0}
\setcounter{lstnumber}{1}
\setcounter{LT@tables}{6}
\setcounter{LT@chunks}{2}
\setcounter{subfigure}{0}
\setcounter{lofdepth}{1}
\setcounter{subtable}{0}
\setcounter{lotdepth}{1}
\setcounter{lstlisting}{0}
}
