\relax 
\providecommand\hyper@newdestlabel[2]{}
\citation{witten1999weka}
\FN@pp@footnotehinttrue 
\@writefile{toc}{\contentsline {chapter}{Ap\'endice B}{46}{appendix*.27}}
\@writefile{lof}{\addvspace {10\p@ }}
\@writefile{lot}{\addvspace {10\p@ }}
\@writefile{toc}{\contentsline {section}{\numberline {A.2}Resultados de clasificaci\IeC {\'o}n por clase de textura}{46}{section.Alph0.2}}
\@writefile{brf}{\backcite{witten1999weka}{{46}{A.2}{section.Alph0.2}}}
\newlabel{tab:apendice2clasiff}{{\caption@xref {tab:apendice2clasiff}{ on input line 26}}{46}{Resultados de clasificación por clase de textura}{table.caption.28}{}}
\FN@pp@footnotehinttrue 
\FN@pp@footnotehinttrue 
\@setckpt{Appendix2/appendix2}{
\setcounter{page}{51}
\setcounter{equation}{3}
\setcounter{enumi}{2}
\setcounter{enumii}{0}
\setcounter{enumiii}{0}
\setcounter{enumiv}{0}
\setcounter{footnote}{0}
\setcounter{mpfootnote}{0}
\setcounter{part}{0}
\setcounter{chapter}{0}
\setcounter{section}{2}
\setcounter{subsection}{0}
\setcounter{subsubsection}{0}
\setcounter{paragraph}{0}
\setcounter{subparagraph}{0}
\setcounter{figure}{1}
\setcounter{table}{0}
\setcounter{pp@next@reset}{1}
\setcounter{@fnserial}{0}
\setcounter{NAT@ctr}{0}
\setcounter{FancyVerbLine}{70}
\setcounter{Item}{2}
\setcounter{Hfootnote}{0}
\setcounter{bookmark@seq@number}{39}
\setcounter{ContinuedFloat}{0}
\setcounter{subfigure}{0}
\setcounter{subtable}{0}
\setcounter{dblbotnumber}{2}
\setcounter{float@type}{8}
\setcounter{parentequation}{0}
\setcounter{su@anzahl}{0}
\setcounter{LT@tables}{0}
\setcounter{LT@chunks}{0}
\setcounter{algorithm}{2}
\setcounter{ALG@line}{11}
\setcounter{ALG@rem}{0}
\setcounter{ALG@nested}{0}
\setcounter{ALG@Lnr}{2}
\setcounter{ALG@blocknr}{10}
\setcounter{ALG@storecount}{0}
\setcounter{ALG@tmpcounter}{0}
\setcounter{section@level}{1}
}
