\relax 
\catcode `"\active 
\catcode `<\active 
\catcode `>\active 
\@nameuse{es@quoting}
\citation{markr1994}
\citation{elunai2011particulate}
\citation{materka1998}
\citation{aptulefe2011}
\citation{aptoula2007morphological,lefevre2009beyond}
\select@language{spanish}
\@writefile{toc}{\select@language{spanish}}
\@writefile{lof}{\select@language{spanish}}
\@writefile{lot}{\select@language{spanish}}
\@writefile{toc}{\contentsline {section}{\numberline {1}Introducti\IeC {\'o}n}{1}}
\newlabel{intro}{{1}{1}}
\citation{burger2009digital}
\citation{burger2009digital}
\citation{burger2009digital}
\citation{aptulefe2011,angulo2002morphological}
\citation{angulo2002morphological}
\citation{materka1998}
\citation{rao2012taxonomy}
\citation{materka1998}
\citation{aptulefe2011}
\citation{zhang2002brief,ivanovicicolor,materka1998}
\citation{zhang2002brief,ivanovicicolor}
\citation{zhang2002brief,aptulefe2011}
\citation{palm2004color,van2005parallel}
\citation{hanbury2005illumination}
\citation{batman1997size}
\citation{tang1998automatic}
\citation{kotsiantis2007supervised}
\@writefile{toc}{\contentsline {section}{\numberline {2}Marco Te\IeC {\'o}rico}{2}}
\newlabel{sec:marcoteorico}{{2}{2}}
\@writefile{toc}{\contentsline {subsection}{\numberline {2.1}Im\IeC {\'a}genes a color y Textura}{2}}
\@writefile{toc}{\contentsline {subsection}{\numberline {2.2}Caracterizaci\IeC {\'o}n y clasificaci\IeC {\'o}n de texturas}{2}}
\citation{matheron2002birth,matheron1975random}
\citation{aptoula2007comparative}
\citation{aptoula2007comparative}
\citation{aptulefe2011,lefevre2009beyond}
\citation{aptoula2007morphological}
\citation{aptulefe2011}
\citation{matheron1975random}
\citation{vincent2000granulometries,soille2013morphological}
\@writefile{toc}{\contentsline {subsection}{\numberline {2.3}Morfolog\IeC {\'\i }a Matem\IeC {\'a}tica en escala de grises y color }{3}}
\newlabel{eq:erosionf}{{1}{3}}
\newlabel{eq:dilatacionf}{{2}{3}}
\newlabel{eq:aperturaf}{{3}{3}}
\newlabel{eq:cierref}{{4}{3}}
\@writefile{toc}{\contentsline {section}{\numberline {3}Series Morfol\IeC {\'o}gicas }{3}}
\newlabel{sec:seriesmorf}{{3}{3}}
\@writefile{toc}{\contentsline {subsection}{\numberline {3.1}Series Morfol\IeC {\'o}gicas en escala grises}{3}}
\@writefile{toc}{\contentsline {subsection}{\numberline {3.2}Granulometr\IeC {\'\i }a }{3}}
\newlabel{subsec_granulometrica}{{3.2}{3}}
\citation{serra1992overview}
\citation{aptoula2007morphological}
\citation{batman1997size}
\citation{matheron1975random,maragos1989pattern}
\citation{aptoula2007morphological}
\citation{lefevre2009beyond}
\newlabel{eq:granul_gris}{{6}{4}}
\newlabel{eq:volumen}{{7}{4}}
\newlabel{eq:covmorf_gris}{{8}{4}}
\providecommand*\caption@xref[2]{\@setref\relax\@undefined{#1}}
\newlabel{fig:elementosestruc_1}{{1a}{4}}
\newlabel{sub@fig:elementosestruc_1}{{a}{4}}
\newlabel{fig:elementosestruc_2}{{1b}{4}}
\newlabel{sub@fig:elementosestruc_2}{{b}{4}}
\@writefile{lof}{\contentsline {figure}{\numberline {1}{\ignorespaces Elementos estructurantes utilizados en (a) la granulometr\IeC {\'\i }a , (b) la covarianza morfol\IeC {\'o}gica. \relax }}{4}}
\newlabel{fig:elementosestruc}{{1}{4}}
\@writefile{toc}{\contentsline {subsection}{\numberline {3.3} Series Morfol\IeC {\'o}gicas extendidas a color }{4}}
\newlabel{eq:seriemorfomarginal}{{10}{4}}
\citation{astoladougherty1999nonlinear}
\citation{aptulefe2011}
\citation{ivanovicicolor}
\@writefile{lof}{\contentsline {figure}{\numberline {2}{\ignorespaces  Granulometr\IeC {\'\i }a de la muestra 000242 \relax }}{5}}
\newlabel{fig:000242_granul}{{2}{5}}
\@writefile{lof}{\contentsline {figure}{\numberline {3}{\ignorespaces  Covarianza Morfol\IeC {\'o}gica de la muestra 000242 \relax }}{5}}
\newlabel{fig:000242_covar}{{3}{5}}
\newlabel{eq:covarcolor}{{11}{5}}
\newlabel{eq:granulcolor}{{12}{5}}
\@writefile{toc}{\contentsline {section}{\numberline {4}Medidas de evaluaci\IeC {\'o}n}{5}}
\newlabel{sec:medida_eval}{{4}{5}}
\newlabel{eq:varianza}{{13}{5}}
\newlabel{eq:energia}{{14}{5}}
\newlabel{eq:entropia}{{15}{5}}
\newlabel{eq:hipervolumen}{{16}{5}}
\citation{angulo2002morphological,lefevre2009beyond}
\citation{arvis2011generalization,martinez2015alternative}
\citation{arvis2011generalization,presutti2004matriz}
\citation{akhloufi2007frameworkfeaturesdist}
\@writefile{toc}{\contentsline {section}{\numberline {5}Propuesta}{6}}
\newlabel{sec:propuesta}{{5}{6}}
\newlabel{fig:000242_granNN_RGB}{{4a}{6}}
\newlabel{sub@fig:000242_granNN_RGB}{{a}{6}}
\newlabel{fig:000242_covNN_RGB}{{4b}{6}}
\newlabel{sub@fig:000242_covNN_RGB}{{b}{6}}
\@writefile{lof}{\contentsline {figure}{\numberline {4}{\ignorespaces (a) Granulometr\IeC {\'\i }a (b) covarianza morfol\IeC {\'o}gica de la muestra 000242\relax }}{6}}
\@writefile{lof}{\contentsline {figure}{\numberline {5}{\ignorespaces Canales $Q_1$,$Q_2$,$Q_3$ de la imagen de salida luego de aplicar el filtro morfol\IeC {\'o}gico $\psi $ a una imagen \ensuremath  {\mathchoice {\unhbox \voidb@x \hbox {\relax \mathversion  {bold}$\displaystyle \mathbf  {f}$}} {\unhbox \voidb@x \hbox {\relax \mathversion  {bold}$\textstyle \mathbf  {f}$}} {\unhbox \voidb@x \hbox {\relax \mathversion  {bold}$\scriptstyle \mathbf  {f}$}} {\unhbox \voidb@x \hbox {\relax \mathversion  {bold}$\scriptscriptstyle \mathbf  {f}$}}}.\relax }}{6}}
\newlabel{fig:propuestaQs}{{5}{6}}
\@writefile{toc}{\contentsline {subsection}{\numberline {5.1}Distancias Intercanales}{6}}
\citation{van2010evaluating}
\newlabel{eq:distintercanal_1}{{21}{7}}
\newlabel{eq:distintercanal_2}{{22}{7}}
\newlabel{eq:volumen_distinter}{{24}{7}}
\@writefile{toc}{\contentsline {subsection}{\numberline {5.2}Proporci\IeC {\'o}n Intercanal}{7}}
\newlabel{eq:volumen_proporcion}{{26}{7}}
\@writefile{toc}{\contentsline {subsection}{\numberline {5.3}Volumen-RG}{7}}
\newlabel{eq:histrb}{{27}{7}}
\newlabel{volumenrg_1}{{28}{7}}
\newlabel{volumenrg_2}{{29}{7}}
\citation{ojala2002outex}
\citation{ayaladomingode2006selecting}
\citation{hanbury2005illumination}
\newlabel{volumenrg_3}{{30}{8}}
\newlabel{eq:volumen_volrb}{{31}{8}}
\@writefile{toc}{\contentsline {section}{\numberline {6}Resultados Experimentales}{8}}
\newlabel{sec:resultadosexperi}{{6}{8}}
\@writefile{toc}{\contentsline {subsection}{\numberline {6.1}Experimento 1}{8}}
\@writefile{lof}{\contentsline {figure}{\numberline {6}{\ignorespaces  Las 68 clases de textura de OutexTC13\relax }}{8}}
\newlabel{fig:outex13muestra}{{6}{8}}
\citation{finlayson2005illuminant}
\@writefile{lot}{\contentsline {table}{\numberline {1}{\ignorespaces Resultados de clasificaci\IeC {\'o}n por Medidas de Evaluaci\IeC {\'o}n. Ordenamiento por Norma \relax }}{9}}
\newlabel{tab:exp2_euclid}{{1}{9}}
\@writefile{lot}{\contentsline {table}{\numberline {2}{\ignorespaces Resultados de clasificaci\IeC {\'o}n por Medidas de Evaluaci\IeC {\'o}n. Procesamiento Marginal\relax }}{9}}
\newlabel{tab:exp2_tablamarginal}{{2}{9}}
\@writefile{toc}{\contentsline {subsection}{\numberline {6.2}Experimento 2}{9}}
\newlabel{fig:000002_inca}{{7a}{10}}
\newlabel{sub@fig:000002_inca}{{a}{10}}
\newlabel{fig:000002_inca_EQ}{{7b}{10}}
\newlabel{sub@fig:000002_inca_EQ}{{b}{10}}
\@writefile{lof}{\contentsline {figure}{\numberline {7}{\ignorespaces Superficie de textura bajo diferentes fuentes de iluminaci\IeC {\'o}n y sus respectivos pre-procesamientos por ecualizaci\IeC {\'o}n \relax }}{10}}
\newlabel{fig:invarianzailum_muestra}{{7}{10}}
\@writefile{lot}{\contentsline {table}{\numberline {3}{\ignorespaces Resultados de clasificaci\IeC {\'o}n OutexTC14. Ordenamiento por Norma \relax }}{10}}
\newlabel{exper3_outex14}{{3}{10}}
\@writefile{toc}{\contentsline {section}{\numberline {7}Conclusiones y trabajos futuros}{10}}
\newlabel{sec:conclusiones}{{7}{10}}
\@writefile{lof}{\contentsline {figure}{\numberline {8}{\ignorespaces Curvas de granulometr\IeC {\'\i }a sin normalizar de \ref  {fig:000002_inca} y \ref  {fig:000002_inca_EQ} con ordenamiento norma-eucl\IeC {\'\i }dea, $\lambda =15$ pasos de 2 \relax }}{10}}
\newlabel{fig:outex14_curvagranul}{{8}{10}}
\bibstyle{spbasic}
\bibdata{../../referencias/primary,../../referencias/second,../../referencias/colorord}
\bibcite{materka1998}{{1}{1998}{{A.~Materka}}{{}}}
\bibcite{akhloufi2007frameworkfeaturesdist}{{2}{2007}{{Akhloufi et~al}}{{Akhloufi, Larbi, and Maldague}}}
\bibcite{angulo2002morphological}{{3}{2002}{{Angulo and Serra}}{{}}}
\bibcite{aptoula2007comparative}{{4}{2007}{{Aptoula and Lefevre}}{{}}}
\bibcite{aptoula2007morphological}{{5}{2007}{{Aptoula and Lef{\`e}vre}}{{}}}
\bibcite{arvis2011generalization}{{6}{2011}{{Arvis et~al}}{{Arvis, Debain, Berducat, and Benassi}}}
\bibcite{batman1997size}{{7}{1997}{{Batman and Dougherty}}{{}}}
\bibcite{burger2009digital}{{8}{2009}{{Burger and Burge}}{{}}}
\bibcite{astoladougherty1999nonlinear}{{9}{1999}{{Dougherty and Astola}}{{}}}
\bibcite{elunai2011particulate}{{10}{2011}{{Elunai}}{{}}}
\bibcite{aptulefe2011}{{11}{2011}{{Erchan~Aptoula}}{{}}}
\bibcite{finlayson2005illuminant}{{12}{2005}{{Finlayson et~al}}{{Finlayson, Hordley, Schaefer, and Tian}}}
\bibcite{hanbury2005illumination}{{13}{2005}{{Hanbury et~al}}{{Hanbury, Kandaswamy, and Adjeroh}}}
\bibcite{ivanovicicolor}{{14}{2015}{{Ivanovici}}{{}}}
\bibcite{kotsiantis2007supervised}{{15}{2007}{{Kotsiantis et~al}}{{Kotsiantis, Zaharakis, and Pintelas}}}
\bibcite{lefevre2009beyond}{{16}{2009}{{Lef{\`e}vre}}{{}}}
\bibcite{maragos1989pattern}{{17}{1989}{{Maragos}}{{}}}
\bibcite{martinez2015alternative}{{18}{2015}{{Mart{\'\i }nez et~al}}{{Mart{\'\i }nez, Richard, and Fernandez}}}
\bibcite{matheron1975random}{{19}{1975}{{Matheron}}{{}}}
\bibcite{matheron2002birth}{{20}{1}{{Matheron and Serra}}{{}}}
\bibcite{ojala2002outex}{{21}{2002}{{Ojala et~al}}{{Ojala, M{\"a}enp{\"a}{\"a}, Pietikainen, Viertola, Kyll{\"o}nen, and Huovinen}}}
\bibcite{palm2004color}{{22}{2004}{{Palm}}{{}}}
\bibcite{presutti2004matriz}{{23}{1}{{Presutti}}{{}}}
\bibcite{rao2012taxonomy}{{24}{2012}{{Rao}}{{}}}
\bibcite{markr1994}{{25}{1994}{{Rzadca}}{{}}}
\bibcite{serra1992overview}{{26}{1992}{{Serra and Vincent}}{{}}}
\bibcite{soille2013morphological}{{27}{2013}{{Soille}}{{}}}
\bibcite{tang1998automatic}{{28}{1998}{{Tang et~al}}{{Tang, Stewart, Vincent, Huang, Marra, Gallager, and Davis}}}
\bibcite{van2010evaluating}{{29}{2010}{{Van De~Sande et~al}}{{Van De~Sande, Gevers, and Snoek}}}
\bibcite{van2005parallel}{{30}{2005}{{Van Den~Broek and Van~Rikxoort}}{{}}}
\bibcite{ayaladomingode2006selecting}{{31}{2006}{{de~Ves et~al}}{{de~Ves, Benavent, Ayala, and Domingo}}}
\bibcite{vincent2000granulometries}{{32}{2000}{{Vincent}}{{}}}
\bibcite{zhang2002brief}{{33}{2002}{{Zhang and Tan}}{{}}}
