\relax 
\newlabel{eq:aperturaf}{{1}{1}}
\newlabel{eq:cierref}{{2}{1}}
\@writefile{toc}{\contentsline {subsection}{\numberline {0.0.1}Distribuci\IeC {\'o}n de distancia-orientaci\IeC {\'o}n y tama\IeC {\~n}o }{1}}
\@writefile{lof}{\contentsline {figure}{\numberline {1}{\ignorespaces gr\IeC {\'a}fico de la matriz obtenida de la operador aplicado para 4 direcciones (0$^{\circ }$ , 45$^{\circ }$ , 90$^{\circ }$, 135$^{\circ }$ ), 20 distancias para el eje distancia-orientaci\IeC {\'o}n , 15 tama\IeC {\~n}os para el eje de los tama\IeC {\~n}os \relax }}{3}}
\@writefile{toc}{\contentsline {subsubsection}{Sobre covarianza morfologica}{3}}
\providecommand*\caption@xref[2]{\@setref\relax\@undefined{#1}}
\newlabel{apli_cibrt}{{\caption@xref {apli_cibrt}{ on input line 80}}{4}}
\newlabel{fig:apli_detec1}{{2a}{4}}
\newlabel{sub@fig:apli_detec1}{{a}{4}}
\newlabel{fig:tiger}{{2b}{4}}
\newlabel{sub@fig:tiger}{{b}{4}}
\@writefile{lof}{\contentsline {figure}{\numberline {2}{\ignorespaces \relax }}{4}}
\newlabel{fig:apli_detec2}{{2}{4}}
\newlabel{clasifextr }{{\caption@xref {clasifextr }{ on input line 136}}{5}}
\@writefile{toc}{\contentsline {subsection}{\numberline {0.0.2}Clasificaci\IeC {\'o}n}{5}}
\@writefile{toc}{\contentsline {section}{\numberline {0.1}Series diferenciales}{5}}
\@writefile{lof}{\contentsline {figure}{\numberline {3}{\ignorespaces tres muestras con el mismo espectro patr\IeC {\'o}n, la granulometr\IeC {\'\i }a no es capaz de diferenciarlas \relax }}{6}}
\newlabel{fig:imgdesventPS}{{3}{6}}
\newlabel{fig:volrel}{{\caption@xref {fig:volrel}{ on input line 198}}{6}}
\newlabel{sub@fig:volrel}{{}{6}}
\@writefile{toc}{\contentsline {subsection}{\numberline {0.1.1}Distribuci\IeC {\'o}n de distancia-orientaci\IeC {\'o}n }{7}}
\@writefile{toc}{\contentsline {section}{\numberline {0.2}la cosa}{7}}
\@writefile{toc}{\contentsline {section}{\numberline {0.3}La granulometr\IeC {\'\i }a definida como}{7}}
\newlabel{eq:seriegranul}{{9}{7}}
\@writefile{toc}{\contentsline {section}{\numberline {0.4}La covarianza morfol\IeC {\'o}gica $K$ est\IeC {\'a} definida como :}{7}}
\newlabel{eq:covmorf_gris}{{11}{8}}
\@writefile{toc}{\contentsline {subsection}{\numberline {0.4.1}Enfoques para el an\IeC {\'a}lisis de textura}{8}}
