\relax 
\providecommand\hyper@newdestlabel[2]{}
\providecommand\HyperFirstAtBeginDocument{\AtBeginDocument}
\HyperFirstAtBeginDocument{\ifx\hyper@anchor\@undefined
\global\let\oldcontentsline\contentsline
\gdef\contentsline#1#2#3#4{\oldcontentsline{#1}{#2}{#3}}
\global\let\oldnewlabel\newlabel
\gdef\newlabel#1#2{\newlabelxx{#1}#2}
\gdef\newlabelxx#1#2#3#4#5#6{\oldnewlabel{#1}{{#2}{#3}}}
\AtEndDocument{\ifx\hyper@anchor\@undefined
\let\contentsline\oldcontentsline
\let\newlabel\oldnewlabel
\fi}
\fi}
\global\let\hyper@last\relax 
\gdef\HyperFirstAtBeginDocument#1{#1}
\providecommand\HyField@AuxAddToFields[1]{}
\providecommand\HyField@AuxAddToCoFields[2]{}
\@writefile{toc}{\beamer@endinputifotherversion {3.24pt}}
\@writefile{nav}{\beamer@endinputifotherversion {3.24pt}}
\@writefile{nav}{\headcommand {\slideentry {0}{0}{1}{1/1}{}{0}}}
\@writefile{nav}{\headcommand {\beamer@framepages {1}{1}}}
\@writefile{nav}{\headcommand {\slideentry {0}{0}{2}{2/2}{}{0}}}
\@writefile{nav}{\headcommand {\beamer@framepages {2}{2}}}
\@writefile{toc}{\beamer@sectionintoc {1}{Textura}{3}{0}{1}}
\@writefile{nav}{\headcommand {\sectionentry {1}{Textura}{3}{Textura}{0}}}
\@writefile{nav}{\headcommand {\beamer@sectionpages {1}{2}}}
\@writefile{nav}{\headcommand {\beamer@subsectionpages {1}{2}}}
\@writefile{toc}{\beamer@subsectionintoc {1}{1}{Conceptos }{3}{0}{1}}
\@writefile{nav}{\headcommand {\beamer@subsectionentry {0}{1}{1}{3}{Conceptos }}\headcommand {\beamer@subsectionpages {3}{2}}}
\@writefile{nav}{\headcommand {\slideentry {1}{1}{1}{3/3}{Conceptos }{0}}}
\@writefile{nav}{\headcommand {\beamer@framepages {3}{3}}}
\@writefile{nav}{\headcommand {\slideentry {1}{1}{2}{4/4}{Conceptos }{0}}}
\@writefile{nav}{\headcommand {\beamer@framepages {4}{4}}}
\@writefile{nav}{\headcommand {\slideentry {1}{1}{3}{5/5}{Conceptos }{0}}}
\@writefile{nav}{\headcommand {\beamer@framepages {5}{5}}}
\@writefile{toc}{\beamer@subsectionintoc {1}{2}{An\IeC {\'a}lisis de textura }{6}{0}{1}}
\@writefile{nav}{\headcommand {\beamer@subsectionentry {0}{1}{2}{6}{An\IeC {\'a}lisis de textura }}\headcommand {\beamer@subsectionpages {3}{5}}}
\@writefile{nav}{\headcommand {\slideentry {1}{2}{1}{6/6}{An\IeC {\'a}lisis de textura }{0}}}
\@writefile{nav}{\headcommand {\beamer@framepages {6}{6}}}
\@writefile{nav}{\headcommand {\slideentry {1}{2}{2}{7/7}{An\IeC {\'a}lisis de textura }{0}}}
\@writefile{nav}{\headcommand {\beamer@framepages {7}{7}}}
\@writefile{toc}{\beamer@sectionintoc {2}{Aplicaciones}{8}{0}{2}}
\@writefile{nav}{\headcommand {\sectionentry {2}{Aplicaciones}{8}{Aplicaciones}{0}}}
\@writefile{nav}{\headcommand {\beamer@sectionpages {3}{7}}}
\@writefile{nav}{\headcommand {\beamer@subsectionpages {6}{7}}}
\@writefile{toc}{\beamer@subsectionintoc {2}{1}{Aplicaciones del an\IeC {\'a}lisis de textura}{8}{0}{2}}
\@writefile{nav}{\headcommand {\beamer@subsectionentry {0}{2}{1}{8}{Aplicaciones del an\IeC {\'a}lisis de textura}}\headcommand {\beamer@subsectionpages {8}{7}}}
\@writefile{nav}{\headcommand {\slideentry {2}{1}{1}{8/8}{Aplicaciones del an\IeC {\'a}lisis de textura}{0}}}
\@writefile{nav}{\headcommand {\beamer@framepages {8}{8}}}
\providecommand*\caption@xref[2]{\@setref\relax\@undefined{#1}}
\newlabel{apli_cibrt}{{\caption@xref {apli_cibrt}{ on input line 224}}{9}{Aplicaciones del análisis de textura}{Doc-Start}{}}
\@writefile{snm}{\beamer@slide {apli_cibrt}{9}}
\@writefile{nav}{\headcommand {\slideentry {2}{1}{2}{9/9}{Aplicaciones del an\IeC {\'a}lisis de textura}{0}}}
\@writefile{nav}{\headcommand {\beamer@framepages {9}{9}}}
\@writefile{nav}{\headcommand {\slideentry {2}{1}{3}{10/10}{Aplicaciones del an\IeC {\'a}lisis de textura}{0}}}
\@writefile{nav}{\headcommand {\beamer@framepages {10}{10}}}
\@writefile{nav}{\headcommand {\slideentry {2}{1}{4}{11/11}{Aplicaciones del an\IeC {\'a}lisis de textura}{0}}}
\@writefile{nav}{\headcommand {\beamer@framepages {11}{11}}}
\newlabel{fig:apli_detec1}{{1a}{12}{detección de cause hídrico\relax }{Doc-Start}{}}
\@writefile{snm}{\beamer@slide {fig:apli_detec1}{12}}
\newlabel{sub@fig:apli_detec1}{{a}{12}{detección de cause hídrico\relax }{Doc-Start}{}}
\@writefile{snm}{\beamer@slide {sub@fig:apli_detec1}{12}}
\newlabel{fig:tiger}{{1b}{12}{detección de vegetación\relax }{Doc-Start}{}}
\@writefile{snm}{\beamer@slide {fig:tiger}{12}}
\newlabel{sub@fig:tiger}{{b}{12}{detección de vegetación\relax }{Doc-Start}{}}
\@writefile{snm}{\beamer@slide {sub@fig:tiger}{12}}
\newlabel{fig:apli_detec2}{{1}{12}{\relax }{Doc-Start}{}}
\@writefile{snm}{\beamer@slide {fig:apli_detec2}{12}}
\@writefile{nav}{\headcommand {\slideentry {2}{1}{5}{12/12}{Aplicaciones del an\IeC {\'a}lisis de textura}{0}}}
\@writefile{nav}{\headcommand {\beamer@framepages {12}{12}}}
\@writefile{nav}{\headcommand {\slideentry {2}{1}{6}{13/13}{Aplicaciones del an\IeC {\'a}lisis de textura}{0}}}
\@writefile{nav}{\headcommand {\beamer@framepages {13}{13}}}
\@writefile{toc}{\beamer@sectionintoc {3}{Extracci\IeC {\'o}n de carater\IeC {\'\i }sticas y clasificaci\IeC {\'o}n}{14}{0}{3}}
\@writefile{nav}{\headcommand {\sectionentry {3}{Extracci\IeC {\'o}n de carater\IeC {\'\i }sticas y clasificaci\IeC {\'o}n}{14}{Extracci\IeC {\'o}n de carater\IeC {\'\i }sticas y clasificaci\IeC {\'o}n}{0}}}
\@writefile{nav}{\headcommand {\beamer@sectionpages {8}{13}}}
\@writefile{nav}{\headcommand {\beamer@subsectionpages {8}{13}}}
\@writefile{toc}{\beamer@subsectionintoc {3}{1}{Extracci\IeC {\'o}n de caracter\IeC {\'\i }sticas}{14}{0}{3}}
\@writefile{nav}{\headcommand {\beamer@subsectionentry {0}{3}{1}{14}{Extracci\IeC {\'o}n de caracter\IeC {\'\i }sticas}}\headcommand {\beamer@subsectionpages {14}{13}}}
\@writefile{nav}{\headcommand {\slideentry {3}{1}{1}{14/14}{Extracci\IeC {\'o}n de caracter\IeC {\'\i }sticas}{0}}}
\@writefile{nav}{\headcommand {\beamer@framepages {14}{14}}}
\newlabel{clasifextr }{{\caption@xref {clasifextr }{ on input line 317}}{15}{Extracción de características}{Doc-Start}{}}
\@writefile{snm}{\beamer@slide {clasifextr }{15}}
\@writefile{nav}{\headcommand {\slideentry {3}{1}{2}{15/15}{Extracci\IeC {\'o}n de caracter\IeC {\'\i }sticas}{0}}}
\@writefile{nav}{\headcommand {\beamer@framepages {15}{15}}}
\@writefile{nav}{\headcommand {\slideentry {3}{1}{3}{16/16}{Extracci\IeC {\'o}n de caracter\IeC {\'\i }sticas}{0}}}
\@writefile{nav}{\headcommand {\beamer@framepages {16}{16}}}
\newlabel{clasifextr }{{\caption@xref {clasifextr }{ on input line 357}}{17}{Extracción de características}{Doc-Start}{}}
\@writefile{snm}{\beamer@slide {clasifextr }{17}}
\@writefile{nav}{\headcommand {\slideentry {3}{1}{4}{17/17}{Extracci\IeC {\'o}n de caracter\IeC {\'\i }sticas}{0}}}
\@writefile{nav}{\headcommand {\beamer@framepages {17}{17}}}
\@writefile{nav}{\headcommand {\slideentry {3}{1}{5}{18/18}{Extracci\IeC {\'o}n de caracter\IeC {\'\i }sticas}{0}}}
\@writefile{nav}{\headcommand {\beamer@framepages {18}{18}}}
\@writefile{toc}{\beamer@subsectionintoc {3}{2}{Clasificaci\IeC {\'o}n}{19}{0}{3}}
\@writefile{nav}{\headcommand {\beamer@subsectionentry {0}{3}{2}{19}{Clasificaci\IeC {\'o}n}}\headcommand {\beamer@subsectionpages {14}{18}}}
\@writefile{nav}{\headcommand {\slideentry {3}{2}{1}{19/19}{Clasificaci\IeC {\'o}n}{0}}}
\@writefile{nav}{\headcommand {\beamer@framepages {19}{19}}}
\@writefile{nav}{\headcommand {\slideentry {3}{2}{2}{20/20}{Clasificaci\IeC {\'o}n}{0}}}
\@writefile{nav}{\headcommand {\beamer@framepages {20}{20}}}
\@writefile{toc}{\beamer@sectionintoc {4}{Enfoque morfol\IeC {\'o}gico }{21}{0}{4}}
\@writefile{nav}{\headcommand {\sectionentry {4}{Enfoque morfol\IeC {\'o}gico }{21}{Enfoque morfol\IeC {\'o}gico }{0}}}
\@writefile{nav}{\headcommand {\beamer@sectionpages {14}{20}}}
\@writefile{nav}{\headcommand {\beamer@subsectionpages {19}{20}}}
\@writefile{toc}{\beamer@subsectionintoc {4}{1}{Aspectos generales}{21}{0}{4}}
\@writefile{nav}{\headcommand {\beamer@subsectionentry {0}{4}{1}{21}{Aspectos generales}}\headcommand {\beamer@subsectionpages {21}{20}}}
\@writefile{nav}{\headcommand {\slideentry {4}{1}{1}{21/21}{Aspectos generales}{0}}}
\@writefile{nav}{\headcommand {\beamer@framepages {21}{21}}}
\@writefile{nav}{\headcommand {\slideentry {4}{1}{2}{22/23}{Aspectos generales}{0}}}
\@writefile{nav}{\headcommand {\beamer@framepages {22}{23}}}
\@writefile{nav}{\headcommand {\slideentry {4}{1}{3}{24/24}{Aspectos generales}{0}}}
\@writefile{nav}{\headcommand {\beamer@framepages {24}{24}}}
\@writefile{toc}{\beamer@subsectionintoc {4}{2}{Series morfol\IeC {\'o}gicas}{25}{0}{4}}
\@writefile{nav}{\headcommand {\beamer@subsectionentry {0}{4}{2}{25}{Series morfol\IeC {\'o}gicas}}\headcommand {\beamer@subsectionpages {21}{24}}}
\@writefile{nav}{\headcommand {\slideentry {4}{2}{1}{25/25}{Series morfol\IeC {\'o}gicas}{0}}}
\@writefile{nav}{\headcommand {\beamer@framepages {25}{25}}}
\@writefile{nav}{\headcommand {\slideentry {4}{2}{2}{26/26}{Series morfol\IeC {\'o}gicas}{0}}}
\@writefile{nav}{\headcommand {\beamer@framepages {26}{26}}}
\@writefile{nav}{\headcommand {\slideentry {4}{2}{3}{27/27}{Series morfol\IeC {\'o}gicas}{0}}}
\@writefile{nav}{\headcommand {\beamer@framepages {27}{27}}}
\@writefile{toc}{\beamer@subsectionintoc {4}{3}{Distribuci\IeC {\'o}n de tama\IeC {\~n}o}{28}{0}{4}}
\@writefile{nav}{\headcommand {\beamer@subsectionentry {0}{4}{3}{28}{Distribuci\IeC {\'o}n de tama\IeC {\~n}o}}\headcommand {\beamer@subsectionpages {25}{27}}}
\@writefile{nav}{\headcommand {\slideentry {4}{3}{1}{28/28}{Distribuci\IeC {\'o}n de tama\IeC {\~n}o}{0}}}
\@writefile{nav}{\headcommand {\beamer@framepages {28}{28}}}
\@writefile{nav}{\headcommand {\slideentry {4}{3}{2}{29/29}{Distribuci\IeC {\'o}n de tama\IeC {\~n}o}{0}}}
\@writefile{nav}{\headcommand {\beamer@framepages {29}{29}}}
\@writefile{nav}{\headcommand {\slideentry {4}{3}{3}{30/30}{Distribuci\IeC {\'o}n de tama\IeC {\~n}o}{0}}}
\@writefile{nav}{\headcommand {\beamer@framepages {30}{30}}}
\@writefile{nav}{\headcommand {\slideentry {4}{3}{4}{31/31}{Distribuci\IeC {\'o}n de tama\IeC {\~n}o}{0}}}
\@writefile{nav}{\headcommand {\beamer@framepages {31}{31}}}
\@writefile{nav}{\headcommand {\slideentry {4}{3}{5}{32/32}{Distribuci\IeC {\'o}n de tama\IeC {\~n}o}{0}}}
\@writefile{nav}{\headcommand {\beamer@framepages {32}{32}}}
\newlabel{fig:volrel}{{2a}{33}{Distribución de tamaños de granulometría\relax }{Doc-Start}{}}
\@writefile{snm}{\beamer@slide {fig:volrel}{33}}
\newlabel{sub@fig:volrel}{{a}{33}{Distribución de tamaños de granulometría\relax }{Doc-Start}{}}
\@writefile{snm}{\beamer@slide {sub@fig:volrel}{33}}
\newlabel{fig:tiger}{{2b}{33}{su correspondiente patron de espectro\relax }{Doc-Start}{}}
\@writefile{snm}{\beamer@slide {fig:tiger}{33}}
\newlabel{sub@fig:tiger}{{b}{33}{su correspondiente patron de espectro\relax }{Doc-Start}{}}
\@writefile{snm}{\beamer@slide {sub@fig:tiger}{33}}
\newlabel{fig:imgcomp1}{{2}{33}{\relax }{Doc-Start}{}}
\@writefile{snm}{\beamer@slide {fig:imgcomp1}{33}}
\@writefile{nav}{\headcommand {\slideentry {4}{3}{6}{33/33}{Distribuci\IeC {\'o}n de tama\IeC {\~n}o}{0}}}
\@writefile{nav}{\headcommand {\beamer@framepages {33}{33}}}
\@writefile{nav}{\headcommand {\slideentry {4}{3}{7}{34/34}{Distribuci\IeC {\'o}n de tama\IeC {\~n}o}{0}}}
\@writefile{nav}{\headcommand {\beamer@framepages {34}{34}}}
\newlabel{fig:imgdesventPS}{{3}{35}{tres muestras con el mismo espectro patrón, la granulometría no es capaz de diferenciarlas \relax }{Doc-Start}{}}
\@writefile{snm}{\beamer@slide {fig:imgdesventPS}{35}}
\newlabel{fig:volrel}{{\caption@xref {fig:volrel}{ on input line 604}}{35}{tres muestras con el mismo espectro patrón, la granulometría no es capaz de diferenciarlas \relax }{Doc-Start}{}}
\@writefile{snm}{\beamer@slide {fig:volrel}{35}}
\newlabel{sub@fig:volrel}{{}{35}{tres muestras con el mismo espectro patrón, la granulometría no es capaz de diferenciarlas \relax }{Doc-Start}{}}
\@writefile{snm}{\beamer@slide {sub@fig:volrel}{35}}
\@writefile{nav}{\headcommand {\slideentry {4}{3}{8}{35/35}{Distribuci\IeC {\'o}n de tama\IeC {\~n}o}{0}}}
\@writefile{nav}{\headcommand {\beamer@framepages {35}{35}}}
\@writefile{nav}{\headcommand {\slideentry {4}{3}{9}{36/36}{Distribuci\IeC {\'o}n de tama\IeC {\~n}o}{0}}}
\@writefile{nav}{\headcommand {\beamer@framepages {36}{36}}}
\@writefile{nav}{\headcommand {\slideentry {4}{3}{9}{36/37}{Distribuci\IeC {\'o}n de tama\IeC {\~n}o}{0}}}
\@writefile{nav}{\headcommand {\beamer@framepages {36}{37}}}
\@writefile{nav}{\headcommand {\slideentry {4}{3}{9}{36/38}{Distribuci\IeC {\'o}n de tama\IeC {\~n}o}{0}}}
\@writefile{nav}{\headcommand {\beamer@framepages {36}{38}}}
\@writefile{nav}{\headcommand {\slideentry {4}{3}{9}{36/39}{Distribuci\IeC {\'o}n de tama\IeC {\~n}o}{0}}}
\@writefile{nav}{\headcommand {\beamer@framepages {36}{39}}}
\@writefile{toc}{\beamer@subsectionintoc {4}{4}{ Otras distribuciones }{40}{0}{4}}
\@writefile{nav}{\headcommand {\beamer@subsectionentry {0}{4}{4}{40}{ Otras distribuciones }}\headcommand {\beamer@subsectionpages {28}{39}}}
\@writefile{nav}{\headcommand {\slideentry {4}{4}{1}{40/40}{ Otras distribuciones }{0}}}
\@writefile{nav}{\headcommand {\beamer@framepages {40}{40}}}
\@writefile{nav}{\headcommand {\slideentry {4}{4}{2}{41/41}{ Otras distribuciones }{0}}}
\@writefile{nav}{\headcommand {\beamer@framepages {41}{41}}}
\@writefile{nav}{\headcommand {\slideentry {4}{4}{2}{41/42}{ Otras distribuciones }{0}}}
\@writefile{nav}{\headcommand {\beamer@framepages {41}{42}}}
\@writefile{toc}{\beamer@sectionintoc {5}{Extensi\IeC {\'o}n a color }{43}{0}{5}}
\@writefile{nav}{\headcommand {\sectionentry {5}{Extensi\IeC {\'o}n a color }{43}{Extensi\IeC {\'o}n a color }{0}}}
\@writefile{nav}{\headcommand {\beamer@sectionpages {21}{42}}}
\@writefile{nav}{\headcommand {\beamer@subsectionpages {40}{42}}}
\@writefile{nav}{\headcommand {\slideentry {5}{0}{3}{43/43}{}{0}}}
\@writefile{nav}{\headcommand {\beamer@framepages {43}{43}}}
\@writefile{toc}{\beamer@sectionintoc {6}{Estado actual de las tareas }{44}{0}{6}}
\@writefile{nav}{\headcommand {\sectionentry {6}{Estado actual de las tareas }{44}{Estado actual de las tareas }{0}}}
\@writefile{nav}{\headcommand {\beamer@sectionpages {43}{43}}}
\@writefile{nav}{\headcommand {\beamer@subsectionpages {43}{43}}}
\@writefile{nav}{\headcommand {\slideentry {6}{0}{4}{44/44}{}{0}}}
\@writefile{nav}{\headcommand {\beamer@framepages {44}{44}}}
\@writefile{nav}{\headcommand {\sectionentry {7}{Conclusiones}{45}{Conclusiones}{0}}}
\@writefile{nav}{\headcommand {\beamer@sectionpages {44}{44}}}
\@writefile{nav}{\headcommand {\beamer@subsectionpages {44}{44}}}
\@writefile{nav}{\headcommand {\slideentry {7}{0}{5}{45/45}{}{0}}}
\@writefile{nav}{\headcommand {\beamer@framepages {45}{45}}}
\bibstyle{plain}
\bibdata{citaciones}
\bibcite{aptulefe2011}{\hyperlink {beamerbibaptulefe2011}{1}}
\bibcite{jvazquez2014}{\hyperlink {beamerbibjvazquez2014}{2}}
\@writefile{nav}{\headcommand {\partentry {\translate  {Appendix}}{1}}}
\@writefile{nav}{\headcommand {\beamer@partpages {1}{45}}}
\@writefile{nav}{\headcommand {\beamer@sectionpages {45}{45}}}
\@writefile{nav}{\headcommand {\beamer@subsectionpages {45}{45}}}
\@writefile{nav}{\headcommand {\beamer@appendixpages {46}}}
\@writefile{nav}{\headcommand {\sectionentry {8}{\translate  {Appendix}}{46}{\translate  {Appendix}}{1}}}
\@writefile{nav}{\headcommand {\beamer@sectionpages {46}{45}}}
\@writefile{nav}{\headcommand {\beamer@subsectionpages {46}{45}}}
\@writefile{nav}{\headcommand {\beamer@subsectionentry {1}{8}{1}{46}{ Referencias }}\headcommand {\beamer@subsectionpages {46}{45}}}
\@writefile{nav}{\headcommand {\slideentry {8}{1}{1}{46/46}{ Referencias }{1}}}
\@writefile{nav}{\headcommand {\beamer@framepages {46}{46}}}
\@writefile{nav}{\headcommand {\beamer@partpages {46}{46}}}
\@writefile{nav}{\headcommand {\beamer@subsectionpages {46}{46}}}
\@writefile{nav}{\headcommand {\beamer@sectionpages {46}{46}}}
\@writefile{nav}{\headcommand {\beamer@documentpages {46}}}
\@writefile{nav}{\headcommand {\def \inserttotalframenumber {45}}}
