\BOOKMARK [2][]{Outline0.1}{Textura}{}% 1
\BOOKMARK [3][]{Outline0.1.1.3}{Conceptos }{Outline0.1}% 2
\BOOKMARK [3][]{Outline0.1.2.6}{An\341lisis de textura }{Outline0.1}% 3
\BOOKMARK [2][]{Outline0.2}{Aplicaciones}{}% 4
\BOOKMARK [3][]{Outline0.2.1.8}{Aplicaciones del an\341lisis de textura}{Outline0.2}% 5
\BOOKMARK [2][]{Outline0.3}{Extracci\363n de carater\355sticas y clasificaci\363n}{}% 6
\BOOKMARK [3][]{Outline0.3.1.14}{Extracci\363n de caracter\355sticas}{Outline0.3}% 7
\BOOKMARK [3][]{Outline0.3.2.19}{Clasificaci\363n}{Outline0.3}% 8
\BOOKMARK [2][]{Outline0.4}{Enfoque morfol\363gico }{}% 9
\BOOKMARK [3][]{Outline0.4.1.21}{Aspectos generales}{Outline0.4}% 10
\BOOKMARK [3][]{Outline0.4.2.25}{Series morfol\363gicas}{Outline0.4}% 11
\BOOKMARK [3][]{Outline0.4.3.28}{Distribuci\363n de tama\361o}{Outline0.4}% 12
\BOOKMARK [3][]{Outline0.4.4.40}{ Otras distribuciones }{Outline0.4}% 13
\BOOKMARK [2][]{Outline0.5}{Extensi\363n a color }{}% 14
\BOOKMARK [2][]{Outline0.6}{Estado actual de las tareas }{}% 15
