\relax 
\providecommand\hyper@newdestlabel[2]{}
\catcode `"\active 
\catcode `<\active 
\catcode `>\active 
\@nameuse{es@quoting}
\providecommand\HyperFirstAtBeginDocument{\AtBeginDocument}
\HyperFirstAtBeginDocument{\ifx\hyper@anchor\@undefined
\global\let\oldcontentsline\contentsline
\gdef\contentsline#1#2#3#4{\oldcontentsline{#1}{#2}{#3}}
\global\let\oldnewlabel\newlabel
\gdef\newlabel#1#2{\newlabelxx{#1}#2}
\gdef\newlabelxx#1#2#3#4#5#6{\oldnewlabel{#1}{{#2}{#3}}}
\AtEndDocument{\ifx\hyper@anchor\@undefined
\let\contentsline\oldcontentsline
\let\newlabel\oldnewlabel
\fi}
\fi}
\global\let\hyper@last\relax 
\gdef\HyperFirstAtBeginDocument#1{#1}
\providecommand\HyField@AuxAddToFields[1]{}
\providecommand\HyField@AuxAddToCoFields[2]{}
\select@language{spanish}
\@writefile{toc}{\select@language{spanish}}
\@writefile{lof}{\select@language{spanish}}
\@writefile{lot}{\select@language{spanish}}
\@newglossary{main}{glg}{gls}{glo}
\@newglossary{acronym}{alg}{acr}{acn}
\@istfilename{thesis_ctem_nelsond.ist}
\@glsorder{word}
\select@language{spanish}
\@writefile{toc}{\select@language{spanish}}
\@writefile{lof}{\select@language{spanish}}
\@writefile{lot}{\select@language{spanish}}
\providecommand {\FN@pp@footnotehinttrue }{}
\providecommand {\FN@pp@footnote@aux }[2]{}
\FN@pp@footnotehinttrue 
\@input{Dedication/dedication.aux}
\FN@pp@footnotehinttrue 
\FN@pp@footnotehinttrue 
\@input{Acknowledgement/acknowledgement.aux}
\FN@pp@footnotehinttrue 
\@input{Abstract/abstract.aux}
\FN@pp@footnotehinttrue 
\@input{Resumen/resumen.aux}
\FN@pp@footnotehinttrue 
\FN@pp@footnotehinttrue 
\@writefile{toc}{\contentsline {chapter}{Contenido}{\es@scroman  {v}}{chapter*.1}}
\FN@pp@footnotehinttrue 
\citation{ojala2002outex}
\@writefile{toc}{\contentsline {chapter}{Lista de Figuras}{\es@scroman  {vii}}{chapter*.2}}
\@writefile{brf}{\backcite{ojala2002outex}{{\es@scroman  {vii}}{(document)}{Doc-Start}}}
\FN@pp@footnotehinttrue 
\@writefile{toc}{\contentsline {chapter}{Lista de Cuadros}{\es@scroman  {viii}}{chapter*.3}}
\FN@pp@footnotehinttrue 
\@writefile{toc}{\contentsline {chapter}{Lista de S\'imbolos}{\es@scroman  {ix}}{section*.4}}
\FN@pp@footnotehinttrue 
\FN@pp@footnotehinttrue 
\@input{Introduction/introduction.aux}
\FN@pp@footnotehinttrue 
\@input{desarrollo/parte1.aux}
\FN@pp@footnotehinttrue 
\@input{desarrollo/parte2.aux}
\FN@pp@footnotehinttrue 
\@input{desarrollo/parte3.aux}
\FN@pp@footnotehinttrue 
\@input{desarrollo/parte4.aux}
\FN@pp@footnotehinttrue 
\@input{Conclusions/conclusions.aux}
\FN@pp@footnotehinttrue 
\@input{Appendix1/appendix1.aux}
\FN@pp@footnotehinttrue 
\FN@pp@footnotehinttrue 
\@input{Appendix2/appendix2.aux}
\FN@pp@footnotehinttrue 
\@input{Appendix3/appendix3.aux}
\FN@pp@footnotehinttrue 
\bibdata{../referencias/primary,../referencias/second,../referencias/colorord}
\bibcite{arvis2011generalization}{{ADBB11}{}{{}}{{}}}
\bibcite{aptoula2007comparative}{{AL07a}{}{{}}{{}}}
\bibcite{aptoula2007morphological}{{AL07b}{}{{}}{{}}}
\bibcite{akhloufi2007frameworkfeaturesdist}{{ALM07}{}{{}}{{}}}
\bibcite{materka1998}{{AM98}{}{{}}{{}}}
\bibcite{angulo2002morphological}{{AS02}{}{{}}{{}}}
\bibcite{barnett1976ordering}{{Bar76}{}{{}}{{}}}
\bibcite{burger2009digital}{{BB09}{}{{}}{{}}}
\bibcite{batman1997size}{{BD97}{}{{}}{{}}}
\bibcite{chanussot1997bit}{{CL97}{}{{}}{{}}}
\FN@pp@footnotehinttrue 
\@writefile{toc}{\contentsline {chapter}{Referencias}{53}{appendix*.33}}
\bibcite{astoladougherty1999nonlinear}{{DA99}{}{{}}{{}}}
\bibcite{ayaladomingode2006selecting}{{dVBAD06}{}{{}}{{}}}
\bibcite{aptulefe2011}{{EA11}{}{{}}{{}}}
\bibcite{elunai2011particulate}{{Elu11}{}{{}}{{}}}
\bibcite{finlayson2005illuminant}{{FHST05}{}{{}}{{}}}
\bibcite{goutsias1995morphological}{{GHS95}{}{{}}{{}}}
\bibcite{hardie1991ranking}{{HA91}{}{{}}{{}}}
\bibcite{hanbury2005illumination}{{HKA05}{}{{}}{{}}}
\bibcite{horgan1998mathematical}{{Hor98}{}{{}}{{}}}
\bibcite{ivanovicicolor}{{Iva15}{}{{}}{{}}}
\bibcite{kotsiantis2007supervised}{{KZP07}{}{{}}{{}}}
\bibcite{lefevre2009beyond}{{Lef09}{}{{}}{{}}}
\bibcite{raoperception1993}{{Loh93}{}{{}}{{}}}
\bibcite{maragos1989pattern}{{Mar89}{}{{}}{{}}}
\bibcite{matheron1975random}{{Mat75}{}{{}}{{}}}
\bibcite{martinez2015alternative}{{MRF15}{}{{}}{{}}}
\bibcite{matheron2002birth}{{MS1}{}{{}}{{}}}
\bibcite{nixon2012feature}{{NA12}{}{{}}{{}}}
\bibcite{ojala2002outex}{{OMP{$^{+}$}02}{}{{}}{{}}}
\bibcite{palm2004color}{{Pal04}{}{{}}{{}}}
\bibcite{presutti2004matriz}{{Pre1}{}{{}}{{}}}
\bibcite{rao2012taxonomy}{{Rao12}{}{{}}{{}}}
\bibcite{markr1994}{{Rza94}{}{{}}{{}}}
\bibcite{soille2013morphological}{{Soi13}{}{{}}{{}}}
\bibcite{serra1992overview}{{SV92}{}{{}}{{}}}
\bibcite{sartor2001morphological}{{SW01}{}{{}}{{}}}
\bibcite{tang1998automatic}{{TSV{$^{+}$}98}{}{{}}{{}}}
\bibcite{van2005parallel}{{VDBVR05}{}{{}}{{}}}
\bibcite{van2010evaluating}{{VDSGS10}{}{{}}{{}}}
\bibcite{vincent2000granulometries}{{Vin00}{}{{}}{{}}}
\bibcite{jvazquez2014}{{VNLASF14}{}{{}}{{}}}
\bibcite{witten1999weka}{{WFT{$^{+}$}99}{}{{}}{{}}}
\bibcite{zhang2002brief}{{ZT02}{}{{}}{{}}}
\bibstyle{alpha}
\providecommand\NAT@force@numbers{}\NAT@force@numbers
\FN@pp@footnotehinttrue 
