\relax 
\bibstyle{acm}
\bibdata{../references/primary.bib}
\@writefile{toc}{\contentsline {chapter}{\numberline {1}Experimentos y resultados }{1}}
\@writefile{lof}{\addvspace {10\p@ }}
\@writefile{lot}{\addvspace {10\p@ }}
\newlabel{chap:experimentos_resultados}{{1}{1}}
\@writefile{toc}{\contentsline {section}{\numberline {1.1}Outex}{1}}
\citation{ojala2002outex}
\citation{ayaladomingode2006selecting}
\@writefile{toc}{\contentsline {section}{\numberline {1.2}Descripci\IeC {\'o}n de pruebas}{2}}
\citation{jvazquez2014}
\providecommand*\caption@xref[2]{\@setref\relax\@undefined{#1}}
\newlabel{expres_outexgallery}{{\caption@xref {expres_outexgallery}{ on input line 25}}{3}}
\@writefile{lof}{\contentsline {figure}{\numberline {1.1}{\ignorespaces  \relax }}{3}}
\citation{aptoula2007comparative}
\citation{aptulefe2011}
\citation{aptulefe2011}
\citation{ayaladomingode2006selecting}
\newlabel{exper_ordenaciones}{{\caption@xref {exper_ordenaciones}{ on input line 97}}{4}}
\citation{aptulefe2011}
\@writefile{toc}{\contentsline {subsection}{\numberline {1.2.1}Experimento 2}{5}}
\@writefile{lot}{\contentsline {table}{\numberline {1.1}{\ignorespaces Prueba de medidas de evaluaci\IeC {\'o}n \relax }}{5}}
\newlabel{}{{1.1}{5}}
\@writefile{lot}{\contentsline {table}{\numberline {1.2}{\ignorespaces Clasificaci\IeC {\'o}n con Norma Eucl\IeC {\'\i }dea $\left \delimiter "026B30D v \right \delimiter "026B30D $ \relax }}{6}}
\newlabel{}{{1.2}{6}}
\@writefile{lot}{\contentsline {table}{\numberline {1.3}{\ignorespaces Clasificaci\IeC {\'o}n con Ordenamiento $\mathrm  {HST_{2}} $\relax }}{6}}
\newlabel{}{{1.3}{6}}
\@writefile{lot}{\contentsline {table}{\numberline {1.4}{\ignorespaces Concatenaci\IeC {\'o}n de medidas, Ordenamiento $\mathrm  {HST_{2}} $ \relax }}{6}}
\newlabel{}{{1.4}{6}}
\citation{finlayson2005illuminant}
\@writefile{lot}{\contentsline {table}{\numberline {1.5}{\ignorespaces Clasificaci\IeC {\'o}n con Procesamiento Marginal\relax }}{7}}
\newlabel{}{{1.5}{7}}
\@writefile{lot}{\contentsline {table}{\numberline {1.6}{\ignorespaces Concatenaci\IeC {\'o}n de medidas, Procesamiento Marginal\relax }}{7}}
\newlabel{}{{1.6}{7}}
\@writefile{toc}{\contentsline {subsection}{\numberline {1.2.2}Experimento 3}{7}}
