\relax 
\providecommand\hyper@newdestlabel[2]{}
\citation{ojala2002outex}
\citation{palm2004color}
\FN@pp@footnotehinttrue 
\@writefile{toc}{\contentsline {chapter}{\numberline {5}Resultados experimentales}{30}{chapter.5}}
\@writefile{lof}{\addvspace {10\p@ }}
\@writefile{lot}{\addvspace {10\p@ }}
\newlabel{chap:resultadosexperi}{{5}{30}{Resultados experimentales}{chapter.5}{}}
\@writefile{brf}{\backcite{ojala2002outex}{{30}{5}{chapter.5}}}
\@writefile{brf}{\backcite{palm2004color}{{30}{5}{chapter.5}}}
\@writefile{toc}{\contentsline {section}{\numberline {5.1}Experimento 1}{30}{section.5.1}}
\citation{ayaladomingode2006selecting}
\citation{hanbury2005illumination}
\@writefile{brf}{\backcite{ayaladomingode2006selecting}{{31}{5.1}{equation.5.1.7}}}
\citation{aptoula2007comparative}
\citation{aptoula2007comparative,aptulefe2011}
\@writefile{brf}{\backcite{hanbury2005illumination}{{32}{5.1}{equation.5.1.7}}}
\@writefile{lot}{\contentsline {table}{\numberline {5.1}{\ignorespaces  Resultados de clasificaci\IeC {\'o}n por M\IeC {\'e}todos de Ordenamiento\relax }}{32}{table.caption.18}}
\newlabel{tab:experiment1_t1}{{5.1}{32}{Resultados de clasificación por Métodos de Ordenamiento\relax }{table.caption.18}{}}
\newlabel{exper_ordenaciones}{{5.1}{32}{Resultados de clasificación por Métodos de Ordenamiento\relax }{table.caption.18}{}}
\@writefile{brf}{\backcite{aptoula2007comparative}{{32}{5.1}{table.caption.18}}}
\@writefile{brf}{\backcite{aptoula2007comparative}{{32}{5.1}{table.caption.18}}}
\@writefile{brf}{\backcite{aptulefe2011}{{32}{5.1}{table.caption.18}}}
\@writefile{toc}{\contentsline {section}{\numberline {5.2}Experimento 2}{33}{section.5.2}}
\@writefile{lot}{\contentsline {table}{\numberline {5.2}{\ignorespaces Resultados de clasificaci\IeC {\'o}n por Medidas de Evaluaci\IeC {\'o}n. Ordenamiento por Norma \relax }}{33}{table.caption.19}}
\newlabel{tab:exp2_euclid}{{5.2}{33}{Resultados de clasificación por Medidas de Evaluación. Ordenamiento por Norma \relax }{table.caption.19}{}}
\@writefile{lot}{\contentsline {table}{\numberline {5.3}{\ignorespaces Resultados de clasificaci\IeC {\'o}n por Medidas de Evaluaci\IeC {\'o}n. Ordenamiento $\mathrm  {HT_{2}}$ Entrop\IeC {\'\i }a \relax }}{34}{table.caption.20}}
\newlabel{tab:exp2_tablaHST}{{5.3}{34}{Resultados de clasificación por Medidas de Evaluación. Ordenamiento $\mathrm {HT_{2}}$ Entropía \relax }{table.caption.20}{}}
\@writefile{lot}{\contentsline {table}{\numberline {5.4}{\ignorespaces Resultados de clasificaci\IeC {\'o}n por Medidas de Evaluaci\IeC {\'o}n. Procesamiento Marginal\relax }}{35}{table.caption.21}}
\newlabel{tab:exp2_tablamarginal}{{5.4}{35}{Resultados de clasificación por Medidas de Evaluación. Procesamiento Marginal\relax }{table.caption.21}{}}
\citation{finlayson2005illuminant}
\@writefile{toc}{\contentsline {section}{\numberline {5.3}Experimento 3}{36}{section.5.3}}
\@writefile{brf}{\backcite{finlayson2005illuminant}{{36}{5.3}{section.5.3}}}
\@writefile{lot}{\contentsline {table}{\numberline {5.5}{\ignorespaces Resultados de clasificaci\IeC {\'o}n OutexTC14. Ordenamiento por Norma \relax }}{37}{table.caption.23}}
\newlabel{exper3_outex14}{{5.5}{37}{Resultados de clasificación OutexTC14. Ordenamiento por Norma \relax }{table.caption.23}{}}
\FN@pp@footnotehinttrue 
\@writefile{lof}{\contentsline {figure}{\numberline {5.1}{\ignorespaces  Las 68 clases de textura de OutexTC13\relax }}{38}{figure.caption.17}}
\newlabel{fig:outex13muestra}{{5.1}{38}{Las 68 clases de textura de OutexTC13\relax }{figure.caption.17}{}}
\newlabel{fig:000002_inca}{{5.2a}{39}{000001-INCA\relax }{figure.caption.22}{}}
\newlabel{sub@fig:000002_inca}{{a}{39}{000001-INCA\relax }{figure.caption.22}{}}
\newlabel{fig:000002_inca_EQ}{{5.2b}{39}{000001-INCA-EQ\relax }{figure.caption.22}{}}
\newlabel{sub@fig:000002_inca_EQ}{{b}{39}{000001-INCA-EQ\relax }{figure.caption.22}{}}
\@writefile{lof}{\contentsline {figure}{\numberline {5.2}{\ignorespaces Superficie de textura bajo diferentes fuentes de iluminaci\IeC {\'o}n y sus respectivos pre-procesamientos por ecualizaci\IeC {\'o}n \relax }}{39}{figure.caption.22}}
\newlabel{fig:invarianzailum_muestra}{{5.2}{39}{Superficie de textura bajo diferentes fuentes de iluminación y sus respectivos pre-procesamientos por ecualización \relax }{figure.caption.22}{}}
\@writefile{lof}{\contentsline {figure}{\numberline {5.3}{\ignorespaces Curvas de granulometr\IeC {\'\i }a sin normalizar de \ref  {fig:000002_inca} y \ref  {fig:000002_inca_EQ} con ordenamiento norma-eucl\IeC {\'\i }dea, $\lambda =15$ pasos de 2 \relax }}{40}{figure.caption.24}}
\newlabel{fig:outex14_curvagranul}{{5.3}{40}{Curvas de granulometría sin normalizar de \ref {fig:000002_inca} y \ref {fig:000002_inca_EQ} con ordenamiento norma-euclídea, $\lambda =15$ pasos de 2 \relax }{figure.caption.24}{}}
\@setckpt{desarrollo/parte4}{
\setcounter{page}{41}
\setcounter{equation}{7}
\setcounter{enumi}{2}
\setcounter{enumii}{0}
\setcounter{enumiii}{0}
\setcounter{enumiv}{0}
\setcounter{footnote}{0}
\setcounter{mpfootnote}{0}
\setcounter{part}{0}
\setcounter{chapter}{5}
\setcounter{section}{3}
\setcounter{subsection}{0}
\setcounter{subsubsection}{0}
\setcounter{paragraph}{0}
\setcounter{subparagraph}{0}
\setcounter{figure}{3}
\setcounter{table}{5}
\setcounter{pp@next@reset}{1}
\setcounter{@fnserial}{0}
\setcounter{NAT@ctr}{0}
\setcounter{FancyVerbLine}{0}
\setcounter{Item}{2}
\setcounter{Hfootnote}{0}
\setcounter{bookmark@seq@number}{32}
\setcounter{ContinuedFloat}{0}
\setcounter{subfigure}{0}
\setcounter{subtable}{0}
\setcounter{dblbotnumber}{2}
\setcounter{float@type}{8}
\setcounter{parentequation}{0}
\setcounter{su@anzahl}{0}
\setcounter{LT@tables}{0}
\setcounter{LT@chunks}{0}
\setcounter{algorithm}{2}
\setcounter{ALG@line}{11}
\setcounter{ALG@rem}{0}
\setcounter{ALG@nested}{0}
\setcounter{ALG@Lnr}{2}
\setcounter{ALG@blocknr}{10}
\setcounter{ALG@storecount}{0}
\setcounter{ALG@tmpcounter}{0}
\setcounter{section@level}{1}
}
