\relax 
\providecommand\hyper@newdestlabel[2]{}
\citation{angulo2002morphological,lefevre2009beyond}
\citation{arvis2011generalization,martinez2015alternative}
\citation{arvis2011generalization,presutti2004matriz}
\citation{presutti2004matriz}
\FN@pp@footnotehinttrue 
\@writefile{toc}{\contentsline {chapter}{\numberline {4}Propuesta}{24}{chapter.4}}
\@writefile{lof}{\addvspace {10\p@ }}
\@writefile{lot}{\addvspace {10\p@ }}
\newlabel{chap:propuesta}{{4}{24}{Propuesta}{chapter.4}{}}
\@writefile{brf}{\backcite{angulo2002morphological}{{24}{4}{chapter.4}}}
\@writefile{brf}{\backcite{lefevre2009beyond}{{24}{4}{chapter.4}}}
\@writefile{brf}{\backcite{arvis2011generalization}{{24}{4}{chapter.4}}}
\@writefile{brf}{\backcite{martinez2015alternative}{{24}{4}{chapter.4}}}
\@writefile{brf}{\backcite{arvis2011generalization}{{24}{4}{chapter.4}}}
\@writefile{brf}{\backcite{presutti2004matriz}{{24}{4}{chapter.4}}}
\@writefile{brf}{\backcite{presutti2004matriz}{{24}{4}{chapter.4}}}
\newlabel{fig:000242_granNN_RGB}{{4.1a}{25}{Curva granulométrica sin normalizar muestra 000242, utilizando ordenación por norma euclídea \relax }{figure.caption.15}{}}
\newlabel{sub@fig:000242_granNN_RGB}{{a}{25}{Curva granulométrica sin normalizar muestra 000242, utilizando ordenación por norma euclídea \relax }{figure.caption.15}{}}
\newlabel{fig:000242_covNN_RGB}{{4.1b}{25}{Covarianza morfológica sin normalizar de la muestra 000242 \relax }{figure.caption.15}{}}
\newlabel{sub@fig:000242_covNN_RGB}{{b}{25}{Covarianza morfológica sin normalizar de la muestra 000242 \relax }{figure.caption.15}{}}
\@writefile{lof}{\contentsline {figure}{\numberline {4.1}{\ignorespaces (a) Granulometr\IeC {\'\i }a (b) covarianza morfol\IeC {\'o}gica de la muestra 000242\relax }}{25}{figure.caption.15}}
\citation{akhloufi2007frameworkfeaturesdist}
\@writefile{lof}{\contentsline {figure}{\numberline {4.2}{\ignorespaces Canales $Q_1$,$Q_2$,$Q_3$ de la imagen de salida luego de aplicar el filtro morfol\IeC {\'o}gico $\psi $ a una imagen $\mathbf  {f}$.\relax }}{26}{figure.caption.16}}
\newlabel{fig:propuestaQs}{{4.2}{26}{Canales $Q_1$,$Q_2$,$Q_3$ de la imagen de salida luego de aplicar el filtro morfológico $\psi $ a una imagen $\vec {f}$.\relax }{figure.caption.16}{}}
\@writefile{toc}{\contentsline {section}{\numberline {4.1}Distancias Intercanales}{26}{section.4.1}}
\@writefile{brf}{\backcite{akhloufi2007frameworkfeaturesdist}{{26}{4.1}{section.4.1}}}
\newlabel{eq:distintercanal_1}{{4.5}{26}{Distancias Intercanales}{equation.4.1.5}{}}
\newlabel{eq:distintercanal_2}{{4.6}{26}{Distancias Intercanales}{equation.4.1.6}{}}
\newlabel{eq:volumen_distinter}{{4.8}{27}{Distancias Intercanales}{equation.4.1.8}{}}
\@writefile{toc}{\contentsline {section}{\numberline {4.2}Proporci\IeC {\'o}n Intercanal}{27}{section.4.2}}
\citation{van2010evaluating}
\newlabel{eq:volumen_proporcion}{{4.10}{28}{Proporción Intercanal}{equation.4.2.10}{}}
\@writefile{toc}{\contentsline {section}{\numberline {4.3}Volumen-RG}{28}{section.4.3}}
\@writefile{brf}{\backcite{van2010evaluating}{{28}{4.3}{section.4.3}}}
\newlabel{eq:histrb}{{4.11}{28}{Volumen-RG}{equation.4.3.11}{}}
\newlabel{volumenrg_1}{{4.12}{28}{Volumen-RG}{equation.4.3.12}{}}
\newlabel{volumenrg_2}{{4.13}{28}{Volumen-RG}{equation.4.3.13}{}}
\newlabel{volumenrg_3}{{4.14}{28}{Volumen-RG}{equation.4.3.14}{}}
\newlabel{eq:volumen_volrb}{{4.15}{28}{Volumen-RG}{equation.4.3.15}{}}
\@writefile{toc}{\contentsline {section}{\numberline {4.4}Resumen}{29}{section.4.4}}
\FN@pp@footnotehinttrue 
\@setckpt{desarrollo/parte3}{
\setcounter{page}{30}
\setcounter{equation}{15}
\setcounter{enumi}{2}
\setcounter{enumii}{0}
\setcounter{enumiii}{0}
\setcounter{enumiv}{0}
\setcounter{footnote}{0}
\setcounter{mpfootnote}{0}
\setcounter{part}{0}
\setcounter{chapter}{4}
\setcounter{section}{4}
\setcounter{subsection}{0}
\setcounter{subsubsection}{0}
\setcounter{paragraph}{0}
\setcounter{subparagraph}{0}
\setcounter{figure}{2}
\setcounter{table}{0}
\setcounter{pp@next@reset}{1}
\setcounter{@fnserial}{0}
\setcounter{NAT@ctr}{0}
\setcounter{FancyVerbLine}{0}
\setcounter{Item}{2}
\setcounter{Hfootnote}{0}
\setcounter{bookmark@seq@number}{28}
\setcounter{ContinuedFloat}{0}
\setcounter{subfigure}{0}
\setcounter{subtable}{0}
\setcounter{dblbotnumber}{2}
\setcounter{float@type}{8}
\setcounter{parentequation}{0}
\setcounter{su@anzahl}{0}
\setcounter{LT@tables}{0}
\setcounter{LT@chunks}{0}
\setcounter{algorithm}{2}
\setcounter{ALG@line}{11}
\setcounter{ALG@rem}{0}
\setcounter{ALG@nested}{0}
\setcounter{ALG@Lnr}{2}
\setcounter{ALG@blocknr}{10}
\setcounter{ALG@storecount}{0}
\setcounter{ALG@tmpcounter}{0}
\setcounter{section@level}{1}
}
