\relax 
\providecommand\hyper@newdestlabel[2]{}
\citation{aptulefe2011,lefevre2009beyond}
\citation{aptoula2007morphological}
\citation{aptulefe2011}
\citation{matheron1975random}
\citation{vincent2000granulometries,soille2013morphological}
\citation{serra1992overview}
\FN@pp@footnotehinttrue 
\@writefile{toc}{\contentsline {chapter}{\numberline {3}Series Morfol\IeC {\'o}gicas}{13}{chapter.3}}
\@writefile{lof}{\addvspace {10\p@ }}
\@writefile{lot}{\addvspace {10\p@ }}
\newlabel{chap:seriesmorf}{{3}{13}{Series Morfológicas}{chapter.3}{}}
\@writefile{brf}{\backcite{aptulefe2011}{{13}{3}{chapter.3}}}
\@writefile{brf}{\backcite{lefevre2009beyond}{{13}{3}{chapter.3}}}
\@writefile{toc}{\contentsline {section}{\numberline {3.1}Series Morfol\IeC {\'o}gicas en escala grises}{13}{section.3.1}}
\@writefile{brf}{\backcite{aptoula2007morphological}{{13}{3.1}{equation.3.1.1}}}
\@writefile{brf}{\backcite{aptulefe2011}{{13}{3.1}{equation.3.1.1}}}
\@writefile{toc}{\contentsline {subsection}{\numberline {3.1.1}Granulometr\IeC {\'\i }a }{13}{subsection.3.1.1}}
\newlabel{subsec_granulometrica}{{3.1.1}{13}{Granulometría}{subsection.3.1.1}{}}
\@writefile{brf}{\backcite{matheron1975random}{{13}{3.1.1}{subsection.3.1.1}}}
\citation{aptoula2007morphological}
\citation{matheron1975random}
\citation{batman1997size}
\@writefile{lof}{\contentsline {figure}{\numberline {3.1}{\ignorespaces Serie de Morfol\IeC {\'o}gica basada en aperturas con $n+1$ elementos \relax }}{14}{figure.caption.9}}
\newlabel{fig:seriesmorfologicas}{{3.1}{14}{Serie de Morfológica basada en aperturas con $n+1$ elementos \relax }{figure.caption.9}{}}
\@writefile{brf}{\backcite{vincent2000granulometries}{{14}{3.1.1}{subsection.3.1.1}}}
\@writefile{brf}{\backcite{soille2013morphological}{{14}{3.1.1}{subsection.3.1.1}}}
\@writefile{brf}{\backcite{serra1992overview}{{14}{3.1.1}{subsection.3.1.1}}}
\newlabel{eq:seriegranul}{{3.2}{14}{Granulometría}{equation.3.1.2}{}}
\@writefile{brf}{\backcite{aptoula2007morphological}{{14}{3.1.1}{equation.3.1.2}}}
\newlabel{eq:granul_gris}{{3.3}{14}{Granulometría}{equation.3.1.3}{}}
\newlabel{eq:volumen}{{3.4}{14}{Granulometría}{equation.3.1.4}{}}
\@writefile{brf}{\backcite{matheron1975random}{{14}{3.1.1}{equation.3.1.4}}}
\citation{matheron1975random,maragos1989pattern}
\citation{aptoula2007morphological}
\citation{lefevre2009beyond}
\@writefile{brf}{\backcite{batman1997size}{{15}{3.1.1}{equation.3.1.4}}}
\@writefile{toc}{\contentsline {subsection}{\numberline {3.1.2}Covarianza Morfol\IeC {\'o}gica }{15}{subsection.3.1.2}}
\@writefile{brf}{\backcite{matheron1975random}{{15}{3.1.2}{subsection.3.1.2}}}
\@writefile{brf}{\backcite{maragos1989pattern}{{15}{3.1.2}{subsection.3.1.2}}}
\newlabel{eq:covmorf_gris}{{3.6}{15}{Covarianza Morfológica}{equation.3.1.6}{}}
\@writefile{brf}{\backcite{aptoula2007morphological}{{15}{3.1.2}{equation.3.1.6}}}
\@writefile{toc}{\contentsline {section}{\numberline {3.2} Series Morfol\IeC {\'o}gicas extendidas a color }{15}{section.3.2}}
\@writefile{brf}{\backcite{lefevre2009beyond}{{15}{3.2}{section.3.2}}}
\newlabel{fig:elementosestruc_1}{{3.2a}{16}{Elementos estructurantes de forma cuadrada de lado $2\lambda +1$. \relax }{figure.caption.10}{}}
\newlabel{sub@fig:elementosestruc_1}{{a}{16}{Elementos estructurantes de forma cuadrada de lado $2\lambda +1$. \relax }{figure.caption.10}{}}
\newlabel{fig:elementosestruc_2}{{3.2b}{16}{Pares de píxeles con orientaciones y distancias variantes. \relax }{figure.caption.10}{}}
\newlabel{sub@fig:elementosestruc_2}{{b}{16}{Pares de píxeles con orientaciones y distancias variantes. \relax }{figure.caption.10}{}}
\@writefile{lof}{\contentsline {figure}{\numberline {3.2}{\ignorespaces Elementos estructurantes utilizados en (a) la granulometr\IeC {\'\i }a , (b) la covarianza morfol\IeC {\'o}gica. \relax }}{16}{figure.caption.10}}
\newlabel{fig:elementosestruc}{{3.2}{16}{Elementos estructurantes utilizados en (a) la granulometría , (b) la covarianza morfológica. \relax }{figure.caption.10}{}}
\newlabel{eq:seriemorfomarginal}{{3.8}{17}{Series Morfológicas extendidas a color}{equation.3.2.8}{}}
\newlabel{eq:covarcolor}{{3.9}{17}{Series Morfológicas extendidas a color}{equation.3.2.9}{}}
\newlabel{eq:granulcolor}{{3.10}{17}{Series Morfológicas extendidas a color}{equation.3.2.10}{}}
\@writefile{lof}{\contentsline {figure}{\numberline {3.3}{\ignorespaces Serie de aperturas $\gamma $ de la muestra 000242 de Outex13, usando el ordenamiento por Norma-Eucl\IeC {\'\i }dea, con un elemento estructurante de forma cuadrada de lado $\lambda $ variando en pasos de 2.\relax }}{18}{figure.caption.11}}
\newlabel{fig:ejemp_granul_000242}{{3.3}{18}{Serie de aperturas $\gamma $ de la muestra 000242 de Outex13, usando el ordenamiento por Norma-Euclídea, con un elemento estructurante de forma cuadrada de lado $\lambda $ variando en pasos de 2.\relax }{figure.caption.11}{}}
\newlabel{fig:a0d1}{{3.4a}{19}{$\theta =0^{\circ }, d=1$\relax }{figure.caption.12}{}}
\newlabel{sub@fig:a0d1}{{a}{19}{$\theta =0^{\circ }, d=1$\relax }{figure.caption.12}{}}
\newlabel{fig:a0d5}{{3.4b}{19}{$\theta =0^{\circ }, d=5$\relax }{figure.caption.12}{}}
\newlabel{sub@fig:a0d5}{{b}{19}{$\theta =0^{\circ }, d=5$\relax }{figure.caption.12}{}}
\newlabel{fig:a0d9}{{3.4c}{19}{$\theta =0, d=9$\relax }{figure.caption.12}{}}
\newlabel{sub@fig:a0d9}{{c}{19}{$\theta =0, d=9$\relax }{figure.caption.12}{}}
\newlabel{fig:a0d13}{{3.4d}{19}{$\theta =0^{\circ }, d=13$\relax }{figure.caption.12}{}}
\newlabel{sub@fig:a0d13}{{d}{19}{$\theta =0^{\circ }, d=13$\relax }{figure.caption.12}{}}
\newlabel{fig:a45d1}{{3.4e}{19}{$\theta =45, d=1$\relax }{figure.caption.12}{}}
\newlabel{sub@fig:a45d1}{{e}{19}{$\theta =45, d=1$\relax }{figure.caption.12}{}}
\newlabel{fig:a45d5}{{3.4f}{19}{$\theta =45^{\circ }, d=5$\relax }{figure.caption.12}{}}
\newlabel{sub@fig:a45d5}{{f}{19}{$\theta =45^{\circ }, d=5$\relax }{figure.caption.12}{}}
\newlabel{fig:a45d9}{{3.4g}{19}{$\theta =45^{\circ }, d=9$\relax }{figure.caption.12}{}}
\newlabel{sub@fig:a45d9}{{g}{19}{$\theta =45^{\circ }, d=9$\relax }{figure.caption.12}{}}
\newlabel{fig:a45d13}{{3.4h}{19}{$\theta =45^{\circ }, d=13$\relax }{figure.caption.12}{}}
\newlabel{sub@fig:a45d13}{{h}{19}{$\theta =45^{\circ }, d=13$\relax }{figure.caption.12}{}}
\newlabel{fig:a90d1}{{3.4i}{19}{$\theta =90^{\circ }, d=1$\relax }{figure.caption.12}{}}
\newlabel{sub@fig:a90d1}{{i}{19}{$\theta =90^{\circ }, d=1$\relax }{figure.caption.12}{}}
\newlabel{fig:a90d5}{{3.4j}{19}{$\theta =90^{\circ }, d=5$\relax }{figure.caption.12}{}}
\newlabel{sub@fig:a90d5}{{j}{19}{$\theta =90^{\circ }, d=5$\relax }{figure.caption.12}{}}
\newlabel{fig:a90d9}{{3.4k}{19}{$\theta =90^{\circ }, d=9$\relax }{figure.caption.12}{}}
\newlabel{sub@fig:a90d9}{{k}{19}{$\theta =90^{\circ }, d=9$\relax }{figure.caption.12}{}}
\newlabel{fig:a90d13}{{3.4l}{19}{$\theta =90^{\circ } \circ , d=13$\relax }{figure.caption.12}{}}
\newlabel{sub@fig:a90d13}{{l}{19}{$\theta =90^{\circ } \circ , d=13$\relax }{figure.caption.12}{}}
\newlabel{fig:a135d1}{{3.4m}{19}{$\theta =135^{\circ }, d=1$\relax }{figure.caption.12}{}}
\newlabel{sub@fig:a135d1}{{m}{19}{$\theta =135^{\circ }, d=1$\relax }{figure.caption.12}{}}
\newlabel{fig:a135d5}{{3.4n}{19}{$\theta =135^{\circ }, d=5$\relax }{figure.caption.12}{}}
\newlabel{sub@fig:a135d5}{{n}{19}{$\theta =135^{\circ }, d=5$\relax }{figure.caption.12}{}}
\newlabel{fig:a135d9}{{3.4\~n}{19}{$\theta =135^{\circ }, d=9$\relax }{figure.caption.12}{}}
\newlabel{sub@fig:a135d9}{{\~n}{19}{$\theta =135^{\circ }, d=9$\relax }{figure.caption.12}{}}
\newlabel{fig:a135d13}{{3.4o}{19}{$\theta =135^{\circ } \circ , d=13$\relax }{figure.caption.12}{}}
\newlabel{sub@fig:a135d13}{{o}{19}{$\theta =135^{\circ } \circ , d=13$\relax }{figure.caption.12}{}}
\@writefile{lof}{\contentsline {figure}{\numberline {3.4}{\ignorespaces Serie de covarianza morfol\IeC {\'o}gica a color de la muestra 000242 de OutexTC13\relax }}{19}{figure.caption.12}}
\newlabel{fig:ejemp_cov_000242}{{3.4}{19}{Serie de covarianza morfológica a color de la muestra 000242 de OutexTC13\relax }{figure.caption.12}{}}
\@writefile{lof}{\contentsline {figure}{\numberline {3.5}{\ignorespaces  Granulometr\IeC {\'\i }a de la muestra 000242 \relax }}{20}{figure.caption.13}}
\newlabel{fig:000242_granul}{{3.5}{20}{Granulometría de la muestra 000242 \relax }{figure.caption.13}{}}
\@writefile{lof}{\contentsline {figure}{\numberline {3.6}{\ignorespaces  Covarianza Morfol\IeC {\'o}gica de la muestra 000242 \relax }}{20}{figure.caption.14}}
\newlabel{fig:000242_covar}{{3.6}{20}{Covarianza Morfológica de la muestra 000242 \relax }{figure.caption.14}{}}
\citation{astoladougherty1999nonlinear}
\citation{aptulefe2011}
\@writefile{loa}{\contentsline {algorithm}{\numberline {1}{\ignorespaces Granulometr\IeC {\'\i }a en escala de grises\relax }}{21}{algorithm.1}}
\newlabel{alg:granulgris_pseudo}{{1}{21}{Granulometría en escala de grises\relax }{algorithm.1}{}}
\@writefile{toc}{\contentsline {section}{\numberline {3.3}Medidas de evaluaci\IeC {\'o}n}{21}{section.3.3}}
\newlabel{sec:medida_eval}{{3.3}{21}{Medidas de evaluación}{section.3.3}{}}
\@writefile{brf}{\backcite{astoladougherty1999nonlinear}{{21}{3.3}{Item.2}}}
\@writefile{brf}{\backcite{aptulefe2011}{{21}{3.3}{Item.2}}}
\newlabel{eq:varianza}{{3.11}{21}{Medidas de evaluación}{equation.3.3.11}{}}
\citation{ivanovicicolor}
\@writefile{loa}{\contentsline {algorithm}{\numberline {2}{\ignorespaces  Covarianza Morfol\IeC {\'o}gica en escala de grises\relax }}{22}{algorithm.2}}
\newlabel{alg:covmgris_pseudo}{{2}{22}{Covarianza Morfológica en escala de grises\relax }{algorithm.2}{}}
\newlabel{eq:energia}{{3.12}{22}{Medidas de evaluación}{equation.3.3.12}{}}
\newlabel{eq:entropia}{{3.13}{22}{Medidas de evaluación}{equation.3.3.13}{}}
\@writefile{brf}{\backcite{ivanovicicolor}{{22}{3.3}{equation.3.3.13}}}
\newlabel{eq:hipervolumen}{{3.14}{22}{Medidas de evaluación}{equation.3.3.14}{}}
\@writefile{toc}{\contentsline {section}{\numberline {3.4}Resumen}{23}{section.3.4}}
\FN@pp@footnotehinttrue 
\@setckpt{desarrollo/parte2}{
\setcounter{page}{24}
\setcounter{equation}{14}
\setcounter{enumi}{2}
\setcounter{enumii}{0}
\setcounter{enumiii}{0}
\setcounter{enumiv}{0}
\setcounter{footnote}{0}
\setcounter{mpfootnote}{0}
\setcounter{part}{0}
\setcounter{chapter}{3}
\setcounter{section}{4}
\setcounter{subsection}{0}
\setcounter{subsubsection}{0}
\setcounter{paragraph}{0}
\setcounter{subparagraph}{0}
\setcounter{figure}{6}
\setcounter{table}{0}
\setcounter{pp@next@reset}{1}
\setcounter{@fnserial}{0}
\setcounter{NAT@ctr}{0}
\setcounter{FancyVerbLine}{0}
\setcounter{Item}{2}
\setcounter{Hfootnote}{0}
\setcounter{bookmark@seq@number}{23}
\setcounter{ContinuedFloat}{0}
\setcounter{subfigure}{0}
\setcounter{subtable}{0}
\setcounter{dblbotnumber}{2}
\setcounter{float@type}{8}
\setcounter{parentequation}{0}
\setcounter{su@anzahl}{0}
\setcounter{LT@tables}{0}
\setcounter{LT@chunks}{0}
\setcounter{algorithm}{2}
\setcounter{ALG@line}{11}
\setcounter{ALG@rem}{0}
\setcounter{ALG@nested}{0}
\setcounter{ALG@Lnr}{2}
\setcounter{ALG@blocknr}{10}
\setcounter{ALG@storecount}{0}
\setcounter{ALG@tmpcounter}{0}
\setcounter{section@level}{1}
}
