\relax 
\providecommand\hyper@newdestlabel[2]{}
\citation{burger2009digital}
\citation{burger2009digital}
\citation{burger2009digital}
\citation{aptulefe2011,angulo2002morphological}
\citation{angulo2002morphological}
\FN@pp@footnotehinttrue 
\@writefile{toc}{\contentsline {chapter}{\numberline {2}Marco te\IeC {\'o}rico}{3}{chapter.2}}
\@writefile{lof}{\addvspace {10\p@ }}
\@writefile{lot}{\addvspace {10\p@ }}
\newlabel{chap:marcoteorico}{{2}{3}{Marco teórico}{chapter.2}{}}
\@writefile{toc}{\contentsline {section}{\numberline {2.1}Im\IeC {\'a}genes a color}{3}{section.2.1}}
\@writefile{brf}{\backcite{burger2009digital}{{3}{2.1}{section.2.1}}}
\@writefile{brf}{\backcite{burger2009digital}{{3}{2.1}{section.2.1}}}
\@writefile{brf}{\backcite{burger2009digital}{{3}{2.1}{section.2.1}}}
\citation{materka1998}
\citation{aptulefe2011}
\citation{materka1998}
\@writefile{lof}{\contentsline {figure}{\numberline {2.1}{\ignorespaces Representaci\IeC {\'o}n de una imagen a color en el espacio RGB\relax }}{4}{figure.caption.6}}
\providecommand*\caption@xref[2]{\@setref\relax\@undefined{#1}}
\newlabel{fig:imagencolorRGB}{{2.1}{4}{Representación de una imagen a color en el espacio RGB\relax }{figure.caption.6}{}}
\@writefile{brf}{\backcite{aptulefe2011}{{4}{2.1}{section.2.1}}}
\@writefile{brf}{\backcite{angulo2002morphological}{{4}{2.1}{section.2.1}}}
\@writefile{brf}{\backcite{angulo2002morphological}{{4}{2.1}{section.2.1}}}
\@writefile{toc}{\contentsline {subsubsection}{\numberline {2.1.0.1}Histograma de un canal}{4}{subsubsection.2.1.0.1}}
\newlabel{eq:histograma}{{2.1}{4}{Histograma de un canal}{equation.2.1.1}{}}
\@writefile{toc}{\contentsline {section}{\numberline {2.2}Textura}{4}{section.2.2}}
\@writefile{brf}{\backcite{materka1998}{{4}{2.2}{section.2.2}}}
\@writefile{brf}{\backcite{aptulefe2011}{{4}{2.2}{section.2.2}}}
\citation{horgan1998mathematical}
\citation{rao2012taxonomy}
\citation{raoperception1993,rao2012taxonomy}
\citation{raoperception1993}
\citation{ojala2002outex}
\citation{ojala2002outex}
\citation{materka1998}
\citation{aptulefe2011}
\citation{ivanovicicolor}
\citation{angulo2002morphological}
\@writefile{brf}{\backcite{materka1998}{{5}{2.2}{section.2.2}}}
\@writefile{brf}{\backcite{horgan1998mathematical}{{5}{2.2}{section.2.2}}}
\@writefile{brf}{\backcite{rao2012taxonomy}{{5}{2.2}{section.2.2}}}
\@writefile{brf}{\backcite{raoperception1993}{{5}{2.2}{section.2.2}}}
\@writefile{brf}{\backcite{rao2012taxonomy}{{5}{2.2}{section.2.2}}}
\@writefile{brf}{\backcite{raoperception1993}{{5}{2.2}{section.2.2}}}
\@writefile{toc}{\contentsline {subsection}{\numberline {2.2.1}Caracterizaci\IeC {\'o}n y clasificaci\IeC {\'o}n de texturas}{5}{subsection.2.2.1}}
\@writefile{brf}{\backcite{materka1998}{{5}{2.2.1}{subsection.2.2.1}}}
\@writefile{brf}{\backcite{aptulefe2011}{{5}{2.2.1}{subsection.2.2.1}}}
\@writefile{brf}{\backcite{ivanovicicolor}{{5}{2.2.1}{subsection.2.2.1}}}
\@writefile{brf}{\backcite{angulo2002morphological}{{5}{2.2.1}{subsection.2.2.1}}}
\citation{zhang2002brief,ivanovicicolor,materka1998}
\citation{zhang2002brief,ivanovicicolor}
\citation{zhang2002brief,aptulefe2011}
\citation{palm2004color,van2005parallel}
\citation{hanbury2005illumination}
\citation{batman1997size}
\citation{lefevre2009beyond}
\newlabel{fig:d20}{{2.2a}{6}{000112\relax }{figure.caption.7}{}}
\newlabel{sub@fig:d20}{{a}{6}{000112\relax }{figure.caption.7}{}}
\newlabel{fig:d15}{{2.2b}{6}{000450\relax }{figure.caption.7}{}}
\newlabel{sub@fig:d15}{{b}{6}{000450\relax }{figure.caption.7}{}}
\newlabel{fig:d61}{{2.2c}{6}{000692\relax }{figure.caption.7}{}}
\newlabel{sub@fig:d61}{{c}{6}{000692\relax }{figure.caption.7}{}}
\newlabel{fig:d92}{{2.2d}{6}{001352\relax }{figure.caption.7}{}}
\newlabel{sub@fig:d92}{{d}{6}{001352\relax }{figure.caption.7}{}}
\@writefile{lof}{\contentsline {figure}{\numberline {2.2}{\ignorespaces Ejemplos de tipos de textura seg\IeC {\'u}n Rao: (a) fuertemente ordenado, (b) d\IeC {\'e}bilmente ordenado, (c) desordenado, (d) composicional. Muestras de la base de datos Outex13 \cite  {ojala2002outex}. \relax }}{6}{figure.caption.7}}
\@writefile{brf}{\backcite{ojala2002outex}{{6}{2.2}{figure.caption.7}}}
\newlabel{fig:raotextures}{{2.2}{6}{Ejemplos de tipos de textura según Rao: (a) fuertemente ordenado, (b) débilmente ordenado, (c) desordenado, (d) composicional. Muestras de la base de datos Outex13 \cite {ojala2002outex}. \relax }{figure.caption.7}{}}
\@writefile{brf}{\backcite{zhang2002brief}{{6}{2.2.1}{equation.2.2.2}}}
\@writefile{brf}{\backcite{ivanovicicolor}{{6}{2.2.1}{equation.2.2.2}}}
\@writefile{brf}{\backcite{materka1998}{{6}{2.2.1}{equation.2.2.2}}}
\@writefile{brf}{\backcite{zhang2002brief}{{6}{2.2.1}{equation.2.2.2}}}
\@writefile{brf}{\backcite{ivanovicicolor}{{6}{2.2.1}{equation.2.2.2}}}
\@writefile{brf}{\backcite{zhang2002brief}{{6}{2.2.1}{equation.2.2.2}}}
\@writefile{brf}{\backcite{aptulefe2011}{{6}{2.2.1}{equation.2.2.2}}}
\@writefile{brf}{\backcite{palm2004color}{{6}{2.2.1}{equation.2.2.2}}}
\@writefile{brf}{\backcite{van2005parallel}{{6}{2.2.1}{equation.2.2.2}}}
\@writefile{brf}{\backcite{hanbury2005illumination}{{6}{2.2.1}{equation.2.2.2}}}
\@writefile{brf}{\backcite{batman1997size}{{6}{2.2.1}{equation.2.2.2}}}
\@writefile{brf}{\backcite{lefevre2009beyond}{{6}{2.2.1}{equation.2.2.2}}}
\citation{tang1998automatic}
\citation{kotsiantis2007supervised}
\citation{matheron2002birth,matheron1975random}
\@writefile{lof}{\contentsline {figure}{\numberline {2.3}{\ignorespaces Diagrama general del problema de extracci\IeC {\'o}n de caracter\IeC {\'\i }sticas y clasificaci\IeC {\'o}n \relax }}{7}{figure.caption.8}}
\newlabel{fig:extraccionyclasif}{{2.3}{7}{Diagrama general del problema de extracción de características y clasificación \relax }{figure.caption.8}{}}
\@writefile{brf}{\backcite{tang1998automatic}{{7}{2.2.1}{equation.2.2.2}}}
\@writefile{brf}{\backcite{kotsiantis2007supervised}{{7}{2.2.1}{equation.2.2.2}}}
\@writefile{toc}{\contentsline {section}{\numberline {2.3}Morfolog\IeC {\'\i }a Matem\IeC {\'a}tica en escala de grises y color }{7}{section.2.3}}
\citation{aptoula2007comparative}
\citation{aptoula2007comparative}
\@writefile{brf}{\backcite{matheron2002birth}{{8}{2.3}{section.2.3}}}
\@writefile{brf}{\backcite{matheron1975random}{{8}{2.3}{section.2.3}}}
\newlabel{eq:erosionf}{{2.3}{8}{Morfología Matemática en escala de grises y color}{equation.2.3.3}{}}
\newlabel{eq:dilatacionf}{{2.4}{8}{Morfología Matemática en escala de grises y color}{equation.2.3.4}{}}
\newlabel{eq:aperturaf}{{2.5}{8}{Morfología Matemática en escala de grises y color}{equation.2.3.5}{}}
\newlabel{eq:cierref}{{2.6}{8}{Morfología Matemática en escala de grises y color}{equation.2.3.6}{}}
\@writefile{brf}{\backcite{aptoula2007comparative}{{8}{2.3}{equation.2.3.6}}}
\@writefile{brf}{\backcite{aptoula2007comparative}{{8}{2.3}{equation.2.3.6}}}
\citation{barnett1976ordering}
\citation{aptoula2007comparative,aptulefe2011}
\citation{goutsias1995morphological}
\@writefile{toc}{\contentsline {subsection}{\numberline {2.3.1}Ordenamiento Vectorial}{9}{subsection.2.3.1}}
\newlabel{ssec:ordenamientovectorial}{{2.3.1}{9}{Ordenamiento Vectorial}{subsection.2.3.1}{}}
\@writefile{brf}{\backcite{barnett1976ordering}{{9}{2.3.1}{subsection.2.3.1}}}
\@writefile{brf}{\backcite{aptoula2007comparative}{{9}{2.3.1}{equation.2.3.7}}}
\@writefile{brf}{\backcite{aptulefe2011}{{9}{2.3.1}{equation.2.3.7}}}
\citation{hardie1991ranking}
\citation{sartor2001morphological}
\citation{chanussot1997bit}
\citation{jvazquez2014}
\@writefile{brf}{\backcite{goutsias1995morphological}{{10}{2.3.1}{equation.2.3.7}}}
\@writefile{brf}{\backcite{hardie1991ranking}{{10}{2.3.1}{equation.2.3.7}}}
\@writefile{brf}{\backcite{sartor2001morphological}{{10}{2.3.1}{equation.2.3.7}}}
\@writefile{brf}{\backcite{chanussot1997bit}{{10}{2.3.1}{equation.2.3.7}}}
\@writefile{brf}{\backcite{jvazquez2014}{{10}{2.3.1}{equation.2.3.7}}}
\newlabel{eq:metodoprofe}{{2.8}{11}{Ordenamiento Vectorial}{equation.2.3.8}{}}
\newlabel{eq:metodoprofefinal}{{2.9}{11}{Ordenamiento Vectorial}{equation.2.3.9}{}}
\@writefile{toc}{\contentsline {section}{\numberline {2.4}Resumen}{11}{section.2.4}}
\FN@pp@footnotehinttrue 
\@setckpt{desarrollo/parte1}{
\setcounter{page}{13}
\setcounter{equation}{9}
\setcounter{enumi}{0}
\setcounter{enumii}{0}
\setcounter{enumiii}{0}
\setcounter{enumiv}{0}
\setcounter{footnote}{0}
\setcounter{mpfootnote}{0}
\setcounter{part}{0}
\setcounter{chapter}{2}
\setcounter{section}{4}
\setcounter{subsection}{0}
\setcounter{subsubsection}{0}
\setcounter{paragraph}{0}
\setcounter{subparagraph}{0}
\setcounter{figure}{3}
\setcounter{table}{0}
\setcounter{pp@next@reset}{1}
\setcounter{@fnserial}{0}
\setcounter{NAT@ctr}{0}
\setcounter{FancyVerbLine}{0}
\setcounter{Item}{0}
\setcounter{Hfootnote}{0}
\setcounter{bookmark@seq@number}{16}
\setcounter{ContinuedFloat}{0}
\setcounter{subfigure}{0}
\setcounter{subtable}{0}
\setcounter{dblbotnumber}{2}
\setcounter{float@type}{8}
\setcounter{parentequation}{0}
\setcounter{su@anzahl}{0}
\setcounter{LT@tables}{0}
\setcounter{LT@chunks}{0}
\setcounter{algorithm}{0}
\setcounter{ALG@line}{0}
\setcounter{ALG@rem}{0}
\setcounter{ALG@nested}{0}
\setcounter{ALG@Lnr}{2}
\setcounter{ALG@blocknr}{10}
\setcounter{ALG@storecount}{0}
\setcounter{ALG@tmpcounter}{0}
\setcounter{section@level}{1}
}
