\relax 
\providecommand\hyper@newdestlabel[2]{}
\providecommand\HyperFirstAtBeginDocument{\AtBeginDocument}
\HyperFirstAtBeginDocument{\ifx\hyper@anchor\@undefined
\global\let\oldcontentsline\contentsline
\gdef\contentsline#1#2#3#4{\oldcontentsline{#1}{#2}{#3}}
\global\let\oldnewlabel\newlabel
\gdef\newlabel#1#2{\newlabelxx{#1}#2}
\gdef\newlabelxx#1#2#3#4#5#6{\oldnewlabel{#1}{{#2}{#3}}}
\AtEndDocument{\ifx\hyper@anchor\@undefined
\let\contentsline\oldcontentsline
\let\newlabel\oldnewlabel
\fi}
\fi}
\global\let\hyper@last\relax 
\gdef\HyperFirstAtBeginDocument#1{#1}
\providecommand\HyField@AuxAddToFields[1]{}
\providecommand\HyField@AuxAddToCoFields[2]{}
\@writefile{toc}{\beamer@endinputifotherversion {3.36pt}}
\@writefile{nav}{\beamer@endinputifotherversion {3.36pt}}
\@writefile{nav}{\headcommand {\slideentry {0}{0}{1}{1/1}{}{0}}}
\@writefile{nav}{\headcommand {\beamer@framepages {1}{1}}}
\@writefile{nav}{\headcommand {\slideentry {0}{0}{2}{2/2}{}{0}}}
\@writefile{nav}{\headcommand {\beamer@framepages {2}{2}}}
\@writefile{toc}{\beamer@sectionintoc {1}{Conceptos previos}{3}{0}{1}}
\@writefile{nav}{\headcommand {\sectionentry {1}{Conceptos previos}{3}{Conceptos previos}{0}}}
\@writefile{nav}{\headcommand {\beamer@sectionpages {1}{2}}}
\@writefile{nav}{\headcommand {\beamer@subsectionpages {1}{2}}}
\@writefile{toc}{\beamer@subsectionintoc {1}{1}{An\IeC {\'a}lisis de Textura}{3}{0}{1}}
\@writefile{nav}{\headcommand {\beamer@subsectionentry {0}{1}{1}{3}{An\IeC {\'a}lisis de Textura}}\headcommand {\beamer@subsectionpages {3}{2}}}
\@writefile{nav}{\headcommand {\slideentry {1}{1}{1}{3/3}{An\IeC {\'a}lisis de Textura}{0}}}
\@writefile{nav}{\headcommand {\beamer@framepages {3}{3}}}
\citation{materka1998}
\@writefile{nav}{\headcommand {\slideentry {1}{1}{2}{4/4}{An\IeC {\'a}lisis de Textura}{0}}}
\@writefile{nav}{\headcommand {\beamer@framepages {4}{4}}}
\citation{aptoula2007comparative}
\citation{aptoula2007comparative}
\@writefile{nav}{\headcommand {\slideentry {1}{1}{3}{5/5}{An\IeC {\'a}lisis de Textura}{0}}}
\@writefile{nav}{\headcommand {\beamer@framepages {5}{5}}}
\@writefile{nav}{\headcommand {\slideentry {1}{1}{4}{6/6}{An\IeC {\'a}lisis de Textura}{0}}}
\@writefile{nav}{\headcommand {\beamer@framepages {6}{6}}}
\@writefile{nav}{\headcommand {\slideentry {1}{1}{5}{7/8}{An\IeC {\'a}lisis de Textura}{0}}}
\@writefile{nav}{\headcommand {\beamer@framepages {7}{8}}}
\providecommand*\caption@xref[2]{\@setref\relax\@undefined{#1}}
\newlabel{clasifextr }{{\caption@xref {clasifextr }{ on input line 410}}{9}{Análisis de Textura}{Doc-Start}{}}
\@writefile{snm}{\beamer@slide {clasifextr }{9}}
\@writefile{nav}{\headcommand {\slideentry {1}{1}{6}{9/9}{An\IeC {\'a}lisis de Textura}{0}}}
\@writefile{nav}{\headcommand {\beamer@framepages {9}{9}}}
\@writefile{toc}{\beamer@subsectionintoc {1}{2}{Morfolog\IeC {\'\i }a Matem\IeC {\'a}tica}{10}{0}{1}}
\@writefile{nav}{\headcommand {\beamer@subsectionentry {0}{1}{2}{10}{Morfolog\IeC {\'\i }a Matem\IeC {\'a}tica}}\headcommand {\beamer@subsectionpages {3}{9}}}
\@writefile{nav}{\headcommand {\slideentry {1}{2}{1}{10/10}{Morfolog\IeC {\'\i }a Matem\IeC {\'a}tica}{0}}}
\@writefile{nav}{\headcommand {\beamer@framepages {10}{10}}}
\@writefile{nav}{\headcommand {\slideentry {1}{2}{2}{11/11}{Morfolog\IeC {\'\i }a Matem\IeC {\'a}tica}{0}}}
\@writefile{nav}{\headcommand {\beamer@framepages {11}{11}}}
\@writefile{snm}{\beamer@slide {eq:erosionf}{12}}
\newlabel{eq:erosionf}{{1}{12}{Morfología Matemática}{Doc-Start}{}}
\@writefile{nav}{\headcommand {\slideentry {1}{2}{3}{12/12}{Morfolog\IeC {\'\i }a Matem\IeC {\'a}tica}{0}}}
\@writefile{nav}{\headcommand {\beamer@framepages {12}{12}}}
\@writefile{snm}{\beamer@slide {eq:dilatacionf}{12}}
\newlabel{eq:dilatacionf}{{2}{13}{Morfología Matemática}{Doc-Start}{}}
\@writefile{nav}{\headcommand {\slideentry {1}{2}{3}{12/13}{Morfolog\IeC {\'\i }a Matem\IeC {\'a}tica}{0}}}
\@writefile{nav}{\headcommand {\beamer@framepages {12}{13}}}
\@writefile{nav}{\headcommand {\slideentry {1}{2}{3}{12/14}{Morfolog\IeC {\'\i }a Matem\IeC {\'a}tica}{0}}}
\@writefile{nav}{\headcommand {\beamer@framepages {12}{14}}}
\@writefile{nav}{\headcommand {\slideentry {1}{2}{4}{15/15}{Morfolog\IeC {\'\i }a Matem\IeC {\'a}tica}{0}}}
\@writefile{nav}{\headcommand {\beamer@framepages {15}{15}}}
\@writefile{toc}{\beamer@subsectionintoc {1}{3}{Series morfol\IeC {\'o}gicas}{16}{0}{1}}
\@writefile{nav}{\headcommand {\beamer@subsectionentry {0}{1}{3}{16}{Series morfol\IeC {\'o}gicas}}\headcommand {\beamer@subsectionpages {10}{15}}}
\@writefile{nav}{\headcommand {\slideentry {1}{3}{1}{16/16}{Series morfol\IeC {\'o}gicas}{0}}}
\@writefile{nav}{\headcommand {\beamer@framepages {16}{16}}}
\@writefile{nav}{\headcommand {\slideentry {1}{3}{2}{17/17}{Series morfol\IeC {\'o}gicas}{0}}}
\@writefile{nav}{\headcommand {\beamer@framepages {17}{17}}}
\@writefile{nav}{\headcommand {\slideentry {1}{3}{3}{18/19}{Series morfol\IeC {\'o}gicas}{0}}}
\@writefile{nav}{\headcommand {\beamer@framepages {18}{19}}}
\@writefile{nav}{\headcommand {\slideentry {1}{3}{4}{20/20}{Series morfol\IeC {\'o}gicas}{0}}}
\@writefile{nav}{\headcommand {\beamer@framepages {20}{20}}}
\@writefile{snm}{\beamer@slide {eq:volumen}{21}}
\newlabel{eq:volumen}{{4}{21}{Series morfológicas}{Doc-Start}{}}
\@writefile{nav}{\headcommand {\slideentry {1}{3}{5}{21/21}{Series morfol\IeC {\'o}gicas}{0}}}
\@writefile{nav}{\headcommand {\beamer@framepages {21}{21}}}
\@writefile{nav}{\headcommand {\slideentry {1}{3}{6}{22/22}{Series morfol\IeC {\'o}gicas}{0}}}
\@writefile{nav}{\headcommand {\beamer@framepages {22}{22}}}
\@writefile{nav}{\headcommand {\slideentry {1}{3}{7}{23/23}{Series morfol\IeC {\'o}gicas}{0}}}
\@writefile{nav}{\headcommand {\beamer@framepages {23}{23}}}
\@writefile{nav}{\headcommand {\slideentry {1}{3}{8}{24/24}{Series morfol\IeC {\'o}gicas}{0}}}
\@writefile{nav}{\headcommand {\beamer@framepages {24}{24}}}
\@writefile{toc}{\beamer@sectionintoc {2}{Problem\IeC {\'a}tica y motivaci\IeC {\'o}n}{25}{0}{2}}
\@writefile{nav}{\headcommand {\sectionentry {2}{Problem\IeC {\'a}tica y motivaci\IeC {\'o}n}{25}{Problem\IeC {\'a}tica y motivaci\IeC {\'o}n}{0}}}
\@writefile{nav}{\headcommand {\beamer@sectionpages {3}{24}}}
\@writefile{nav}{\headcommand {\beamer@subsectionpages {16}{24}}}
\@writefile{nav}{\headcommand {\slideentry {2}{0}{1}{25/27}{}{0}}}
\@writefile{nav}{\headcommand {\beamer@framepages {25}{27}}}
\@writefile{toc}{\beamer@subsectionintoc {2}{1}{Objetivo General }{28}{0}{2}}
\@writefile{nav}{\headcommand {\beamer@subsectionentry {0}{2}{1}{28}{Objetivo General }}\headcommand {\beamer@subsectionpages {25}{27}}}
\@writefile{nav}{\headcommand {\slideentry {2}{1}{1}{28/28}{Objetivo General }{0}}}
\@writefile{nav}{\headcommand {\beamer@framepages {28}{28}}}
\@writefile{nav}{\headcommand {\slideentry {2}{1}{2}{29/29}{Objetivo General }{0}}}
\@writefile{nav}{\headcommand {\beamer@framepages {29}{29}}}
\@writefile{toc}{\beamer@sectionintoc {3}{Propuesta}{30}{0}{3}}
\@writefile{nav}{\headcommand {\sectionentry {3}{Propuesta}{30}{Propuesta}{0}}}
\@writefile{nav}{\headcommand {\beamer@sectionpages {25}{29}}}
\@writefile{nav}{\headcommand {\beamer@subsectionpages {28}{29}}}
\@writefile{nav}{\headcommand {\slideentry {3}{0}{1}{30/30}{}{0}}}
\@writefile{nav}{\headcommand {\beamer@framepages {30}{30}}}
\@writefile{nav}{\headcommand {\slideentry {3}{0}{2}{31/31}{}{0}}}
\@writefile{nav}{\headcommand {\beamer@framepages {31}{31}}}
\@writefile{nav}{\headcommand {\beamer@subsectionentry {0}{3}{1}{32}{Distancias Intercanales}}\headcommand {\beamer@subsectionpages {30}{31}}}
\@writefile{snm}{\beamer@slide {eq:distintercanal_1}{32}}
\newlabel{eq:distintercanal_1}{{11}{32}{Distancias Intercanales}{Doc-Start}{}}
\@writefile{snm}{\beamer@slide {eq:distintercanal_2}{32}}
\newlabel{eq:distintercanal_2}{{12}{32}{Distancias Intercanales}{Doc-Start}{}}
\@writefile{nav}{\headcommand {\slideentry {3}{1}{1}{32/32}{Distancias Intercanales}{0}}}
\@writefile{nav}{\headcommand {\beamer@framepages {32}{32}}}
\@writefile{snm}{\beamer@slide {eq:distmahal}{33}}
\newlabel{eq:distmahal}{{13}{33}{Distancias Intercanales}{Doc-Start}{}}
\@writefile{snm}{\beamer@slide {eq:volumen_distinter}{33}}
\newlabel{eq:volumen_distinter}{{14}{33}{Distancias Intercanales}{Doc-Start}{}}
\@writefile{nav}{\headcommand {\slideentry {3}{1}{2}{33/33}{Distancias Intercanales}{0}}}
\@writefile{nav}{\headcommand {\beamer@framepages {33}{33}}}
\@writefile{nav}{\headcommand {\slideentry {3}{1}{3}{34/34}{Distancias Intercanales}{0}}}
\@writefile{nav}{\headcommand {\beamer@framepages {34}{34}}}
\@writefile{nav}{\headcommand {\beamer@subsectionentry {0}{3}{2}{35}{Proporci\IeC {\'o}n Intercanal}}\headcommand {\beamer@subsectionpages {32}{34}}}
\@writefile{snm}{\beamer@slide {eq:volumen_pro}{35}}
\newlabel{eq:volumen_pro}{{16}{35}{Proporción Intercanal}{Doc-Start}{}}
\@writefile{nav}{\headcommand {\slideentry {3}{2}{1}{35/35}{Proporci\IeC {\'o}n Intercanal}{0}}}
\@writefile{nav}{\headcommand {\beamer@framepages {35}{35}}}
\@writefile{nav}{\headcommand {\slideentry {3}{2}{2}{36/36}{Proporci\IeC {\'o}n Intercanal}{0}}}
\@writefile{nav}{\headcommand {\beamer@framepages {36}{36}}}
\@writefile{nav}{\headcommand {\beamer@subsectionentry {0}{3}{3}{37}{Volumen-RG}}\headcommand {\beamer@subsectionpages {35}{36}}}
\@writefile{snm}{\beamer@slide {volumenrg_1}{37}}
\newlabel{volumenrg_1}{{18}{37}{Volumen-RG}{Doc-Start}{}}
\@writefile{snm}{\beamer@slide {volumenrg_2}{37}}
\newlabel{volumenrg_2}{{19}{37}{Volumen-RG}{Doc-Start}{}}
\@writefile{snm}{\beamer@slide {volumenrg_3}{37}}
\newlabel{volumenrg_3}{{20}{37}{Volumen-RG}{Doc-Start}{}}
\@writefile{snm}{\beamer@slide {eq:volumen_volrb}{37}}
\newlabel{eq:volumen_volrb}{{21}{37}{Volumen-RG}{Doc-Start}{}}
\@writefile{nav}{\headcommand {\slideentry {3}{3}{1}{37/37}{Volumen-RG}{0}}}
\@writefile{nav}{\headcommand {\beamer@framepages {37}{37}}}
\@writefile{nav}{\headcommand {\slideentry {3}{3}{2}{38/38}{Volumen-RG}{0}}}
\@writefile{nav}{\headcommand {\beamer@framepages {38}{38}}}
\@writefile{toc}{\beamer@sectionintoc {4}{Resultados experimentales}{39}{0}{4}}
\@writefile{nav}{\headcommand {\sectionentry {4}{Resultados experimentales}{39}{Resultados experimentales}{0}}}
\@writefile{nav}{\headcommand {\beamer@sectionpages {30}{38}}}
\@writefile{nav}{\headcommand {\beamer@subsectionpages {37}{38}}}
\@writefile{nav}{\headcommand {\beamer@subsectionentry {0}{4}{1}{39}{Base de datos OutexTC13}}\headcommand {\beamer@subsectionpages {39}{38}}}
\@writefile{nav}{\headcommand {\slideentry {4}{1}{1}{39/39}{Base de datos OutexTC13}{0}}}
\@writefile{nav}{\headcommand {\beamer@framepages {39}{39}}}
\@writefile{nav}{\headcommand {\beamer@subsectionentry {0}{4}{2}{40}{Pruebas de clasificaci\IeC {\'o}n}}\headcommand {\beamer@subsectionpages {39}{39}}}
\@writefile{nav}{\headcommand {\slideentry {4}{2}{1}{40/40}{Pruebas de clasificaci\IeC {\'o}n}{0}}}
\@writefile{nav}{\headcommand {\beamer@framepages {40}{40}}}
\@writefile{nav}{\headcommand {\slideentry {4}{2}{2}{41/41}{Pruebas de clasificaci\IeC {\'o}n}{0}}}
\@writefile{nav}{\headcommand {\beamer@framepages {41}{41}}}
\@writefile{nav}{\headcommand {\slideentry {4}{2}{3}{42/42}{Pruebas de clasificaci\IeC {\'o}n}{0}}}
\@writefile{nav}{\headcommand {\beamer@framepages {42}{42}}}
\@writefile{nav}{\headcommand {\slideentry {4}{2}{4}{43/43}{Pruebas de clasificaci\IeC {\'o}n}{0}}}
\@writefile{nav}{\headcommand {\beamer@framepages {43}{43}}}
\@writefile{toc}{\beamer@sectionintoc {5}{Conclusiones}{44}{0}{5}}
\@writefile{nav}{\headcommand {\sectionentry {5}{Conclusiones}{44}{Conclusiones}{0}}}
\@writefile{nav}{\headcommand {\beamer@sectionpages {39}{43}}}
\@writefile{nav}{\headcommand {\beamer@subsectionpages {40}{43}}}
\@writefile{nav}{\headcommand {\slideentry {5}{0}{1}{44/44}{}{0}}}
\@writefile{nav}{\headcommand {\beamer@framepages {44}{44}}}
\@writefile{nav}{\headcommand {\slideentry {5}{0}{2}{45/45}{}{0}}}
\@writefile{nav}{\headcommand {\beamer@framepages {45}{45}}}
\@writefile{nav}{\headcommand {\beamer@subsectionentry {0}{5}{1}{46}{Segmentaci\IeC {\'o}n}}\headcommand {\beamer@subsectionpages {44}{45}}}
\@writefile{nav}{\headcommand {\slideentry {5}{1}{1}{46/46}{Segmentaci\IeC {\'o}n}{0}}}
\@writefile{nav}{\headcommand {\beamer@framepages {46}{46}}}
\@writefile{nav}{\headcommand {\slideentry {5}{1}{2}{47/47}{Segmentaci\IeC {\'o}n}{0}}}
\@writefile{nav}{\headcommand {\beamer@framepages {47}{47}}}
\@writefile{nav}{\headcommand {\slideentry {5}{1}{3}{48/48}{Segmentaci\IeC {\'o}n}{0}}}
\@writefile{nav}{\headcommand {\beamer@framepages {48}{48}}}
\@writefile{nav}{\headcommand {\slideentry {5}{1}{4}{49/49}{Segmentaci\IeC {\'o}n}{0}}}
\@writefile{nav}{\headcommand {\beamer@framepages {49}{49}}}
\@writefile{nav}{\headcommand {\slideentry {5}{1}{5}{50/50}{Segmentaci\IeC {\'o}n}{0}}}
\@writefile{nav}{\headcommand {\beamer@framepages {50}{50}}}
\@writefile{nav}{\headcommand {\slideentry {5}{1}{6}{51/51}{Segmentaci\IeC {\'o}n}{0}}}
\@writefile{nav}{\headcommand {\beamer@framepages {51}{51}}}
\citation{angulo2002morphological}
\citation{aptulefe2011}
\citation{aptoula2007morphological}
\citation{ayala2001granulometric}
\citation{aptoula2007comparative}
\citation{ivanovicicolor}
\citation{vincent2000granulometries}
\citation{jvazquez2014}
\citation{lefevre2009beyond}
\citation{hanbury2005illumination}
\citation{jvazquez2014}
\citation{materka1998}
\bibstyle{plain}
\bibdata{citaciones}
\bibcite{materka1998}{{1}{}{{}}{{}}}
\bibcite{angulo2002morphological}{{2}{}{{}}{{}}}
\bibcite{aptoula2007comparative}{{3}{}{{}}{{}}}
\bibcite{aptoula2007morphological}{{4}{}{{}}{{}}}
\bibcite{aptulefe2011}{{5}{}{{}}{{}}}
\bibcite{hanbury2005illumination}{{6}{}{{}}{{}}}
\bibcite{ivanovicicolor}{{7}{}{{}}{{}}}
\bibcite{lefevre2009beyond}{{8}{}{{}}{{}}}
\bibcite{jvazquez2014}{{9}{}{{}}{{}}}
\bibcite{vincent2000granulometries}{{10}{}{{}}{{}}}
\@writefile{nav}{\headcommand {\partentry {\translate  {Appendix}}{1}}}
\@writefile{nav}{\headcommand {\beamer@partpages {1}{51}}}
\@writefile{nav}{\headcommand {\beamer@sectionpages {44}{51}}}
\@writefile{nav}{\headcommand {\beamer@subsectionpages {46}{51}}}
\@writefile{nav}{\headcommand {\beamer@appendixpages {52}}}
\@writefile{nav}{\headcommand {\sectionentry {6}{\translate  {Appendix}}{52}{\translate  {Appendix}}{1}}}
\@writefile{nav}{\headcommand {\beamer@sectionpages {52}{51}}}
\@writefile{nav}{\headcommand {\beamer@subsectionpages {52}{51}}}
\@writefile{nav}{\headcommand {\beamer@subsectionentry {1}{6}{1}{52}{ Referencias }}\headcommand {\beamer@subsectionpages {52}{51}}}
\@writefile{nav}{\headcommand {\sectionentry {7}{\translate  {References}}{52}{\translate  {References}}{1}}}
\@writefile{nav}{\headcommand {\beamer@sectionpages {52}{51}}}
\@writefile{nav}{\headcommand {\beamer@subsectionpages {52}{51}}}
\@writefile{nav}{\headcommand {\slideentry {7}{0}{0}{52/52}{ Referencias }{1}}}
\@writefile{nav}{\headcommand {\beamer@framepages {52}{52}}}
\@writefile{nav}{\headcommand {\slideentry {7}{0}{0}{52/53}{ Referencias }{1}}}
\@writefile{nav}{\headcommand {\beamer@framepages {52}{53}}}
\@writefile{nav}{\headcommand {\beamer@partpages {52}{53}}}
\@writefile{nav}{\headcommand {\beamer@subsectionpages {52}{53}}}
\@writefile{nav}{\headcommand {\beamer@sectionpages {52}{53}}}
\@writefile{nav}{\headcommand {\beamer@documentpages {53}}}
\@writefile{nav}{\headcommand {\def \inserttotalframenumber {49}}}
\providecommand\NAT@force@numbers{}\NAT@force@numbers
