\relax 
\catcode `"\active 
\catcode `<\active 
\catcode `>\active 
\@nameuse{es@quoting}
\select@language{spanish}
\@writefile{toc}{\select@language{spanish}}
\@writefile{lof}{\select@language{spanish}}
\@writefile{lot}{\select@language{spanish}}
\citation{markr1994}
\citation{elunai2011particulate}
\citation{materka1998}
\citation{aptulefe2011}
\citation{jvazquez2014}
\citation{aptoula2007comparative}
\citation{burger2009digital}
\citation{burger2009digital}
\citation{burger2009digital}
\citation{aptulefe2011}
\citation{angulo2002morphological}
\citation{angulo2002morphological}
\@writefile{toc}{\contentsline {section}{\numberline {0.1}Introducci\IeC {\'o}n}{1}}
\citation{materka1998}
\@writefile{toc}{\contentsline {section}{\numberline {0.2}Marco Te\IeC {\'o}rico}{2}}
\newlabel{sec:marcoteorico}{{0.2}{2}}
\citation{aptulefe2011}
\citation{materka1998}
\citation{horgan1998mathematical}
\citation{rao2012taxonomy}
\citation{raoperception1993}
\citation{rao2012taxonomy}
\citation{raoperception1993}
\citation{ojala2002outex}
\citation{ojala2002outex}
\citation{materka1998}
\citation{aptulefe2011}
\citation{ivanovicicolor}
\@writefile{toc}{\contentsline {subsection}{\numberline {0.2.1}Textura}{3}}
\@writefile{toc}{\contentsline {subsection}{\numberline {0.2.2}Caracterizaci\IeC {\'o}n y clasificaci\IeC {\'o}n de texturas}{3}}
\citation{angulo2002morphological}
\citation{zhang2002brief}
\citation{ivanovicicolor}
\citation{zhang2002brief}
\citation{aptulefe2011}
\citation{palm2004color}
\citation{van2005parallel}
\providecommand*\caption@xref[2]{\@setref\relax\@undefined{#1}}
\newlabel{fig:d20}{{1a}{4}}
\newlabel{sub@fig:d20}{{a}{4}}
\newlabel{fig:d15}{{1b}{4}}
\newlabel{sub@fig:d15}{{b}{4}}
\newlabel{fig:d61}{{1c}{4}}
\newlabel{sub@fig:d61}{{c}{4}}
\newlabel{fig:d92}{{1d}{4}}
\newlabel{sub@fig:d92}{{d}{4}}
\@writefile{lof}{\contentsline {figure}{\numberline {1}{\ignorespaces Ejemplos de tipos de textura seg\IeC {\'u}n Rao: (a) fuertemente ordenado, (b) d\IeC {\'e}bilmente ordenado, (c) desordenado, (d) composicional. Muestras de la base de datos Outex13 \cite  {ojala2002outex} \relax }}{4}}
\newlabel{fig:raotextures}{{1}{4}}
\citation{hanbury2005illumination}
\citation{batman1997size}
\citation{lefevre2009beyond}
\citation{tang1998automatic}
\citation{kotsiantis2007supervised}
\@writefile{lof}{\contentsline {figure}{\numberline {2}{\ignorespaces Diagrama general del problema de extracci\IeC {\'o}n de caracter\IeC {\'\i }sticas y clasificaci\IeC {\'o}n \relax }}{5}}
\newlabel{fig:extraccionyclasif}{{2}{5}}
\citation{matheron2002birth}
\citation{matheron1975random}
\citation{aptoula2007comparative}
\citation{aptoula2007comparative}
\@writefile{toc}{\contentsline {subsection}{\numberline {0.2.3}Matem\IeC {\'a}tica Morfol\IeC {\'o}gica en escala de grises y color }{6}}
\citation{chanussot1998approches}
\citation{goutsias1995morphological}
\citation{hardie1991ranking}
\citation{sartor2001morphological}
\citation{chanussot1997bit}
\citation{jvazquez2014}
\@writefile{toc}{\contentsline {subsubsection}{Ordenamiento Vectorial}{7}}
\citation{aptulefe2011}
\citation{lefevre2009beyond}
\citation{aptoula2007morphological}
\@writefile{toc}{\contentsline {section}{\numberline {0.3}Series Morfol\IeC {\'o}gicas}{8}}
\newlabel{sec:seriesmorf}{{0.3}{8}}
\citation{aptulefe2011}
\citation{batman1997size}
\citation{aptoula2007morphological}
\citation{matheron1975random}
\citation{vincent2000granulometries}
\citation{soille2013morphological}
\citation{serra1992overview}
\citation{matheron1975random}
\@writefile{toc}{\contentsline {subsection}{\numberline {0.3.1}Granulometr\IeC {\'\i }a }{9}}
\citation{matheron1975random}
\citation{maragos1989pattern}
\@writefile{lof}{\contentsline {figure}{\numberline {3}{\ignorespaces Serie de Morfol\IeC {\'o}gica basado en aperturas, granulometr\IeC {\'\i }a \relax }}{10}}
\newlabel{fig:seriesmorfologicas}{{3}{10}}
\@writefile{lof}{\contentsline {figure}{\numberline {4}{\ignorespaces Imagen "Coins" MATLAB demo image \relax }}{10}}
\newlabel{fig:granul_vol_original}{{4}{10}}
\@writefile{lof}{\contentsline {figure}{\numberline {5}{\ignorespaces Curva granulom\IeC {\'e}trica de la imagen "Coins" \relax }}{10}}
\newlabel{fig:granul_granulmoneda}{{5}{10}}
\@writefile{toc}{\contentsline {subsection}{\numberline {0.3.2}Covarianza Morfol\IeC {\'o}gica }{10}}
\citation{arvis2011generalization}
\citation{martinez2015alternative}
\@writefile{toc}{\contentsline {subsection}{\numberline {0.3.3}Series Morfol\IeC {\'o}gicas en im\IeC {\'a}genes a color}{11}}
\@writefile{toc}{\contentsline {section}{\numberline {0.4}Propuesta}{11}}
\newlabel{sec:propuesta}{{0.4}{11}}
\citation{angulo2002morphological}
\citation{lefevre2009beyond}
\@writefile{lof}{\contentsline {figure}{\numberline {6}{\ignorespaces  Muestra 000082 OutexTC13\relax }}{12}}
\newlabel{fig:muestratext}{{6}{12}}
\citation{akhloufi2007frameworkfeaturesdist}
\@writefile{lof}{\contentsline {figure}{\numberline {7}{\ignorespaces  Curva granulom\IeC {\'e}trica normalizada de la muestra de 000082, utilizando ordenaci\IeC {\'o}n por norma eucl\IeC {\'\i }dea\relax }}{13}}
\newlabel{fig:prop_norm}{{7}{13}}
\@writefile{lof}{\contentsline {figure}{\numberline {8}{\ignorespaces  Curva Granulom\IeC {\'e}trica de la muestra de 000082, volumen sin normalizar utilizando ordenaci\IeC {\'o}n por norma eucl\IeC {\'\i }dea \relax }}{13}}
\newlabel{fig:prop_NOnorm}{{8}{13}}
\@writefile{toc}{\contentsline {subsection}{\numberline {0.4.1}Distancias Intercanales}{13}}
\citation{ojala2002outex}
\citation{ayaladomingode2006selecting}
\citation{jvazquez2014}
\citation{jvazquez2014}
\@writefile{toc}{\contentsline {subsection}{\numberline {0.4.2}Raz\IeC {\'o}n Geom\IeC {\'e}trica Intercanal}{15}}
\@writefile{toc}{\contentsline {section}{\numberline {0.5}Resultados Experimentales}{15}}
\newlabel{sec:resultadosexperi}{{0.5}{15}}
\@writefile{toc}{\contentsline {subsection}{\numberline {0.5.1}Experimento 1}{15}}
\citation{aptoula2007comparative}
\citation{aptulefe2011}
\citation{aptulefe2011}
\citation{ayaladomingode2006selecting}
\newlabel{exper_ordenaciones}{{\caption@xref {exper_ordenaciones}{ on input line 504}}{17}}
\citation{aptulefe2011}
\@writefile{toc}{\contentsline {subsection}{\numberline {0.5.2}Experimento 2}{18}}
\@writefile{lot}{\contentsline {table}{\numberline {1}{\ignorespaces Prueba de medidas de evaluaci\IeC {\'o}n \relax }}{18}}
\newlabel{}{{1}{18}}
\@writefile{lot}{\contentsline {table}{\numberline {2}{\ignorespaces Clasificaci\IeC {\'o}n con Norma Eucl\IeC {\'\i }dea $\left \delimiter "026B30D v \right \delimiter "026B30D $ \relax }}{19}}
\newlabel{}{{2}{19}}
\@writefile{lot}{\contentsline {table}{\numberline {3}{\ignorespaces Clasificaci\IeC {\'o}n con Ordenamiento $\mathrm  {HST_{2}} $\relax }}{19}}
\newlabel{}{{3}{19}}
\@writefile{lot}{\contentsline {table}{\numberline {4}{\ignorespaces Concatenaci\IeC {\'o}n de medidas, Ordenamiento $\mathrm  {HST_{2}} $ \relax }}{19}}
\newlabel{}{{4}{19}}
\@writefile{lot}{\contentsline {table}{\numberline {5}{\ignorespaces Clasificaci\IeC {\'o}n con Procesamiento Marginal\relax }}{20}}
\newlabel{}{{5}{20}}
\@writefile{lot}{\contentsline {table}{\numberline {6}{\ignorespaces Concatenaci\IeC {\'o}n de medidas, Procesamiento Marginal\relax }}{20}}
\newlabel{}{{6}{20}}
\@writefile{toc}{\contentsline {section}{\numberline {0.6}Conclusiones y trabajos futuros}{20}}
\newlabel{sec:conclusiones}{{0.6}{20}}
\bibstyle{ieeetr}
\bibdata{../referencias/primary,../referencias/second,../referencias/colorord}
\bibcite{markr1994}{1}
\bibcite{elunai2011particulate}{2}
\bibcite{materka1998}{3}
\bibcite{aptulefe2011}{4}
\bibcite{jvazquez2014}{5}
\bibcite{aptoula2007comparative}{6}
\bibcite{burger2009digital}{7}
\bibcite{angulo2002morphological}{8}
\bibcite{horgan1998mathematical}{9}
\bibcite{rao2012taxonomy}{10}
\bibcite{raoperception1993}{11}
\bibcite{ojala2002outex}{12}
\bibcite{ivanovicicolor}{13}
\bibcite{zhang2002brief}{14}
\bibcite{palm2004color}{15}
\bibcite{van2005parallel}{16}
\bibcite{hanbury2005illumination}{17}
\bibcite{batman1997size}{18}
\bibcite{lefevre2009beyond}{19}
\bibcite{tang1998automatic}{20}
\bibcite{kotsiantis2007supervised}{21}
\bibcite{matheron2002birth}{22}
\bibcite{matheron1975random}{23}
\bibcite{chanussot1998approches}{24}
\bibcite{goutsias1995morphological}{25}
\bibcite{hardie1991ranking}{26}
\bibcite{sartor2001morphological}{27}
\bibcite{chanussot1997bit}{28}
\bibcite{aptoula2007morphological}{29}
\bibcite{vincent2000granulometries}{30}
\bibcite{soille2013morphological}{31}
\bibcite{serra1992overview}{32}
\bibcite{maragos1989pattern}{33}
\bibcite{arvis2011generalization}{34}
\bibcite{martinez2015alternative}{35}
\bibcite{akhloufi2007frameworkfeaturesdist}{36}
\bibcite{ayaladomingode2006selecting}{37}
