\relax 
\catcode `"\active 
\catcode `<\active 
\catcode `>\active 
\@nameuse{es@quoting}
\citation{markr1994}
\citation{elunai2011particulate}
\citation{materka1998}
\citation{aptulefe2011}
\citation{aptoula2007morphological,lefevre2009beyond}
\citation{aptoula2007comparative}
\select@language{spanish}
\@writefile{toc}{\select@language{spanish}}
\@writefile{lof}{\select@language{spanish}}
\@writefile{lot}{\select@language{spanish}}
\@writefile{toc}{\contentsline {section}{\numberline {1}Introducti\IeC {\'o}n}{1}}
\newlabel{intro}{{1}{1}}
\citation{burger2009digital}
\citation{burger2009digital}
\citation{burger2009digital}
\citation{aptulefe2011,angulo2002morphological}
\citation{angulo2002morphological}
\citation{materka1998}
\citation{aptulefe2011}
\citation{materka1998}
\citation{horgan1998mathematical}
\@writefile{toc}{\contentsline {section}{\numberline {2}Marco Te\IeC {\'o}rico}{2}}
\newlabel{sec:marcoteorico}{{2}{2}}
\@writefile{toc}{\contentsline {subsection}{\numberline {2.1}Im\IeC {\'a}genes a color}{2}}
\@writefile{toc}{\contentsline {subsubsection}{\numberline {2.1.1}Histograma de un canal}{2}}
\newlabel{eq:histograma}{{1}{2}}
\@writefile{toc}{\contentsline {subsection}{\numberline {2.2}Textura}{2}}
\citation{rao2012taxonomy}
\citation{raoperception1993,rao2012taxonomy}
\citation{raoperception1993}
\citation{ojala2002outex}
\citation{ojala2002outex}
\citation{materka1998}
\citation{aptulefe2011}
\citation{ivanovicicolor}
\citation{angulo2002morphological}
\citation{zhang2002brief,ivanovicicolor,materka1998}
\citation{zhang2002brief,ivanovicicolor}
\citation{zhang2002brief,aptulefe2011}
\citation{palm2004color,van2005parallel}
\citation{hanbury2005illumination}
\citation{batman1997size}
\citation{lefevre2009beyond}
\@writefile{toc}{\contentsline {subsection}{\numberline {2.3}Caracterizaci\IeC {\'o}n y clasificaci\IeC {\'o}n de texturas}{3}}
\providecommand*\caption@xref[2]{\@setref\relax\@undefined{#1}}
\newlabel{fig:d20}{{1a}{3}}
\newlabel{sub@fig:d20}{{a}{3}}
\newlabel{fig:d15}{{1b}{3}}
\newlabel{sub@fig:d15}{{b}{3}}
\newlabel{fig:d61}{{1c}{3}}
\newlabel{sub@fig:d61}{{c}{3}}
\newlabel{fig:d92}{{1d}{3}}
\newlabel{sub@fig:d92}{{d}{3}}
\@writefile{lof}{\contentsline {figure}{\numberline {1}{\ignorespaces Ejemplos de tipos de textura seg\IeC {\'u}n Rao: (a) fuertemente ordenado, (b) d\IeC {\'e}bilmente ordenado, (c) desordenado, (d) composicional. Muestras de la base de datos Outex13 \cite  {ojala2002outex}. \relax }}{3}}
\newlabel{fig:raotextures}{{1}{3}}
\citation{tang1998automatic}
\citation{kotsiantis2007supervised}
\citation{matheron2002birth,matheron1975random}
\citation{aptoula2007comparative}
\citation{aptoula2007comparative}
\@writefile{lof}{\contentsline {figure}{\numberline {2}{\ignorespaces Diagrama general del problema de extracci\IeC {\'o}n de caracter\IeC {\'\i }sticas y clasificaci\IeC {\'o}n \relax }}{4}}
\newlabel{fig:extraccionyclasif}{{2}{4}}
\@writefile{toc}{\contentsline {subsection}{\numberline {2.4}Morfolog\IeC {\'\i }a Matem\IeC {\'a}tica en escala de grises y color }{4}}
\newlabel{eq:erosionf}{{3}{4}}
\newlabel{eq:dilatacionf}{{4}{4}}
\newlabel{eq:aperturaf}{{5}{4}}
\newlabel{eq:cierref}{{6}{4}}
\citation{barnett1976ordering}
\citation{aptoula2007comparative,aptulefe2011}
\citation{goutsias1995morphological}
\citation{hardie1991ranking}
\citation{sartor2001morphological}
\citation{chanussot1997bit}
\citation{jvazquez2014}
\@writefile{toc}{\contentsline {subsubsection}{\numberline {2.4.1}Ordenamiento Vectorial}{5}}
\newlabel{sssec:ordenamientovectorial}{{2.4.1}{5}}
\citation{aptulefe2011,lefevre2009beyond}
\citation{aptoula2007morphological}
\citation{aptulefe2011}
\citation{matheron1975random}
\citation{vincent2000granulometries,soille2013morphological}
\citation{serra1992overview}
\newlabel{eq:metodoprofe}{{8}{6}}
\newlabel{eq:metodoprofefinal}{{9}{6}}
\@writefile{toc}{\contentsline {section}{\numberline {3}Series Morfol\IeC {\'o}gicas }{6}}
\newlabel{sec:seriesmorf}{{3}{6}}
\@writefile{toc}{\contentsline {subsection}{\numberline {3.1}Series Morfol\IeC {\'o}gicas en escala grises}{6}}
\@writefile{toc}{\contentsline {subsection}{\numberline {3.2}Granulometr\IeC {\'\i }a }{6}}
\newlabel{subsec_granulometrica}{{3.2}{6}}
\citation{aptoula2007morphological}
\citation{matheron1975random}
\citation{batman1997size}
\citation{matheron1975random,maragos1989pattern}
\citation{aptoula2007morphological}
\citation{lefevre2009beyond}
\@writefile{lof}{\contentsline {figure}{\numberline {3}{\ignorespaces Serie de Morfol\IeC {\'o}gica basada en aperturas con $n+1$ elementos \relax }}{7}}
\newlabel{fig:seriesmorfologicas}{{3}{7}}
\newlabel{eq:seriegranul}{{11}{7}}
\newlabel{eq:granul_gris}{{12}{7}}
\newlabel{eq:volumen}{{13}{7}}
\@writefile{toc}{\contentsline {subsection}{\numberline {3.3}Covarianza Morfol\IeC {\'o}gica }{7}}
\newlabel{eq:covmorf_gris}{{15}{7}}
\@writefile{toc}{\contentsline {subsection}{\numberline {3.4} Series Morfol\IeC {\'o}gicas extendidas a color }{7}}
\newlabel{fig:elementosestruc_1}{{4a}{8}}
\newlabel{sub@fig:elementosestruc_1}{{a}{8}}
\newlabel{fig:elementosestruc_2}{{4b}{8}}
\newlabel{sub@fig:elementosestruc_2}{{b}{8}}
\@writefile{lof}{\contentsline {figure}{\numberline {4}{\ignorespaces Elementos estructurantes utilizados en (a) la granulometr\IeC {\'\i }a , (b) la covarianza morfol\IeC {\'o}gica. \relax }}{8}}
\newlabel{fig:elementosestruc}{{4}{8}}
\newlabel{eq:seriemorfomarginal}{{17}{8}}
\newlabel{eq:covarcolor}{{18}{8}}
\newlabel{eq:granulcolor}{{19}{8}}
\@writefile{lof}{\contentsline {figure}{\numberline {5}{\ignorespaces Serie de aperturas $\gamma $ de la muestra 000242 de Outex13, usando el ordenamiento por Norma-Eucl\IeC {\'\i }dea, con un elemento estructurante de forma cuadrada de lado $\lambda $ variando en pasos de 2.\relax }}{9}}
\newlabel{fig:ejemp_granul_000242}{{5}{9}}
\@writefile{loa}{\contentsline {algorithm}{\numberline {1}{\ignorespaces Granulometr\IeC {\'\i }a en escala de grises\relax }}{9}}
\newlabel{alg:granulgris_pseudo}{{1}{9}}
\@writefile{toc}{\contentsline {section}{\numberline {4}Medidas de evaluaci\IeC {\'o}n}{9}}
\newlabel{sec:medida_eval}{{4}{9}}
\newlabel{fig:a0d1}{{6a}{9}}
\newlabel{sub@fig:a0d1}{{a}{9}}
\newlabel{fig:a0d5}{{6b}{9}}
\newlabel{sub@fig:a0d5}{{b}{9}}
\newlabel{fig:a0d9}{{6c}{9}}
\newlabel{sub@fig:a0d9}{{c}{9}}
\newlabel{fig:a0d13}{{6d}{9}}
\newlabel{sub@fig:a0d13}{{d}{9}}
\newlabel{fig:a45d1}{{6e}{9}}
\newlabel{sub@fig:a45d1}{{e}{9}}
\newlabel{fig:a45d5}{{6f}{9}}
\newlabel{sub@fig:a45d5}{{f}{9}}
\newlabel{fig:a45d9}{{6g}{9}}
\newlabel{sub@fig:a45d9}{{g}{9}}
\newlabel{fig:a45d13}{{6h}{9}}
\newlabel{sub@fig:a45d13}{{h}{9}}
\newlabel{fig:a90d1}{{6i}{9}}
\newlabel{sub@fig:a90d1}{{i}{9}}
\newlabel{fig:a90d5}{{6j}{9}}
\newlabel{sub@fig:a90d5}{{j}{9}}
\newlabel{fig:a90d9}{{6k}{9}}
\newlabel{sub@fig:a90d9}{{k}{9}}
\newlabel{fig:a90d13}{{6l}{9}}
\newlabel{sub@fig:a90d13}{{l}{9}}
\newlabel{fig:a135d1}{{6m}{9}}
\newlabel{sub@fig:a135d1}{{m}{9}}
\newlabel{fig:a135d5}{{6n}{9}}
\newlabel{sub@fig:a135d5}{{n}{9}}
\newlabel{fig:a135d9}{{6\~n}{9}}
\newlabel{sub@fig:a135d9}{{\~n}{9}}
\newlabel{fig:a135d13}{{6o}{9}}
\newlabel{sub@fig:a135d13}{{o}{9}}
\@writefile{lof}{\contentsline {figure}{\numberline {6}{\ignorespaces Serie de covarianza morfol\IeC {\'o}gica a color de la muestra 000242 de OutexTC13\relax }}{9}}
\newlabel{fig:ejemp_cov_000242}{{6}{9}}
\citation{astoladougherty1999nonlinear}
\citation{aptulefe2011}
\citation{ivanovicicolor}
\@writefile{lof}{\contentsline {figure}{\numberline {7}{\ignorespaces  Granulometr\IeC {\'\i }a de la muestra 000242 \relax }}{10}}
\newlabel{fig:000242_granul}{{7}{10}}
\@writefile{lof}{\contentsline {figure}{\numberline {8}{\ignorespaces  Covarianza Morfol\IeC {\'o}gica de la muestra 000242 \relax }}{10}}
\newlabel{fig:000242_covar}{{8}{10}}
\@writefile{loa}{\contentsline {algorithm}{\numberline {2}{\ignorespaces  Covarianza Morfol\IeC {\'o}gica en escala de grises\relax }}{10}}
\newlabel{alg:covmgris_pseudo}{{2}{10}}
\newlabel{eq:varianza}{{20}{10}}
\newlabel{eq:energia}{{21}{10}}
\newlabel{eq:entropia}{{22}{10}}
\newlabel{eq:hipervolumen}{{23}{10}}
\citation{angulo2002morphological,lefevre2009beyond}
\citation{arvis2011generalization,martinez2015alternative}
\citation{arvis2011generalization,presutti2004matriz}
\citation{presutti2004matriz}
\citation{akhloufi2007frameworkfeaturesdist}
\@writefile{toc}{\contentsline {section}{\numberline {5}Propuesta}{11}}
\newlabel{sec:propuesta}{{5}{11}}
\newlabel{fig:000242_granNN_RGB}{{9a}{11}}
\newlabel{sub@fig:000242_granNN_RGB}{{a}{11}}
\newlabel{fig:000242_covNN_RGB}{{9b}{11}}
\newlabel{sub@fig:000242_covNN_RGB}{{b}{11}}
\@writefile{lof}{\contentsline {figure}{\numberline {9}{\ignorespaces (a) Granulometr\IeC {\'\i }a (b) covarianza morfol\IeC {\'o}gica de la muestra 000242\relax }}{11}}
\@writefile{lof}{\contentsline {figure}{\numberline {10}{\ignorespaces Canales $Q_1$,$Q_2$,$Q_3$ de la imagen de salida luego de aplicar el filtro morfol\IeC {\'o}gico $\psi $ a una imagen \ensuremath  {\mathchoice {\unhbox \voidb@x \hbox {\relax \mathversion  {bold}$\displaystyle \mathbf  {f}$}} {\unhbox \voidb@x \hbox {\relax \mathversion  {bold}$\textstyle \mathbf  {f}$}} {\unhbox \voidb@x \hbox {\relax \mathversion  {bold}$\scriptstyle \mathbf  {f}$}} {\unhbox \voidb@x \hbox {\relax \mathversion  {bold}$\scriptscriptstyle \mathbf  {f}$}}}.\relax }}{11}}
\newlabel{fig:propuestaQs}{{10}{11}}
\@writefile{toc}{\contentsline {subsection}{\numberline {5.1}Distancias Intercanales}{11}}
\citation{van2010evaluating}
\newlabel{eq:distintercanal_1}{{28}{12}}
\newlabel{eq:distintercanal_2}{{29}{12}}
\newlabel{eq:volumen_distinter}{{31}{12}}
\@writefile{toc}{\contentsline {subsection}{\numberline {5.2}Proporci\IeC {\'o}n Intercanal}{12}}
\newlabel{eq:volumen_proporcion}{{33}{12}}
\@writefile{toc}{\contentsline {subsection}{\numberline {5.3}Volumen-RG}{12}}
\newlabel{eq:histrb}{{34}{12}}
\citation{ojala2002outex}
\citation{palm2004color}
\newlabel{volumenrg_1}{{35}{13}}
\newlabel{volumenrg_2}{{36}{13}}
\newlabel{volumenrg_3}{{37}{13}}
\newlabel{eq:volumen_volrb}{{38}{13}}
\@writefile{toc}{\contentsline {section}{\numberline {6}Resultados Experimentales}{13}}
\newlabel{sec:resultadosexperi}{{6}{13}}
\@writefile{toc}{\contentsline {subsection}{\numberline {6.1}Experimento 1}{13}}
\@writefile{lof}{\contentsline {figure}{\numberline {11}{\ignorespaces  Las 68 clases de textura de OutexTC13\relax }}{13}}
\newlabel{fig:outex13muestra}{{11}{13}}
\citation{ayaladomingode2006selecting}
\citation{hanbury2005illumination}
\citation{aptoula2007comparative}
\citation{aptoula2007comparative,aptulefe2011}
\@writefile{lot}{\contentsline {table}{\numberline {1}{\ignorespaces  Resultados de clasificaci\IeC {\'o}n por M\IeC {\'e}todos de Ordenamiento\relax }}{14}}
\newlabel{tab:experiment1_t1}{{1}{14}}
\newlabel{exper_ordenaciones}{{1}{14}}
\@writefile{lot}{\contentsline {table}{\numberline {2}{\ignorespaces Resultados de clasificaci\IeC {\'o}n por Medidas de Evaluaci\IeC {\'o}n. Ordenamiento por Norma \relax }}{15}}
\newlabel{tab:exp2_euclid}{{2}{15}}
\@writefile{toc}{\contentsline {subsection}{\numberline {6.2}Experimento 2}{15}}
\@writefile{lot}{\contentsline {table}{\numberline {4}{\ignorespaces Resultados de clasificaci\IeC {\'o}n por Medidas de Evaluaci\IeC {\'o}n. Procesamiento Marginal\relax }}{15}}
\newlabel{tab:exp2_tablamarginal}{{4}{15}}
\@writefile{lot}{\contentsline {table}{\numberline {3}{\ignorespaces Resultados de clasificaci\IeC {\'o}n por Medidas de Evaluaci\IeC {\'o}n. Ordenamiento $\mathrm  {HT_{2}}$ Entrop\IeC {\'\i }a \relax }}{15}}
\newlabel{tab:exp2_tablaHST}{{3}{15}}
\citation{finlayson2005illuminant}
\@writefile{toc}{\contentsline {subsection}{\numberline {6.3}Experimento 3}{16}}
\newlabel{fig:000002_inca}{{12a}{16}}
\newlabel{sub@fig:000002_inca}{{a}{16}}
\newlabel{fig:000002_inca_EQ}{{12b}{16}}
\newlabel{sub@fig:000002_inca_EQ}{{b}{16}}
\@writefile{lof}{\contentsline {figure}{\numberline {12}{\ignorespaces Superficie de textura bajo diferentes fuentes de iluminaci\IeC {\'o}n y sus respectivos pre-procesamientos por ecualizaci\IeC {\'o}n \relax }}{16}}
\newlabel{fig:invarianzailum_muestra}{{12}{16}}
\@writefile{lot}{\contentsline {table}{\numberline {5}{\ignorespaces Resultados de clasificaci\IeC {\'o}n OutexTC14. Ordenamiento por Norma \relax }}{16}}
\newlabel{exper3_outex14}{{5}{16}}
\citation{jvazquez2014}
\bibstyle{spbasic}
\bibdata{../../referencias/primary,../../referencias/second,../../referencias/colorord}
\bibcite{materka1998}{{1}{1998}{{A.~Materka}}{{}}}
\bibcite{akhloufi2007frameworkfeaturesdist}{{2}{2007}{{Akhloufi et~al}}{{Akhloufi, Larbi, and Maldague}}}
\@writefile{lof}{\contentsline {figure}{\numberline {13}{\ignorespaces Curvas de granulometr\IeC {\'\i }a sin normalizar de \ref  {fig:000002_inca} y \ref  {fig:000002_inca_EQ} con ordenamiento norma-eucl\IeC {\'\i }dea, $\lambda =15$ pasos de 2 \relax }}{17}}
\newlabel{fig:outex14_curvagranul}{{13}{17}}
\@writefile{toc}{\contentsline {section}{\numberline {7}Conclusiones y trabajos futuros}{17}}
\newlabel{sec:conclusiones}{{7}{17}}
\bibcite{angulo2002morphological}{{3}{2002}{{Angulo and Serra}}{{}}}
\bibcite{aptoula2007comparative}{{4}{2007}{{Aptoula and Lefevre}}{{}}}
\bibcite{aptoula2007morphological}{{5}{2007}{{Aptoula and Lef{\`e}vre}}{{}}}
\bibcite{arvis2011generalization}{{6}{2011}{{Arvis et~al}}{{Arvis, Debain, Berducat, and Benassi}}}
\bibcite{barnett1976ordering}{{7}{1976}{{Barnett}}{{}}}
\bibcite{batman1997size}{{8}{1997}{{Batman and Dougherty}}{{}}}
\bibcite{burger2009digital}{{9}{2009}{{Burger and Burge}}{{}}}
\bibcite{chanussot1997bit}{{10}{1997}{{Chanussot and Lambert}}{{}}}
\bibcite{astoladougherty1999nonlinear}{{11}{1999}{{Dougherty and Astola}}{{}}}
\bibcite{elunai2011particulate}{{12}{2011}{{Elunai}}{{}}}
\bibcite{aptulefe2011}{{13}{2011}{{Erchan~Aptoula}}{{}}}
\bibcite{finlayson2005illuminant}{{14}{2005}{{Finlayson et~al}}{{Finlayson, Hordley, Schaefer, and Tian}}}
\bibcite{goutsias1995morphological}{{15}{1995}{{Goutsias et~al}}{{Goutsias, Heijmans, and Sivakumar}}}
\bibcite{hanbury2005illumination}{{16}{2005}{{Hanbury et~al}}{{Hanbury, Kandaswamy, and Adjeroh}}}
\bibcite{hardie1991ranking}{{17}{1991}{{Hardie and Arce}}{{}}}
\bibcite{horgan1998mathematical}{{18}{1998}{{Horgan}}{{}}}
\bibcite{ivanovicicolor}{{19}{2015}{{Ivanovici}}{{}}}
\bibcite{kotsiantis2007supervised}{{20}{2007}{{Kotsiantis et~al}}{{Kotsiantis, Zaharakis, and Pintelas}}}
\bibcite{lefevre2009beyond}{{21}{2009}{{Lef{\`e}vre}}{{}}}
\bibcite{raoperception1993}{{22}{1993}{{Lohse}}{{}}}
\bibcite{maragos1989pattern}{{23}{1989}{{Maragos}}{{}}}
\bibcite{martinez2015alternative}{{24}{2015}{{Mart{\'\i }nez et~al}}{{Mart{\'\i }nez, Richard, and Fernandez}}}
\bibcite{matheron1975random}{{25}{1975}{{Matheron}}{{}}}
\bibcite{matheron2002birth}{{26}{1}{{Matheron and Serra}}{{}}}
\bibcite{ojala2002outex}{{27}{2002}{{Ojala et~al}}{{Ojala, M{\"a}enp{\"a}{\"a}, Pietikainen, Viertola, Kyll{\"o}nen, and Huovinen}}}
\bibcite{palm2004color}{{28}{2004}{{Palm}}{{}}}
\bibcite{presutti2004matriz}{{29}{1}{{Presutti}}{{}}}
\bibcite{rao2012taxonomy}{{30}{2012}{{Rao}}{{}}}
\bibcite{markr1994}{{31}{1994}{{Rzadca}}{{}}}
\bibcite{sartor2001morphological}{{32}{2001}{{Sartor and Weeks}}{{}}}
\bibcite{serra1992overview}{{33}{1992}{{Serra and Vincent}}{{}}}
\bibcite{soille2013morphological}{{34}{2013}{{Soille}}{{}}}
\bibcite{tang1998automatic}{{35}{1998}{{Tang et~al}}{{Tang, Stewart, Vincent, Huang, Marra, Gallager, and Davis}}}
\bibcite{van2010evaluating}{{36}{2010}{{Van De~Sande et~al}}{{Van De~Sande, Gevers, and Snoek}}}
\bibcite{van2005parallel}{{37}{2005}{{Van Den~Broek and Van~Rikxoort}}{{}}}
\bibcite{jvazquez2014}{{38}{2014}{{Vazquez~Noguera et~al}}{{Vazquez~Noguera, Legal~Ayala, Schaerer, and Facon}}}
\bibcite{ayaladomingode2006selecting}{{39}{2006}{{de~Ves et~al}}{{de~Ves, Benavent, Ayala, and Domingo}}}
\bibcite{vincent2000granulometries}{{40}{2000}{{Vincent}}{{}}}
\bibcite{zhang2002brief}{{41}{2002}{{Zhang and Tan}}{{}}}
