\relax 
\providecommand\hyper@newdestlabel[2]{}
\FN@pp@footnotehinttrue 
\FN@pp@footnotehinttrue 
\@writefile{toc}{\contentsline {chapter}{Ap\IeC {\'e}ndice C}{51}{appendix*.29}}
\@writefile{lof}{\addvspace {10\p@ }}
\@writefile{lot}{\addvspace {10\p@ }}
\@writefile{toc}{\contentsline {section}{\numberline {A.3}Pruebas de segmentaci\IeC {\'o}n}{51}{section.Alph0.3}}
\@writefile{lof}{\contentsline {figure}{\numberline {2}{\ignorespaces Muestra 164074 de Berkeley Segmentation Dataset \relax }}{51}{figure.caption.30}}
\newlabel{fig:segment1}{{2}{51}{Muestra 164074 de Berkeley Segmentation Dataset \relax }{figure.caption.30}{}}
\@writefile{lof}{\contentsline {figure}{\numberline {3}{\ignorespaces Segmentaci\IeC {\'o}n con informaci\IeC {\'o}n de color\relax }}{52}{figure.caption.31}}
\newlabel{fig:segment_color}{{3}{52}{Segmentación con información de color\relax }{figure.caption.31}{}}
\@writefile{lof}{\contentsline {figure}{\numberline {4}{\ignorespaces Segmentaci\IeC {\'o}n con informaci\IeC {\'o}n de textura: Granulometr\IeC {\'\i }a y Covarianza Morfol\IeC {\'o}gica\relax }}{52}{figure.caption.32}}
\newlabel{fig:segment_texture}{{4}{52}{Segmentación con información de textura: Granulometría y Covarianza Morfológica\relax }{figure.caption.32}{}}
\FN@pp@footnotehinttrue 
\@setckpt{Appendix3/appendix3}{
\setcounter{page}{53}
\setcounter{equation}{3}
\setcounter{enumi}{2}
\setcounter{enumii}{0}
\setcounter{enumiii}{0}
\setcounter{enumiv}{0}
\setcounter{footnote}{0}
\setcounter{mpfootnote}{0}
\setcounter{part}{0}
\setcounter{chapter}{0}
\setcounter{section}{3}
\setcounter{subsection}{0}
\setcounter{subsubsection}{0}
\setcounter{paragraph}{0}
\setcounter{subparagraph}{0}
\setcounter{figure}{4}
\setcounter{table}{0}
\setcounter{pp@next@reset}{1}
\setcounter{@fnserial}{0}
\setcounter{NAT@ctr}{0}
\setcounter{FancyVerbLine}{70}
\setcounter{Item}{2}
\setcounter{Hfootnote}{0}
\setcounter{bookmark@seq@number}{41}
\setcounter{ContinuedFloat}{0}
\setcounter{subfigure}{2}
\setcounter{subtable}{0}
\setcounter{dblbotnumber}{2}
\setcounter{float@type}{8}
\setcounter{parentequation}{0}
\setcounter{su@anzahl}{0}
\setcounter{LT@tables}{0}
\setcounter{LT@chunks}{0}
\setcounter{algorithm}{2}
\setcounter{ALG@line}{11}
\setcounter{ALG@rem}{0}
\setcounter{ALG@nested}{0}
\setcounter{ALG@Lnr}{2}
\setcounter{ALG@blocknr}{10}
\setcounter{ALG@storecount}{0}
\setcounter{ALG@tmpcounter}{0}
\setcounter{section@level}{1}
}
