\relax 
\bibstyle{acm}
\citation{aptulefe2011}
\citation{materka1998}
\citation{ivanovicicolor}
\citation{markr1994}
\citation{tamura1978textural}
\@writefile{toc}{\contentsline {chapter}{\numberline {1}Marco Te\IeC {\'o}rico}{1}}
\@writefile{lof}{\addvspace {10\p@ }}
\@writefile{lot}{\addvspace {10\p@ }}
\newlabel{chap:marcoteorico}{{1}{1}}
\@writefile{toc}{\contentsline {section}{\numberline {1.1}Textura}{1}}
\citation{ivanovicicolor}
\providecommand*\caption@xref[2]{\@setref\relax\@undefined{#1}}
\newlabel{fig:gull}{{1.1a}{2}}
\newlabel{sub@fig:gull}{{a}{2}}
\newlabel{fig:tiger}{{1.1b}{2}}
\newlabel{sub@fig:tiger}{{b}{2}}
\newlabel{fig:mouse}{{1.1c}{2}}
\newlabel{sub@fig:mouse}{{c}{2}}
\newlabel{fig:mouse}{{1.1d}{2}}
\newlabel{sub@fig:mouse}{{d}{2}}
\@writefile{lof}{\contentsline {figure}{\numberline {1.1}{\ignorespaces Tipos de textura seg\IeC {\'u}n Rao\relax }}{2}}
\newlabel{fig:textureclasif1}{{1.1}{2}}
\citation{ivanovicicolor}
\citation{ivanovicicolor}
\citation{materka1998}
\citation{aptulefe2011}
\citation{ivanovicicolor}
\newlabel{fig:gull}{{1.2a}{3}}
\newlabel{sub@fig:gull}{{a}{3}}
\newlabel{fig:tiger}{{1.2b}{3}}
\newlabel{sub@fig:tiger}{{b}{3}}
\newlabel{fig:mouse}{{1.2c}{3}}
\newlabel{sub@fig:mouse}{{c}{3}}
\@writefile{lof}{\contentsline {figure}{\numberline {1.2}{\ignorespaces Tipos de textura seg\IeC {\'u}n \cite  {ivanovicicolor} \relax }}{3}}
\newlabel{fig:textureclasif2}{{1.2}{3}}
\@writefile{toc}{\contentsline {section}{\numberline {1.2}An\IeC {\'a}lisis de textura}{3}}
\citation{aptulefe2011}
\citation{zhang2002brief}
\citation{materka1998}
\citation{ivanovicicolor}
\citation{ivanovicicolor}
\citation{zhang2002brief}
\citation{aptulefe2011}
\citation{zhang2002brief}
\@writefile{toc}{\contentsline {subsection}{\numberline {1.2.1}Enfoques para el An\IeC {\'a}lisis de Textura}{4}}
\citation{angulo2002morphological}
\citation{matheron1975random}
\citation{matheron2002birth}
\citation{soille2013morphological}
\@writefile{toc}{\contentsline {section}{\numberline {1.3}Clasificaci\IeC {\'o}n y caracterizaci\IeC {\'o}n de textura}{5}}
\@writefile{toc}{\contentsline {section}{\numberline {1.4}Matem\IeC {\'a}tica Morfol\IeC {\'o}gica}{5}}
\@writefile{lof}{\contentsline {figure}{\numberline {1.3}{\ignorespaces Diagrama del problema de extracci\IeC {\'o}n de caracter\IeC {\'\i }sticas y clasificaci\IeC {\'o}n \relax }}{6}}
\newlabel{fig:extraccionyclasif}{{1.3}{6}}
\@writefile{toc}{\contentsline {subsection}{\numberline {1.4.1}Nociones B\IeC {\'a}sicas}{6}}
\@writefile{toc}{\contentsline {subsection}{\numberline {1.4.2}Ret\IeC {\'\i }culo Completo, Ordenamiento e Inclusi\IeC {\'o}n}{6}}
\@writefile{toc}{\contentsline {subsection}{\numberline {1.4.3}Operadores morfol\IeC {\'o}gicos}{7}}
\citation{aptulefe2011}
\citation{tang1998automatic}
\newlabel{fig:morf_erosion_dilatacion}{{\caption@xref {fig:morf_erosion_dilatacion}{ on input line 127}}{9}}
\@writefile{lof}{\contentsline {figure}{\numberline {1.4}{\ignorespaces Erosi\IeC {\'o}n y dilataci\IeC {\'o}n de la muestra 000734 de OutexTC13 \relax }}{9}}
\@writefile{toc}{\contentsline {section}{\numberline {1.5}Enfoque morfol\IeC {\'o}gico en la caracterizaci\IeC {\'o}n de textura}{9}}
\citation{ivanovicicolor}
\newlabel{fig:morf_apertura_cierre}{{\caption@xref {fig:morf_apertura_cierre}{ on input line 168}}{10}}
\@writefile{lof}{\contentsline {figure}{\numberline {1.5}{\ignorespaces Apertura y Cierre de la muestra de textura 000734 de la base de datos OutexTC13 \relax }}{10}}
\citation{matheron1975random}
\citation{vincent2000granulometries}
\citation{soille2013morphological}
\citation{serra1992overview}
\@writefile{toc}{\contentsline {subsection}{\numberline {1.5.1}Series morfol\IeC {\'o}gicas}{11}}
\@writefile{lot}{\contentsline {table}{\numberline {1.1}{\ignorespaces Principales herramientas morfol\IeC {\'o}gicas\relax }}{11}}
\@writefile{toc}{\contentsline {subsection}{\numberline {1.5.2}Distribuciones de tama\IeC {\~n}o Granulometr\IeC {\'\i }a y Patr\IeC {\'o}n espectro }{11}}
\citation{maragos1989pattern}
\citation{serra1992overview}
\citation{maragos1989pattern}
\citation{soille2013morphological}
\@writefile{toc}{\contentsline {subsection}{\numberline {1.5.3}Distribuciones de orientaci\IeC {\'o}n- Covarianza morfol\IeC {\'o}gica}{13}}
\newlabel{fig:granul_granulmoneda}{{1.6a}{14}}
\newlabel{sub@fig:granul_granulmoneda}{{a}{14}}
\newlabel{fig:granul_patronmoneda}{{1.6b}{14}}
\newlabel{sub@fig:granul_patronmoneda}{{b}{14}}
\newlabel{fig:granul_patronmoneda}{{1.6c}{14}}
\newlabel{sub@fig:granul_patronmoneda}{{c}{14}}
\@writefile{lof}{\contentsline {figure}{\numberline {1.6}{\ignorespaces  \relax }}{14}}
\newlabel{fig:seriegranulapertura}{{\caption@xref {fig:seriegranulapertura}{ on input line 154}}{15}}
\@writefile{lof}{\contentsline {figure}{\numberline {1.7}{\ignorespaces Diagrama de serie morfol\IeC {\'o}gica basada en apertura morfol\IeC {\'o}gica con elemento estructurante creciente\relax }}{15}}
\newlabel{fig:cov_se_no_convex}{{\caption@xref {fig:cov_se_no_convex}{ on input line 169}}{15}}
\@writefile{lof}{\contentsline {figure}{\numberline {1.8}{\ignorespaces SE no convexos que inducen distribuciones \relax }}{15}}
\citation{ronse2006mathematical}
\@writefile{toc}{\contentsline {subsection}{\numberline {1.5.4}Variograma}{16}}
\newlabel{fig:granul_000458}{{1.9a}{17}}
\newlabel{sub@fig:granul_000458}{{a}{17}}
\newlabel{fig:granul_000488}{{1.9b}{17}}
\newlabel{sub@fig:granul_000488}{{b}{17}}
\newlabel{fig:cov_granconfusion}{{1.9c}{17}}
\newlabel{sub@fig:cov_granconfusion}{{c}{17}}
\newlabel{fig:cov_mejorquegranul}{{1.9d}{17}}
\newlabel{sub@fig:cov_mejorquegranul}{{d}{17}}
\@writefile{lof}{\contentsline {figure}{\numberline {1.9}{\ignorespaces  Dos muestras de textura diferentes con distribuci\IeC {\'o}n de tama\IeC {\~n}o muy similares.\relax }}{17}}
\citation{hanbury2005illumination}
\citation{maenpaa2004classification}
\citation{hanbury2005illumination}
\@writefile{toc}{\contentsline {subsection}{\numberline {1.5.5}Distribuciones extendidas }{18}}
\@writefile{toc}{\contentsline {subsection}{\numberline {1.5.6}Distribuciones invariantes de rotaci\IeC {\'o}n}{18}}
\@writefile{toc}{\contentsline {subsection}{\numberline {1.5.7}Invarianza a la iluminaci\IeC {\'o}n}{18}}
\newlabel{fig:invariantrot_original}{{1.10a}{19}}
\newlabel{sub@fig:invariantrot_original}{{a}{19}}
\newlabel{fig:invariantrot_rotado90}{{1.10b}{19}}
\newlabel{sub@fig:invariantrot_rotado90}{{b}{19}}
\newlabel{fig:invariantrot_covarianza}{{\caption@xref {fig:invariantrot_covarianza}{ on input line 283}}{19}}
\newlabel{sub@fig:invariantrot_covarianza}{{b}{19}}
\newlabel{fig:invariantrot_granulometria}{{\caption@xref {fig:invariantrot_granulometria}{ on input line 288}}{19}}
\newlabel{sub@fig:invariantrot_granulometria}{{b}{19}}
\@writefile{lof}{\contentsline {figure}{\numberline {1.10}{\ignorespaces  Distribuci\IeC {\'o}n Invariante de rotaci\IeC {\'o}n \relax }}{19}}
\newlabel{fig:invariantrot}{{1.10}{19}}
\@writefile{lof}{\contentsline {figure}{\numberline {1.11}{\ignorespaces Una muestra de textura de Outex TC000014 bajo diferentes condiciones de iluminaci\IeC {\'o}n \relax }}{20}}
\newlabel{fig:invariantilum1}{{1.11}{20}}
\@writefile{lof}{\contentsline {figure}{\numberline {1.12}{\ignorespaces Ventanas de 3x3 pixeles de una muestra de textura con diferentes fuentes de iluminaci\IeC {\'o}n, donde los valores m\IeC {\'\i }nimo y m\IeC {\'a}ximo de intensidad seleccionan los mismos pixeles \relax }}{20}}
\newlabel{fig:invariantminmax}{{1.12}{20}}
\citation{aptulefe2011}
\citation{lefevre2009beyond}
\@writefile{lof}{\contentsline {figure}{\numberline {1.13}{\ignorespaces Muestra de la Fig. 1.11\hbox {} luego de aplicar ecualizaci\IeC {\'o}n de histograma en cada canal \relax }}{21}}
\newlabel{fig:invarianequal}{{1.13}{21}}
\citation{lefevre2009beyond}
\@writefile{toc}{\contentsline {subsection}{\numberline {1.5.8}Distribuciones de tama\IeC {\~n}o y forma}{22}}
\newlabel{fig:distriforma1}{{\caption@xref {fig:distriforma1}{ on input line 390}}{22}}
\@writefile{toc}{\contentsline {subsection}{\numberline {1.5.9}M\IeC {\'e}todo de evaluaci\IeC {\'o}n }{22}}
\citation{astoladougherty1999nonlinear}
\citation{lefevre2009beyond}
\newlabel{fig:granul_vol_original}{{1.15a}{23}}
\newlabel{sub@fig:granul_vol_original}{{a}{23}}
\newlabel{fig:granul_vol_superficie}{{1.15b}{23}}
\newlabel{sub@fig:granul_vol_superficie}{{b}{23}}
\citation{wood1996invariant}
\citation{hu1962visual}
\@writefile{toc}{\contentsline {subsubsection}{Momentos invariantes}{24}}
\citation{hu1962visual}
\citation{ayaladomingode2006selecting}
\citation{burger2009digital}
\newlabel{eq:momentinvarfinal}{{1.33}{25}}
\@writefile{toc}{\contentsline {subsection}{\numberline {1.5.10}Elecci\IeC {\'o}n el elemento estructurante }{25}}
\@writefile{toc}{\contentsline {section}{\numberline {1.6}Im\IeC {\'a}genes a Color}{25}}
\@writefile{toc}{\contentsline {subsection}{\numberline {1.6.1}Espacios de Color}{25}}
\citation{palm2004color}
\citation{van2005parallel}
\newlabel{fig:espacolor_original}{{1.16a}{27}}
\newlabel{sub@fig:espacolor_original}{{a}{27}}
\newlabel{fig:espacolor_HSB}{{1.16b}{27}}
\newlabel{sub@fig:espacolor_HSB}{{b}{27}}
\newlabel{fig:espacolor_RGB}{{1.16c}{27}}
\newlabel{sub@fig:espacolor_RGB}{{c}{27}}
\citation{barnett1976ordering}
\newlabel{fig:tipostecnicascolortextura }{{\caption@xref {fig:tipostecnicascolortextura }{ on input line 60}}{28}}
\@writefile{lof}{\contentsline {figure}{\numberline {1.17}{\ignorespaces Enfoque paralelo, enfoque secuencial , enfoque integrativo \relax }}{28}}
\@writefile{toc}{\contentsline {section}{\numberline {1.7}Morfolog\IeC {\'\i }a matem\IeC {\'a}tica en color o multivalorada}{28}}
\newlabel{sec:morfologia_color}{{1.7}{28}}
\@writefile{lof}{\contentsline {figure}{\numberline {1.18}{\ignorespaces Importancia del orden en la morfolog\IeC {\'\i }a de la imagen multivariada\relax }}{28}}
\newlabel{fig:diag_gral_morfmulti}{{1.18}{28}}
\@writefile{toc}{\contentsline {subsection}{\numberline {1.7.1}Ordenamiento de vectores}{28}}
\@writefile{toc}{\contentsline {subsubsection}{\textbf  {Ordenamiento Marginal}}{29}}
\@writefile{toc}{\contentsline {subsubsection}{\textbf  {Ordenamiento por Reducci\IeC {\'o}n}}{29}}
\citation{chanussot1998approches}
\citation{goutsias1995morphological}
\@writefile{toc}{\contentsline {subsubsection}{\textbf  {Ordenamiento Condicional o Lexicogr\IeC {\'a}fico}}{30}}
\@writefile{toc}{\contentsline {subsection}{\numberline {1.7.2}Estrategias de procesamiento }{30}}
\citation{aptoula2007comparative}
\citation{zhang1999road}
\citation{aptoula2007comparative}
\citation{aptoula2007comparative}
\citation{aptulefe2011}
\citation{angulo2002morphological}
\citation{angulo2002morphological}
\@writefile{toc}{\contentsline {subsection}{\numberline {1.7.3}Impacto del m\IeC {\'e}todo de ordenamiento y el espacio}{31}}
\@writefile{lof}{\contentsline {figure}{\numberline {1.19}{\ignorespaces Procesamiento Marginal\relax }}{32}}
\@writefile{lof}{\contentsline {figure}{\numberline {1.20}{\ignorespaces Procesamiento Vectorial: Norma-Euc\IeC {\'l}\IeC {\'\i }dea\relax }}{32}}
\newlabel{fig:marginalvsvectorialdist}{{1.20}{32}}
\citation{ledda2005majority}
\citation{aptoula2007comparative}
\citation{angulo2002morphological}
\citation{lefevre2009beyond}
\newlabel{fig:metodosordcolor}{{\caption@xref {fig:metodosordcolor}{ on input line 192}}{33}}
\@writefile{lof}{\contentsline {figure}{\numberline {1.21}{\ignorespaces Comparativa m\IeC {\'e}todos de ordenaci\IeC {\'o}n\relax }}{33}}
\@writefile{toc}{\contentsline {subsection}{\numberline {1.7.4} Granulometr\IeC {\'\i }a en im\IeC {\'a}genes multiespectrales }{33}}
\citation{hanbury2005illumination}
\citation{angulo2002morphological}
\citation{lefevre2009beyond}
\citation{akhloufi2007frameworkfeaturesdist}
\newlabel{fig:im_000082}{{1.22a}{35}}
\newlabel{sub@fig:im_000082}{{a}{35}}
\newlabel{fig:im_000234}{{1.22b}{35}}
\newlabel{sub@fig:im_000234}{{b}{35}}
\newlabel{fig:im_001233}{{1.22c}{35}}
\newlabel{sub@fig:im_001233}{{c}{35}}
\newlabel{fig:curvargb_ima}{{1.22d}{35}}
\newlabel{sub@fig:curvargb_ima}{{d}{35}}
\newlabel{fig:curvargb_imb}{{1.22e}{35}}
\newlabel{sub@fig:curvargb_imb}{{e}{35}}
\newlabel{fig:curvargb_imc}{{1.22f}{35}}
\newlabel{sub@fig:curvargb_imc}{{f}{35}}
\@writefile{lof}{\contentsline {figure}{\numberline {1.22}{\ignorespaces  Granulommetr\IeC {\'\i }as RGB, m\IeC {\'e}todo de ordenaci\IeC {\'o}n $\parallel v \parallel $ para las texturas de la fila superior \relax }}{35}}
\newlabel{fig:curvargb_NORM}{{1.22}{35}}
\newlabel{fig:curvargb_imaNN}{{1.23a}{36}}
\newlabel{sub@fig:curvargb_imaNN}{{a}{36}}
\newlabel{fig:curvargb_imbNN}{{1.23b}{36}}
\newlabel{sub@fig:curvargb_imbNN}{{b}{36}}
\newlabel{fig:curvargb_imcNN}{{1.23c}{36}}
\newlabel{sub@fig:curvargb_imcNN}{{c}{36}}
\@writefile{lof}{\contentsline {figure}{\numberline {1.23}{\ignorespaces  Vol\IeC {\'u}menes sin normalizar para la serie granulom\IeC {\'e}trica de las texturas en Fig.1.20\hbox {} \relax }}{36}}
\newlabel{fig:curvargb_NN}{{1.23}{36}}
\citation{najman2003using}
\citation{chowdhury2003automated}
\@writefile{toc}{\contentsline {section}{\numberline {1.8}Aplicaciones}{37}}
\citation{di2000segmentation}
\citation{theera2007morphological}
\@writefile{toc}{\contentsline {subsection}{\numberline {1.8.1}An\IeC {\'a}lisis de documentos }{38}}
\newlabel{fig:aplic_procdoc1}{{\caption@xref {fig:aplic_procdoc1}{ on input line 22}}{38}}
\@writefile{lof}{\contentsline {figure}{\numberline {1.24}{\ignorespaces Imagen de entrada e imagen de salida \relax }}{38}}
\@writefile{toc}{\contentsline {subsection}{\numberline {1.8.2}Im\IeC {\'a}genes Biom\IeC {\'e}dicas }{38}}
\citation{chen1993classification}
\citation{miller1992classification}
\citation{ayala2001granulometric}
\citation{zhang1999road}
\citation{lefevre2007automatic}
\citation{sobus1992evaluating}
\@writefile{toc}{\contentsline {subsection}{\numberline {1.8.3}Im\IeC {\'a}genes Remotas }{39}}
\citation{horgan1998mathematical}
\citation{mauricio2000texture}
\citation{capowiez2003characterisation}
\citation{ozden2005image}
\@writefile{lof}{\contentsline {figure}{\numberline {1.25}{\ignorespaces nput image (top left), filtered image (top right), detected objects (bottom left), and final result (bottom right) on one of the test images \relax }}{40}}
\@writefile{toc}{\contentsline {subsection}{\numberline {1.8.4}Inspecci\IeC {\'o}n industrial}{40}}
\@writefile{toc}{\contentsline {subsection}{\numberline {1.8.5}Geolog\IeC {\'\i }a}{40}}
\citation{ozden2005image}
\citation{ozden2005image}
\@writefile{toc}{\contentsline {subsection}{\numberline {1.8.6}Segmentaci\IeC {\'o}n de textura}{41}}
\newlabel{apli_segment1}{{\caption@xref {apli_segment1}{ on input line 88}}{41}}
\@writefile{lof}{\contentsline {figure}{\numberline {1.26}{\ignorespaces Segmentaci\IeC {\'o}n utilizando texturas en \cite  {ozden2005image} \relax }}{41}}
\@writefile{toc}{\contentsline {subsection}{\numberline {1.8.7}Recuperaci\IeC {\'o}n de im\IeC {\'a}genes basada en el contenido }{41}}
\citation{vincent2000granulometries}
\citation{van1992methods}
\newlabel{apli_cibr1}{{\caption@xref {apli_cibr1}{ on input line 106}}{42}}
\@writefile{lof}{\contentsline {figure}{\numberline {1.27}{\ignorespaces Demo Online CIBR, Universidad Estatal de Washington\relax }}{42}}
\@writefile{toc}{\contentsline {section}{\numberline {1.9}Implementacion }{42}}
\citation{vincent1994fast}
\bibstyle{acm}
\bibdata{../referencias/primary.bib}
\bibcite{urlmetestadis}{1}
\bibcite{materka1998}{2}
\bibcite{angulo2002morphological}{3}
\bibcite{aptulefe2011}{4}
\bibcite{hanbury2005illumination}{5}
\bibcite{ivanovicicolor}{6}
\bibcite{lefevre2009beyond}{7}
\bibcite{maenpaa2004classification}{8}
\bibcite{palm2004color}{9}
\bibcite{ronse2006mathematical}{10}
\bibcite{markr1994}{11}
\bibcite{serra1992overview}{12}
\bibcite{van2005parallel}{13}
\bibcite{zhang2002brief}{14}
\bibstyle{acm}
\bibdata{../referencias/primary.bib}
\@writefile{toc}{\contentsline {section}{\numberline {1.10}Diagramas pendientes}{45}}
\@writefile{toc}{\contentsline {section}{\numberline {1.11} Clasificadores }{45}}
\bibcite{urlmetestadis}{1}
\bibcite{materka1998}{2}
\bibcite{angulo2002morphological}{3}
\bibcite{aptulefe2011}{4}
\bibcite{hanbury2005illumination}{5}
\bibcite{ivanovicicolor}{6}
\bibcite{lefevre2009beyond}{7}
\bibcite{maenpaa2004classification}{8}
\bibcite{palm2004color}{9}
\bibcite{ronse2006mathematical}{10}
\bibcite{markr1994}{11}
\bibcite{serra1992overview}{12}
\bibcite{van2005parallel}{13}
\bibcite{zhang2002brief}{14}
