\relax 
\bibstyle{acm}
\citation{aptulefe2011}
\citation{materka1998}
\citation{ivanovicicolor}
\citation{markr1994}
\citation{tamura1978textural}
\citation{rao2012taxonomy}
\@writefile{toc}{\contentsline {section}{\numberline {0.1}Textura}{1}}
\citation{ivanovicicolor}
\citation{ivanovicicolor}
\citation{ivanovicicolor}
\citation{materka1998}
\citation{aptulefe2011}
\citation{ivanovicicolor}
\providecommand*\caption@xref[2]{\@setref\relax\@undefined{#1}}
\newlabel{fig:gull}{{1a}{2}}
\newlabel{sub@fig:gull}{{a}{2}}
\newlabel{fig:tiger}{{1b}{2}}
\newlabel{sub@fig:tiger}{{b}{2}}
\newlabel{fig:mouse}{{1c}{2}}
\newlabel{sub@fig:mouse}{{c}{2}}
\newlabel{fig:mouse}{{1d}{2}}
\newlabel{sub@fig:mouse}{{d}{2}}
\@writefile{lof}{\contentsline {figure}{\numberline {1}{\ignorespaces Tipos de textura seg\IeC {\'u}n Rao\relax }}{2}}
\newlabel{fig:textureclasif1}{{1}{2}}
\@writefile{toc}{\contentsline {section}{\numberline {0.2}An\IeC {\'a}lisis de textura}{2}}
\citation{aptulefe2011}
\citation{zhang2002brief}
\citation{materka1998}
\newlabel{fig:gull}{{2a}{3}}
\newlabel{sub@fig:gull}{{a}{3}}
\newlabel{fig:tiger}{{2b}{3}}
\newlabel{sub@fig:tiger}{{b}{3}}
\newlabel{fig:mouse}{{2c}{3}}
\newlabel{sub@fig:mouse}{{c}{3}}
\@writefile{lof}{\contentsline {figure}{\numberline {2}{\ignorespaces Tipos de textura seg\IeC {\'u}n \cite  {ivanovicicolor} \relax }}{3}}
\newlabel{fig:textureclasif2}{{2}{3}}
\@writefile{toc}{\contentsline {subsection}{\numberline {0.2.1}Enfoques para el An\IeC {\'a}lisis de Textura}{3}}
\citation{ivanovicicolor}
\citation{ivanovicicolor}
\citation{zhang2002brief}
\citation{aptulefe2011}
\citation{zhang2002brief}
\citation{angulo2002morphological}
\@writefile{toc}{\contentsline {section}{\numberline {0.3}Clasificaci\IeC {\'o}n y caracterizaci\IeC {\'o}n de textura}{4}}
\@writefile{lof}{\contentsline {figure}{\numberline {3}{\ignorespaces Diagrama del problema de extracci\IeC {\'o}n de caracter\IeC {\'\i }sticas y clasificaci\IeC {\'o}n \relax }}{5}}
\newlabel{fig:extraccionyclasif}{{3}{5}}
