\relax 
\bibstyle{acm}
\citation{najman2003using}
\citation{chowdhury2003automated}
\citation{di2000segmentation}
\@writefile{toc}{\contentsline {section}{\numberline {0.1}Aplicaciones}{1}}
\@writefile{toc}{\contentsline {subsection}{\numberline {0.1.1}An\IeC {\'a}lisis de documentos }{1}}
\providecommand*\caption@xref[2]{\@setref\relax\@undefined{#1}}
\newlabel{fig:aplic_procdoc1}{{\caption@xref {fig:aplic_procdoc1}{ on input line 22}}{1}}
\@writefile{lof}{\contentsline {figure}{\numberline {1}{\ignorespaces Imagen de entrada e imagen de salida \relax }}{1}}
\@writefile{toc}{\contentsline {subsection}{\numberline {0.1.2}Im\IeC {\'a}genes Biom\IeC {\'e}dicas }{1}}
\citation{theera2007morphological}
\citation{chen1993classification}
\citation{miller1992classification}
\citation{ayala2001granulometric}
\citation{zhang1999road}
\citation{lefevre2007automatic}
\@writefile{toc}{\contentsline {subsection}{\numberline {0.1.3}Im\IeC {\'a}genes Remotas }{2}}
\citation{sobus1992evaluating}
\citation{horgan1998mathematical}
\citation{mauricio2000texture}
\citation{capowiez2003characterisation}
\@writefile{lof}{\contentsline {figure}{\numberline {2}{\ignorespaces nput image (top left), filtered image (top right), detected objects (bottom left), and final result (bottom right) on one of the test images \relax }}{3}}
\@writefile{toc}{\contentsline {subsection}{\numberline {0.1.4}Inspecci\IeC {\'o}n industrial}{3}}
\@writefile{toc}{\contentsline {subsection}{\numberline {0.1.5}Geolog\IeC {\'\i }a}{3}}
\citation{ozden2005image}
\citation{ozden2005image}
\citation{ozden2005image}
\@writefile{toc}{\contentsline {subsection}{\numberline {0.1.6}Segmentaci\IeC {\'o}n de textura}{4}}
\newlabel{apli_segment1}{{\caption@xref {apli_segment1}{ on input line 88}}{4}}
\@writefile{lof}{\contentsline {figure}{\numberline {3}{\ignorespaces Segmentaci\IeC {\'o}n utilizando texturas en \cite  {ozden2005image} \relax }}{4}}
\@writefile{toc}{\contentsline {subsection}{\numberline {0.1.7}Recuperaci\IeC {\'o}n de im\IeC {\'a}genes basada en el contenido }{4}}
\citation{vincent2000granulometries}
\newlabel{apli_cibr1}{{\caption@xref {apli_cibr1}{ on input line 106}}{5}}
\@writefile{lof}{\contentsline {figure}{\numberline {4}{\ignorespaces Demo Online CIBR, Universidad Estatal de Washington\relax }}{5}}
\@writefile{toc}{\contentsline {section}{\numberline {0.2}Implementacion }{5}}
\citation{van1992methods}
\citation{vincent1994fast}
\bibstyle{acm}
\bibdata{../referencias/primary.bib}
