\relax 
\bibstyle{acm}
\citation{matheron1975random}
\citation{matheron2002birth}
\citation{soille2013morphological}
\@writefile{toc}{\contentsline {section}{\numberline {0.1}Matem\IeC {\'a}tica Morfol\IeC {\'o}gica}{1}}
\@writefile{toc}{\contentsline {subsection}{\numberline {0.1.1}Nociones B\IeC {\'a}sicas}{1}}
\@writefile{toc}{\contentsline {subsection}{\numberline {0.1.2}Ret\IeC {\'\i }culo Completo, Ordenamiento e Inclusi\IeC {\'o}n}{1}}
\@writefile{toc}{\contentsline {subsection}{\numberline {0.1.3}Operadores morfol\IeC {\'o}gicos}{2}}
\providecommand*\caption@xref[2]{\@setref\relax\@undefined{#1}}
\newlabel{fig:morf_erosion_dilatacion}{{\caption@xref {fig:morf_erosion_dilatacion}{ on input line 127}}{4}}
\@writefile{lof}{\contentsline {figure}{\numberline {1}{\ignorespaces Erosi\IeC {\'o}n y dilataci\IeC {\'o}n de la muestra 000734 de OutexTC13 \relax }}{4}}
\newlabel{fig:morf_apertura_cierre}{{\caption@xref {fig:morf_apertura_cierre}{ on input line 168}}{5}}
\@writefile{lof}{\contentsline {figure}{\numberline {2}{\ignorespaces Apertura y Cierre de la muestra de textura 000734 de la base de datos OutexTC13 \relax }}{5}}
