\relax 
\bibstyle{acm}
\citation{burger2009digital}
\citation{palm2004color}
\citation{van2005parallel}
\@writefile{toc}{\contentsline {section}{\numberline {0.1}Im\IeC {\'a}genes a Color}{1}}
\@writefile{toc}{\contentsline {subsection}{\numberline {0.1.1}Espacios de Color}{1}}
\providecommand*\caption@xref[2]{\@setref\relax\@undefined{#1}}
\newlabel{fig:espacolor_original}{{1a}{2}}
\newlabel{sub@fig:espacolor_original}{{a}{2}}
\newlabel{fig:espacolor_HSB}{{1b}{2}}
\newlabel{sub@fig:espacolor_HSB}{{b}{2}}
\newlabel{fig:espacolor_RGB}{{1c}{2}}
\newlabel{sub@fig:espacolor_RGB}{{c}{2}}
\@writefile{toc}{\contentsline {section}{\numberline {0.2}Morfolog\IeC {\'\i }a matem\IeC {\'a}tica en color o multivalorada}{2}}
\newlabel{sec:morfologia_color}{{0.2}{2}}
\citation{barnett1976ordering}
\newlabel{fig:tipostecnicascolortextura }{{\caption@xref {fig:tipostecnicascolortextura }{ on input line 60}}{3}}
\@writefile{lof}{\contentsline {figure}{\numberline {2}{\ignorespaces Enfoque paralelo, enfoque secuencial , enfoque integrativo \relax }}{3}}
\@writefile{lof}{\contentsline {figure}{\numberline {3}{\ignorespaces Importancia del orden en la morfolog\IeC {\'\i }a de la imagen multivariada\relax }}{3}}
\newlabel{fig:diag_gral_morfmulti}{{3}{3}}
\@writefile{toc}{\contentsline {subsection}{\numberline {0.2.1}Ordenamiento de vectores}{3}}
\@writefile{toc}{\contentsline {subsubsection}{\textbf  {Ordenamiento Marginal}}{4}}
\@writefile{toc}{\contentsline {subsubsection}{\textbf  {Ordenamiento por Reducci\IeC {\'o}n}}{4}}
\@writefile{toc}{\contentsline {subsubsection}{\textbf  {Ordenamiento Condicional o Lexicogr\IeC {\'a}fico}}{4}}
\citation{chanussot1998approches}
\citation{goutsias1995morphological}
\citation{aptoula2007comparative}
\citation{zhang1999road}
\@writefile{toc}{\contentsline {subsection}{\numberline {0.2.2}Estrategias de procesamiento }{5}}
\citation{aptoula2007comparative}
\citation{aptoula2007comparative}
\citation{aptulefe2011}
\citation{angulo2002morphological}
\citation{angulo2002morphological}
\citation{ledda2005majority}
\citation{aptoula2007comparative}
\citation{angulo2002morphological}
\@writefile{toc}{\contentsline {subsection}{\numberline {0.2.3}Impacto del m\IeC {\'e}todo de ordenamiento y el espacio}{6}}
\@writefile{toc}{\contentsline {subsection}{\numberline {0.2.4} Granulometr\IeC {\'\i }a en im\IeC {\'a}genes multiespectrales }{6}}
\@writefile{lof}{\contentsline {figure}{\numberline {4}{\ignorespaces Procesamiento Marginal\relax }}{7}}
\@writefile{lof}{\contentsline {figure}{\numberline {5}{\ignorespaces Procesamiento Vectorial: Norma-Euc\IeC {\'l}\IeC {\'\i }dea\relax }}{7}}
\newlabel{fig:marginalvsvectorialdist}{{5}{7}}
\citation{lefevre2009beyond}
\newlabel{fig:metodosordcolor}{{\caption@xref {fig:metodosordcolor}{ on input line 192}}{8}}
\@writefile{lof}{\contentsline {figure}{\numberline {6}{\ignorespaces Comparativa m\IeC {\'e}todos de ordenaci\IeC {\'o}n\relax }}{8}}
\citation{hanbury2005illumination}
\citation{angulo2002morphological}
\citation{lefevre2009beyond}
\citation{akhloufi2007frameworkfeaturesdist}
\newlabel{fig:im_000082}{{7a}{10}}
\newlabel{sub@fig:im_000082}{{a}{10}}
\newlabel{fig:im_000234}{{7b}{10}}
\newlabel{sub@fig:im_000234}{{b}{10}}
\newlabel{fig:im_001233}{{7c}{10}}
\newlabel{sub@fig:im_001233}{{c}{10}}
\newlabel{fig:curvargb_ima}{{7d}{10}}
\newlabel{sub@fig:curvargb_ima}{{d}{10}}
\newlabel{fig:curvargb_imb}{{7e}{10}}
\newlabel{sub@fig:curvargb_imb}{{e}{10}}
\newlabel{fig:curvargb_imc}{{7f}{10}}
\newlabel{sub@fig:curvargb_imc}{{f}{10}}
\@writefile{lof}{\contentsline {figure}{\numberline {7}{\ignorespaces  Granulommetr\IeC {\'\i }as RGB, m\IeC {\'e}todo de ordenaci\IeC {\'o}n $\parallel v \parallel $ para las texturas de la fila superior \relax }}{10}}
\newlabel{fig:curvargb_NORM}{{7}{10}}
\newlabel{fig:curvargb_imaNN}{{8a}{11}}
\newlabel{sub@fig:curvargb_imaNN}{{a}{11}}
\newlabel{fig:curvargb_imbNN}{{8b}{11}}
\newlabel{sub@fig:curvargb_imbNN}{{b}{11}}
\newlabel{fig:curvargb_imcNN}{{8c}{11}}
\newlabel{sub@fig:curvargb_imcNN}{{c}{11}}
\@writefile{lof}{\contentsline {figure}{\numberline {8}{\ignorespaces  Vol\IeC {\'u}menes sin normalizar para la serie granulom\IeC {\'e}trica de las texturas en Fig.7\hbox {} \relax }}{11}}
\newlabel{fig:curvargb_NN}{{8}{11}}
