\relax 
\bibstyle{acm}
\citation{aptulefe2011}
\citation{tang1998automatic}
\citation{ivanovicicolor}
\@writefile{toc}{\contentsline {section}{\numberline {0.1}Enfoque morfol\IeC {\'o}gico en la caracterizaci\IeC {\'o}n de textura}{1}}
\citation{matheron1975random}
\citation{vincent2000granulometries}
\citation{soille2013morphological}
\citation{serra1992overview}
\@writefile{toc}{\contentsline {subsection}{\numberline {0.1.1}Series morfol\IeC {\'o}gicas}{2}}
\@writefile{lot}{\contentsline {table}{\numberline {1}{\ignorespaces Principales herramientas morfol\IeC {\'o}gicas\relax }}{2}}
\@writefile{toc}{\contentsline {subsection}{\numberline {0.1.2}Distribuciones de tama\IeC {\~n}o Granulometr\IeC {\'\i }a y Patr\IeC {\'o}n espectro }{2}}
\citation{maragos1989pattern}
\citation{serra1992overview}
\citation{maragos1989pattern}
\citation{soille2013morphological}
\@writefile{toc}{\contentsline {subsection}{\numberline {0.1.3}Distribuciones de orientaci\IeC {\'o}n- Covarianza morfol\IeC {\'o}gica}{4}}
\providecommand*\caption@xref[2]{\@setref\relax\@undefined{#1}}
\newlabel{fig:granul_granulmoneda}{{1a}{5}}
\newlabel{sub@fig:granul_granulmoneda}{{a}{5}}
\newlabel{fig:granul_patronmoneda}{{1b}{5}}
\newlabel{sub@fig:granul_patronmoneda}{{b}{5}}
\newlabel{fig:granul_patronmoneda}{{1c}{5}}
\newlabel{sub@fig:granul_patronmoneda}{{c}{5}}
\@writefile{lof}{\contentsline {figure}{\numberline {1}{\ignorespaces  \relax }}{5}}
\newlabel{fig:seriegranulapertura}{{\caption@xref {fig:seriegranulapertura}{ on input line 154}}{6}}
\@writefile{lof}{\contentsline {figure}{\numberline {2}{\ignorespaces Diagrama de serie morfol\IeC {\'o}gica basada en apertura morfol\IeC {\'o}gica con elemento estructurante creciente\relax }}{6}}
\newlabel{fig:cov_se_no_convex}{{\caption@xref {fig:cov_se_no_convex}{ on input line 169}}{6}}
\@writefile{lof}{\contentsline {figure}{\numberline {3}{\ignorespaces SE no convexos que inducen distribuciones \relax }}{6}}
\citation{ronse2006mathematical}
\@writefile{toc}{\contentsline {subsection}{\numberline {0.1.4}Variograma}{7}}
\newlabel{fig:granul_000458}{{4a}{8}}
\newlabel{sub@fig:granul_000458}{{a}{8}}
\newlabel{fig:granul_000488}{{4b}{8}}
\newlabel{sub@fig:granul_000488}{{b}{8}}
\newlabel{fig:cov_granconfusion}{{4c}{8}}
\newlabel{sub@fig:cov_granconfusion}{{c}{8}}
\newlabel{fig:cov_mejorquegranul}{{4d}{8}}
\newlabel{sub@fig:cov_mejorquegranul}{{d}{8}}
\@writefile{lof}{\contentsline {figure}{\numberline {4}{\ignorespaces  Dos muestras de textura diferentes con distribuci\IeC {\'o}n de tama\IeC {\~n}o muy similares.\relax }}{8}}
\citation{hanbury2005illumination}
\citation{maenpaa2004classification}
\citation{hanbury2005illumination}
\@writefile{toc}{\contentsline {subsection}{\numberline {0.1.5}Distribuciones extendidas }{9}}
\@writefile{toc}{\contentsline {subsection}{\numberline {0.1.6}Distribuciones invariantes de rotaci\IeC {\'o}n}{9}}
\@writefile{toc}{\contentsline {subsection}{\numberline {0.1.7}Invarianza a la iluminaci\IeC {\'o}n}{9}}
\newlabel{fig:invariantrot_original}{{5a}{10}}
\newlabel{sub@fig:invariantrot_original}{{a}{10}}
\newlabel{fig:invariantrot_rotado90}{{5b}{10}}
\newlabel{sub@fig:invariantrot_rotado90}{{b}{10}}
\newlabel{fig:invariantrot_covarianza}{{\caption@xref {fig:invariantrot_covarianza}{ on input line 283}}{10}}
\newlabel{sub@fig:invariantrot_covarianza}{{b}{10}}
\newlabel{fig:invariantrot_granulometria}{{\caption@xref {fig:invariantrot_granulometria}{ on input line 288}}{10}}
\newlabel{sub@fig:invariantrot_granulometria}{{b}{10}}
\@writefile{lof}{\contentsline {figure}{\numberline {5}{\ignorespaces  Distribuci\IeC {\'o}n Invariante de rotaci\IeC {\'o}n \relax }}{10}}
\newlabel{fig:invariantrot}{{5}{10}}
\@writefile{lof}{\contentsline {figure}{\numberline {6}{\ignorespaces Una muestra de textura de Outex TC000014 bajo diferentes condiciones de iluminaci\IeC {\'o}n \relax }}{11}}
\newlabel{fig:invariantilum1}{{6}{11}}
\@writefile{lof}{\contentsline {figure}{\numberline {7}{\ignorespaces Ventanas de 3x3 pixeles de una muestra de textura con diferentes fuentes de iluminaci\IeC {\'o}n, donde los valores m\IeC {\'\i }nimo y m\IeC {\'a}ximo de intensidad seleccionan los mismos pixeles \relax }}{11}}
\newlabel{fig:invariantminmax}{{7}{11}}
\citation{aptulefe2011}
\citation{lefevre2009beyond}
\@writefile{lof}{\contentsline {figure}{\numberline {8}{\ignorespaces Muestra de la Fig. 6\hbox {} luego de aplicar ecualizaci\IeC {\'o}n de histograma en cada canal \relax }}{12}}
\newlabel{fig:invarianequal}{{8}{12}}
\@writefile{toc}{\contentsline {subsection}{\numberline {0.1.8}Distribuciones de tama\IeC {\~n}o y forma}{12}}
\citation{lefevre2009beyond}
\newlabel{fig:distriforma1}{{\caption@xref {fig:distriforma1}{ on input line 390}}{13}}
\@writefile{toc}{\contentsline {subsection}{\numberline {0.1.9}M\IeC {\'e}todo de evaluaci\IeC {\'o}n }{13}}
\citation{astoladougherty1999nonlinear}
\citation{lefevre2009beyond}
\newlabel{fig:granul_vol_original}{{10a}{14}}
\newlabel{sub@fig:granul_vol_original}{{a}{14}}
\newlabel{fig:granul_vol_superficie}{{10b}{14}}
\newlabel{sub@fig:granul_vol_superficie}{{b}{14}}
\citation{wood1996invariant}
\citation{hu1962visual}
\citation{hu1962visual}
\citation{ayaladomingode2006selecting}
\@writefile{toc}{\contentsline {subsubsection}{Momentos invariantes}{15}}
\newlabel{eq:momentinvarfinal}{{27}{15}}
\@writefile{toc}{\contentsline {subsection}{\numberline {0.1.10}Elecci\IeC {\'o}n el elemento estructurante }{16}}
