p	MAXV1	SMOV1	SMOV3	MAXV3	MEANV1	VARV1	VARV3	MEANV0	MEANV3	MAXV0	SMOV0	ED	MO2V3	MO1V3	MO2V0	MO1V1	MO2V1	VARV0	MINV0	BM	MO1V0	AMLEX	LEX	MINV3	HLEX	MINV1	ALEX	DLAB
0.01	18900979.58	18901831.49	18902076.05	18902230.5	18903441.34	18906567.08	18907995.46	18904801.3	18904801.3	18920574.57	18932342.82	18926015.09	18920273.47	18920198.96	18931838.5	18926612.5	18926666.78	18921365.82	18927571.32	18933618.04	18928480.79	18943195.83	18956931.72	18944345.66	18979477.29	18964778.85	18955350.6	19055868.53
0.03	19377632.91	19377157.44	19377628.31	19377801.38	19378901.62	19381270.81	19383592.69	19380800.95	19380800.95	19387590.63	19395767.1	19401466.36	19395879.3	19395577.81	19400160.36	19407958.81	19408047.19	19407787.53	19404101.98	19407727.26	19407211.84	19415471.84	19445225.25	19430917.09	19471750.81	19453064.8	19442953.08	19522178.11
0.05	20130470.23	20130389.68	20130759.01	20130920.22	20134186.97	20133489.17	20136912.9	20134206.87	20134206.87	20144275.98	20142699.19	20143556.39	20141911.99	20141979.79	20143812.63	20138323.89	20138332.24	20150527.14	20147896.83	20159152.74	20151365.76	20174195.51	20201963.18	20188993.71	20214962.48	20211689.68	20207205.7	20323864.81
0.07	20824825.13	20825232.54	20825377.92	20826135.68	20827993.66	20829519.68	20831741.73	20830349.62	20830349.62	20840565.65	20848124.13	20855993.93	20850367.76	20849789.99	20859205.04	20848213.74	20848064.81	20867989.65	20865438.67	20873683.76	20872166.34	20891123.21	20930180.81	20927922.32	20962507.43	20960788.59	20948418.47	21095713.32
0.09	21498372.27	21498872.29	21499147.87	21499380.61	21502689.74	21503743.92	21506034.48	21505834.62	21505834.62	21518008.28	21516559.09	21516893.77	21511263.67	21511452.17	21523261.47	21508582.3	21508558.5	21529865.22	21520157.56	21532782.5	21530711.78	21565046.48	21596292.79	21593547.17	21626380.61	21632938.3	21632801.4	21801253.8
0.11	21994072.46	21994511.6	21994746.62	21994873.71	21999919.74	22000179.23	22002248.07	22003479.21	22003479.21	22016747.55	22027966.41	22026781	22035559.22	22035861.53	22035467.65	22039343.27	22039600.49	22044857.61	22059036.7	22046477.52	22066577.75	22091336.14	22133074.53	22151490.55	22164509	22175586.52	22188335.12	22364300.72
0.13	22454997.58	22456356.39	22455801.97	22456154.42	22462043.52	22458037.62	22463802.11	22465873.78	22465873.78	22487563.52	22498257.28	22497795.89	22512384.01	22512416.8	22507832.03	22511115.32	22511180.86	22517820.36	22523620.98	22517879.23	22551103.09	22569820.79	22616858	22641760.37	22647127.42	22665204.44	22682087.09	22873742.34
0.15	22842840.64	22842892.64	22843171.11	22843425.1	22848611.68	22848934.39	22851980.54	22853173.16	22853173.16	22870085.57	22882748.37	22882576.82	22902501.12	22902584.49	22894836.91	22897327.54	22897182.02	22905484.75	22913123.9	22902095.36	22935481.67	22957709.34	23012077.02	23049558.05	23038858.21	23064981.64	23096928.81	23300072.43
0.17	23166137.66	23166116.17	23166874.63	23167296.8	23173517.73	23171720.51	23173729.93	23177840.82	23177840.82	23197480.23	23210823.29	23209386.14	23237398.61	23238360.12	23226359.74	23243614.5	23243519.79	23235461.7	23254901.4	23230963.15	23279433.71	23299110.29	23358080.87	23408319.8	23389232.39	23417587.74	23457357.37	23677477.53
